0 - 2.0 - 0.0
1 - 2.9875 - 0.11110243021644482
2 - 2.9875 - 0.11110243021644482
3 - 2.9875 - 0.11110243021644482
4 - 2.9875 - 0.11110243021644482
5 - 2.7125 - 0.47942022276912755
6 - 2.9625 - 0.765567599889128
7 - 3.9 - 0.7348469228349535
8 - 4.85 - 0.7262919523166977
9 - 4.85 - 0.7262919523166977
10 - 4.85 - 0.7262919523166977
11 - 4.85 - 0.7262919523166977
12 - 4.3125 - 1.0792792734042473
13 - 4.575 - 1.1913752557443857
14 - 5.5125 - 1.1618277626223263
15 - 6.4 - 1.1247221879201994
16 - 6.4 - 1.1247221879201994
17 - 6.4 - 1.1247221879201994
18 - 6.4 - 1.1247221879201994
19 - 5.8125 - 1.4755825120947998
20 - 6.1125 - 1.7606373135884628
21 - 7.075 - 1.759083568225228
22 - 8.025 - 1.7746478523921307
23 - 8.025 - 1.7746478523921307
24 - 8.025 - 1.7746478523921307
25 - 8.025 - 1.7746478523921307
26 - 7.45 - 1.8364367672206956
27 - 7.675 - 1.9860450649469161
28 - 8.6125 - 2.0093142486928217
29 - 9.525 - 2.0431287282009425
30 - 9.525 - 2.0431287282009425
31 - 9.525 - 2.0431287282009425
32 - 9.525 - 2.0431287282009425
33 - 8.4875 - 2.3237563878341465
34 - 8.6125 - 2.3318112595148
35 - 9.55 - 2.4233241632105265
36 - 10.45 - 2.459166525471587
37 - 10.45 - 2.459166525471587
38 - 10.45 - 2.459166525471587
39 - 10.45 - 2.459166525471587
40 - 9.425 - 2.625714188558991
41 - 9.4375 - 2.635544298622203
42 - 10.3375 - 2.6169818016180395
43 - 11.2 - 2.6
44 - 11.2 - 2.6
45 - 11.2 - 2.6
46 - 11.2 - 2.6
47 - 10.1 - 2.672077843177478
48 - 9.45 - 2.8279851484758542
49 - 10.3375 - 2.810443692728961
50 - 11.1875 - 2.828841414784505
51 - 11.1875 - 2.828841414784505
52 - 11.1875 - 2.828841414784505
53 - 11.1875 - 2.828841414784505
54 - 10.2375 - 2.903634575837669
55 - 9.8125 - 3.1188689857061966
56 - 10.7375 - 3.165216224841521
57 - 11.6125 - 3.1563180685729373
58 - 11.6125 - 3.1563180685729373
59 - 11.6125 - 3.1563180685729373
60 - 11.6125 - 3.1563180685729373
61 - 10.7125 - 3.1432218741285194
62 - 9.7625 - 3.414102187984419
63 - 10.6875 - 3.4445382491707073
64 - 11.5125 - 3.3911419536787317
65 - 11.5125 - 3.3911419536787317
66 - 11.5125 - 3.3911419536787317
67 - 11.5125 - 3.3911419536787317
68 - 10.5625 - 3.4635377506243525
69 - 9.8125 - 3.626616019101002
70 - 10.6875 - 3.590242853902783
71 - 11.5125 - 3.474887588109866
72 - 11.5125 - 3.474887588109866
73 - 11.5125 - 3.474887588109866
74 - 11.5125 - 3.474887588109866
75 - 10.4125 - 3.4881719782717133
76 - 9.675 - 3.4596784532670077
77 - 10.55 - 3.3981612675092396
78 - 11.3875 - 3.333518224038981
79 - 11.3875 - 3.333518224038981
80 - 11.3875 - 3.333518224038981
