0 - 0.09643510693782253 - 0.0024108776734455633
1 - 1.0240583708411768 - 0.05495879034784866
2 - 1.0564680281438326 - 0.06500065234468758
3 - 1.0728774867559734 - 0.06782733587086004
4 - 1.0860271265632229 - 0.08415269063411504
5 - 1.3681892031117489 - 0.09120674254782819
6 - 1.3681892031117489 - 0.09120674254782819
7 - 1.6052773858371534 - 0.15401769796012194
8 - 2.7647744382682604 - 0.2025452686431409
9 - 2.7647744382682604 - 0.24396459433366133
10 - 2.7647744382682604 - 0.2569482049603753
11 - 3.5475265132753475 - 0.30466996662868223
12 - 3.5475265132753475 - 0.3061298196760723
13 - 3.5475265132753475 - 0.30663377904479583
14 - 3.5481509164759997 - 0.40139839923518406
15 - 3.5481509164759997 - 0.461871380451619
16 - 3.5481509164759997 - 0.4618721179296933
17 - 3.5481509164759997 - 0.499087259136673
18 - 7.120201125897865 - 0.6558531357012136
19 - 7.120201125897865 - 0.6597509685567957
20 - 7.120201125897865 - 0.6600863204442979
21 - 7.120201125897865 - 0.7486244852496744
22 - 7.120201125897865 - 0.8142852286454403
23 - 7.120201125897865 - 0.8143818026902337
24 - 8.009571386105138 - 0.8738859723457072
25 - 8.009571386105138 - 0.896434850618727
26 - 8.009571386105138 - 0.9073231601104762
27 - 8.009571386105138 - 0.9106222542244875
28 - 8.009571386105138 - 0.9181284075467536
29 - 8.009571386105138 - 0.8968352470943932
30 - 8.009571386105138 - 0.9120511580952135
31 - 8.009571386105138 - 0.9283400674387259
32 - 23.216623595126563 - 1.380871234909563
33 - 23.216623595126563 - 1.432541406912563
34 - 23.216623595126563 - 1.4427935759613688
35 - 23.216623595126563 - 1.4426798701054042
36 - 23.216623595126563 - 1.3848616831140361
37 - 23.216623595126563 - 1.5752770959891964
38 - 23.243604579759072 - 1.5982702176545234
39 - 23.243604579759072 - 1.6646881582086117
40 - 23.3894356545649 - 2.1216011472014054
41 - 23.3894356545649 - 2.124891762017459
42 - 23.3894356545649 - 1.7537706406536038
43 - 23.3894356545649 - 1.8359983495828787
44 - 23.3894356545649 - 1.8477043013421142
45 - 23.3894356545649 - 1.8736827176419457
46 - 24.01106990545987 - 2.1561156179664116
47 - 26.026751041286865 - 2.2808137337025665
48 - 27.51414085438376 - 2.3549081906281617
49 - 27.51414085438376 - 2.2481747266055407
50 - 27.51414085438376 - 2.0347049983373546
51 - 27.51414085438376 - 2.5669817698073607
52 - 27.51414085438376 - 3.0676656539206903
53 - 27.51414085438376 - 3.7464257646093393
54 - 27.51414085438376 - 4.145561309543882
55 - 27.51414085438376 - 4.318864185182918
56 - 27.51414085438376 - 4.213761318728132
57 - 27.51414085438376 - 3.7059017639577037
58 - 27.51414085438376 - 3.835693517934678
59 - 27.51414085438376 - 4.223840911325133
60 - 27.51414085438376 - 4.342148538529818
61 - 29.037916107554185 - 4.597019207391964
62 - 29.037916107554185 - 4.766697766211939
63 - 29.037916107554185 - 4.207294209700293
64 - 29.037916107554185 - 4.067675419394454
65 - 29.037916107554185 - 4.207346979952325
66 - 29.037916107554185 - 4.410680394529332
67 - 29.094736303781207 - 4.887070679059422
68 - 30.875 - 5.126932840352361
69 - 30.875 - 5.227363939008725
70 - 30.875 - 4.705669396311806
71 - 30.875 - 4.678691046701241
72 - 30.875 - 4.761751937018959
73 - 30.875 - 4.824358352744463
74 - 30.875 - 5.131733390141287
75 - 30.875 - 5.485894947823703
76 - 30.875 - 5.601619218824309
77 - 30.875 - 5.3949691385765
78 - 31.0 - 5.044951400808365
79 - 31.0 - 5.166363444729609
80 - 31.0 - 5.197322088967566
81 - 31.0 - 5.274847775683274
82 - 31.0 - 5.63132809160588
83 - 31.0 - 5.6627885355266745
84 - 31.0 - 5.44354458229998
85 - 31.0 - 5.156475267085528
86 - 31.0 - 5.262132596477948
87 - 31.0 - 5.458370324445081
88 - 31.0 - 5.726328280930714
89 - 31.190096433601877 - 6.176939869261585
90 - 31.190096433601877 - 6.317473224594606
91 - 34.06581697834165 - 5.994575313281619
92 - 34.06581697834165 - 5.971126764528363
93 - 34.06581697834165 - 5.984378863828321
94 - 37.07271658088032 - 6.063869157483902
95 - 37.07271658088032 - 6.2151524422461755
96 - 37.07271658088032 - 6.666832887739675
97 - 37.07271658088032 - 7.521218715121977
98 - 37.07271658088032 - 7.387561896530499
99 - 37.07271658088032 - 7.028020580206165
100 - 37.07271658088032 - 7.153441461835383
101 - 37.07271658088032 - 7.274886085091208
102 - 37.07271658088032 - 7.347558486867901
103 - 37.07271658088032 - 7.756167451751958
104 - 37.07271658088032 - 9.098156590161757
105 - 37.07271658088032 - 9.452798855373478
106 - 37.07271658088032 - 9.04248458119481
107 - 37.07271658088032 - 9.231565233166911
108 - 37.07271658088032 - 9.28991422599051
109 - 37.07271658088032 - 9.897620113940539
110 - 37.07271658088032 - 10.685348211221903
111 - 37.125 - 11.055114866814643
112 - 37.125 - 10.448637685641698
113 - 37.25 - 9.638000276739955
114 - 37.25 - 9.759564763570076
115 - 37.25 - 9.862624990498176
116 - 38.25 - 10.04868026297845
117 - 38.25 - 11.365496509247958
118 - 38.25 - 12.542882057405219
119 - 38.25 - 12.021790983630007
120 - 38.25 - 10.948819413594284
121 - 38.25 - 10.97395132754335
122 - 38.25 - 11.203388195400017
123 - 38.25 - 11.255212351747845
124 - 38.25 - 12.793063766176166
125 - 38.25 - 13.318966045436792
126 - 38.25 - 12.671722006358834
127 - 38.25 - 11.96651131604454
128 - 38.25 - 12.080532670115037
129 - 38.25 - 12.806610321916756
130 - 38.25 - 13.154381449131094
131 - 38.876090068817135 - 14.176300104539411
132 - 40.7487780046463 - 14.579046336585474
133 - 40.7487780046463 - 13.480425215397574
134 - 40.7487780046463 - 13.058341946156526
135 - 40.7487780046463 - 13.206419907148666
136 - 40.7487780046463 - 13.261456232108063
137 - 43.125 - 13.905429781428785
138 - 43.125 - 14.828119946328579
139 - 43.125 - 15.303130529420244
140 - 43.125 - 14.496066487238298
141 - 43.125 - 13.498082731314275
142 - 43.125 - 13.541621449838086
143 - 43.125 - 13.582837641807066
144 - 43.125 - 13.776157921207238
145 - 43.125 - 15.14120377128691
146 - 43.125 - 16.529172083888746
147 - 43.125 - 15.55411181006138
148 - 43.125 - 14.726716527612234
149 - 43.125 - 15.008595563503956
150 - 43.125 - 15.0213259302409
151 - 45.125 - 15.176084754389615
152 - 48.0 - 16.633594177588883
153 - 48.875 - 18.030750430131203
154 - 48.875 - 17.023237209579122
155 - 48.875 - 16.082124470028635
156 - 48.875 - 16.19666145640906
157 - 48.875 - 16.547985920010966
158 - 48.875 - 16.783671281853806
159 - 48.875 - 17.939521084299088
160 - 48.875 - 19.324367358139405
161 - 48.875 - 17.851860023206502
162 - 48.875 - 16.70759533671682
163 - 48.875 - 16.87228155101449
164 - 55.875 - 17.21069726553384
165 - 55.875 - 18.103750589570005
166 - 55.875 - 19.27228543561023
167 - 55.875 - 20.780222192646416
168 - 55.875 - 19.219337939190062
169 - 55.875 - 18.314357924055695
170 - 55.875 - 18.490559095260334
171 - 55.875 - 18.683065991580754
172 - 55.875 - 19.095579805019234
173 - 55.875 - 20.53867215754449
174 - 55.875 - 20.954328777081034
175 - 57.04721474529881 - 19.26367982697365
176 - 57.04721474529881 - 18.325143819543435
177 - 57.04721474529881 - 18.592091377581003
178 - 57.04721474529881 - 18.999580861629227
179 - 57.04721474529881 - 19.40927166307515
180 - 57.04721474529881 - 21.514381775092488
181 - 57.04721474529881 - 22.452055774719927
182 - 57.04721474529881 - 21.35692289002396
183 - 57.04721474529881 - 20.178896154792923
184 - 57.04721474529881 - 20.652381601608152
185 - 57.04721474529881 - 20.9604215586724
186 - 57.04721474529881 - 21.90983286664908
187 - 59.012463674545295 - 24.165241301427873
188 - 61.40115501403809 - 24.867202756093256
189 - 61.40115501403809 - 22.76320422898109
190 - 61.40115501403809 - 20.584622301351622
191 - 61.40115501403809 - 20.783873215703665
192 - 61.40115501403809 - 20.86291173149565
193 - 73.87121942520142 - 22.12882946218508
194 - 73.87121942520142 - 23.98182026199175
195 - 73.87121942520142 - 24.702562876220135
196 - 73.87121942520142 - 23.090933617910004
197 - 73.87121942520142 - 22.148636185746916
198 - 73.87121942520142 - 22.349591013521465
199 - 73.87121942520142 - 22.37690786645926
200 - 73.87121942520142 - 22.84895273546774
201 - 73.87121942520142 - 24.326910872032517
202 - 73.87121942520142 - 25.417152631607117
203 - 73.87121942520142 - 24.271779117254834
204 - 73.87121942520142 - 23.50976850584977
205 - 73.87121942520142 - 23.585406361221857
206 - 73.87121942520142 - 23.796921671971464
207 - 73.87121942520142 - 24.069651132603575
208 - 73.87121942520142 - 25.886927531596182
209 - 73.87121942520142 - 26.3155024600903
210 - 73.87121942520142 - 24.365582096060656
211 - 73.87121942520142 - 23.469807096452584
212 - 73.87121942520142 - 23.472843955550818
213 - 73.87121942520142 - 23.497757131859395
214 - 73.87121942520142 - 23.816661976929282
215 - 73.87121942520142 - 25.588836473271282
216 - 73.87121942520142 - 26.739358832389
217 - 73.87121942520142 - 25.393505150196834
218 - 73.87121942520142 - 23.970483521154645
219 - 73.87121942520142 - 24.13772098798877
220 - 73.87121942520142 - 24.32518206630572
221 - 73.87121942520142 - 24.609777814385954
222 - 73.87121942520142 - 26.325865206608547
223 - 73.87121942520142 - 27.202744282518665
224 - 73.87121942520142 - 26.09058428381323
225 - 73.87121942520142 - 25.094714074295133
226 - 73.87121942520142 - 25.21195976672285
227 - 73.87121942520142 - 25.216561860835107
228 - 73.87121942520142 - 25.362572992735032
229 - 73.87121942520142 - 26.93915243144486
230 - 73.87121942520142 - 28.45845189319855
231 - 73.87121942520142 - 26.697125548699752
232 - 73.87121942520142 - 25.258055786525677
233 - 73.87121942520142 - 25.324996780162547
234 - 73.87121942520142 - 25.37747029729341
235 - 73.87121942520142 - 25.854867148203653
236 - 73.87121942520142 - 28.155470140987536
237 - 73.87121942520142 - 29.081752719261125
238 - 73.87121942520142 - 26.648110015738848
239 - 73.9987705039978 - 25.314720258918822
240 - 73.9987705039978 - 25.994440758737085
241 - 73.9987705039978 - 26.085197346483984
242 - 73.9987705039978 - 26.314403411679155
243 - 73.9987705039978 - 28.430786896595045
244 - 73.9987705039978 - 29.26616653355485
245 - 77.64822961807252 - 27.29611711878838
246 - 77.64822961807252 - 25.968584352594444
247 - 77.64822961807252 - 26.07927208960055
248 - 77.64822961807252 - 26.366005693298412
249 - 77.64822961807252 - 26.70300465239897
250 - 77.64822961807252 - 28.68011807103062
251 - 77.64822961807252 - 29.672848932952462
252 - 77.64822961807252 - 28.742955695864786
253 - 77.64822961807252 - 25.58731497755489
254 - 78.13284660339355 - 25.743675763414082
255 - 78.13284660339355 - 25.74373577103331
256 - 78.13284660339355 - 26.304013660403257
257 - 78.13284660339355 - 28.690140008426216
258 - 78.13284660339355 - 31.470364973959942
259 - 78.13284660339355 - 29.499900257888783
260 - 78.13284660339355 - 28.09049883616445
261 - 78.13284660339355 - 28.12884021249809
262 - 78.13284660339355 - 28.142560986951032
263 - 78.13284660339355 - 28.427404092132935
264 - 78.13284660339355 - 30.533187075895484
265 - 78.13284660339355 - 32.21474780836603
266 - 78.13284660339355 - 30.9131607305169
267 - 78.13284660339355 - 28.757665693497692
268 - 78.13284660339355 - 29.07392984570143
269 - 78.13284660339355 - 29.18662936113041
270 - 78.13284660339355 - 29.727089245014373
271 - 78.13284660339355 - 32.23679517052177
272 - 78.13284660339355 - 32.88929588206064
273 - 78.13284660339355 - 31.55491595637423
274 - 78.13284660339355 - 30.034866376452833
275 - 78.13284660339355 - 30.219969352963233
276 - 78.13284660339355 - 30.332874365443757
277 - 78.13284660339355 - 30.97495535792204
278 - 78.13284660339355 - 32.99256332094413
279 - 78.13284660339355 - 36.07544540107638
280 - 78.13284660339355 - 33.742109277546405
281 - 78.13284660339355 - 31.95882683978141
282 - 78.13284660339355 - 32.18567611452299
283 - 78.13284660339355 - 32.413906401265606
284 - 78.13284660339355 - 32.986514230112206
285 - 78.13284660339355 - 35.72367283269283
286 - 78.13284660339355 - 36.852063256700085
287 - 78.13284660339355 - 34.72806289727412
288 - 78.13284660339355 - 32.622100497206
289 - 78.13284660339355 - 32.64814787255327
290 - 78.13284660339355 - 33.08980746687146
291 - 78.13284660339355 - 33.79153244093983
292 - 78.13284660339355 - 36.83062850235
293 - 78.13284660339355 - 39.70711358130011
294 - 78.13284660339355 - 37.5572894900675
295 - 78.13284660339355 - 34.97310608272828
296 - 78.13284660339355 - 35.320163229277505
297 - 78.13284660339355 - 35.50743658615379
298 - 78.13284660339355 - 36.12196947641557
299 - 78.13284660339355 - 39.12273738229715
300 - 78.13284660339355 - 41.17298607088331
301 - 78.13284660339355 - 39.01689824074116
302 - 78.13284660339355 - 37.097617241402766
303 - 78.13284660339355 - 37.72859231288787
