0 - 2.0 - 0.0
1 - 2.9875 - 0.11110243021644473
2 - 2.9875 - 0.11110243021644473
3 - 2.9875 - 0.11110243021644473
4 - 2.9875 - 0.11110243021644473
5 - 2.75 - 0.5361902647381804
6 - 3.05 - 0.65
7 - 3.9875 - 0.5808130077744471
8 - 4.925 - 0.5190134873006668
9 - 4.925 - 0.5190134873006668
10 - 4.925 - 0.5190134873006668
11 - 4.925 - 0.5190134873006668
12 - 4.3125 - 0.982264602843857
13 - 4.475 - 1.2142384444580894
14 - 5.4125 - 1.1799761650135143
15 - 6.3375 - 1.1174049176551892
16 - 6.3375 - 1.1174049176551892
17 - 6.3375 - 1.1174049176551892
18 - 6.3375 - 1.1174049176551892
19 - 5.6375 - 1.459826616417169
20 - 5.9375 - 1.6381678027601445
21 - 6.9 - 1.6477257053284078
22 - 7.825 - 1.6865274975522926
23 - 7.825 - 1.6865274975522926
24 - 7.825 - 1.6865274975522926
25 - 7.825 - 1.6865274975522926
26 - 7.1125 - 1.8302578370273406
27 - 7.5375 - 2.19056927532548
28 - 8.4875 - 2.1794136252671272
29 - 9.4 - 2.159861106645518
30 - 9.4 - 2.159861106645518
31 - 9.4 - 2.159861106645518
32 - 9.4 - 2.159861106645518
33 - 8.725 - 2.1270578271405793
34 - 8.925 - 2.3063770290219243
35 - 9.8375 - 2.260772821404221
36 - 10.7625 - 2.214970372262347
37 - 10.7625 - 2.214970372262347
38 - 10.7625 - 2.214970372262347
39 - 10.7625 - 2.214970372262347
40 - 9.7625 - 2.3518277466685342
41 - 9.8375 - 2.4415351215987053
42 - 10.8 - 2.4617067250182343
43 - 11.7125 - 2.4808957555689437
44 - 11.7125 - 2.4808957555689437
45 - 11.7125 - 2.4808957555689437
46 - 11.7125 - 2.4808957555689437
47 - 10.6 - 2.4062418831031933
48 - 10.0 - 2.9958304357890486
49 - 10.9625 - 3.0060096057730754
50 - 11.9 - 2.9983328701129897
51 - 11.9 - 2.9983328701129897
52 - 11.9 - 2.9983328701129897
53 - 11.9 - 2.9983328701129897
54 - 10.7625 - 2.9463695881542087
55 - 10.075 - 2.9948914838437806
56 - 11.0125 - 2.9685592043952904
57 - 11.9125 - 2.937659570134021
58 - 11.9125 - 2.937659570134021
59 - 11.9125 - 2.937659570134021
60 - 11.9125 - 2.937659570134021
61 - 11.075 - 2.9823438768860977
62 - 10.575 - 3.274045662479374
63 - 11.5125 - 3.2518984839628686
64 - 12.4 - 3.1999999999999997
65 - 12.4 - 3.1999999999999997
66 - 12.4 - 3.1999999999999997
67 - 12.4 - 3.1999999999999997
68 - 11.3125 - 3.188235209328195
69 - 10.9125 - 3.553849145644761
70 - 11.7875 - 3.491753678311229
71 - 12.5875 - 3.397402500440594
72 - 12.5875 - 3.397402500440594
73 - 12.5875 - 3.397402500440594
74 - 12.5875 - 3.397402500440594
75 - 11.75 - 3.451448971084463
76 - 11.325 - 3.714077947485755
77 - 12.175 - 3.587391113330131
78 - 12.975 - 3.4891797030247664
