0 - 0.10850361651844448 - 0.012000238167859657
1 - 0.34400667084587944 - 0.02811584217087733
2 - 0.34400667084587944 - 0.03471242626518588
3 - 0.34400667084587944 - 0.05824288975307153
4 - 0.34400667084587944 - 0.07230581205067273
5 - 0.34400667084587944 - 0.0731249192733944
6 - 0.34400667084587944 - 0.07424274905885492
7 - 1.376120698120859 - 0.14475169547540853
8 - 1.5029962811205122 - 0.1450320558652877
9 - 1.5029962811205122 - 0.15991152449452783
10 - 1.5029962811205122 - 0.1754289271903043
11 - 1.5029962811205122 - 0.21146283161418983
12 - 1.5029962811205122 - 0.23099944850649784
13 - 1.5029962811205122 - 0.24487227796205033
14 - 1.5029962811205122 - 0.22890221845733727
15 - 1.5029962811205122 - 0.2839256099647092
16 - 1.5029962811205122 - 0.31784700062630383
17 - 1.5029962811205122 - 0.3468241915091251
18 - 1.5520167507231235 - 0.45760290456812874
19 - 1.6666986296574275 - 0.553730300472558
20 - 1.7799517740805944 - 0.545241446957225
21 - 1.7799517740805944 - 0.3841420656550649
22 - 1.7799517740805944 - 0.3103134944177388
23 - 1.7799517740805944 - 0.334867682113545
24 - 1.7799517740805944 - 0.3727419556489783
25 - 1.7799517740805944 - 0.4229438252871235
26 - 1.7799517740805944 - 0.5672566900590511
27 - 1.7799517740805944 - 0.5657022697535445
28 - 1.7799517740805944 - 0.4367651568787793
29 - 1.7799517740805944 - 0.3368625019736485
30 - 1.7799517740805944 - 0.39215199964922964
31 - 1.7799517740805944 - 0.4443151308766877
32 - 1.7799517740805944 - 0.5605000054347329
33 - 1.7799517740805944 - 0.7835122004676507
34 - 1.8221782551871404 - 0.8783593574685679
35 - 1.8221782551871404 - 0.7461210067357467
36 - 1.8221782551871404 - 0.6222437503022673
37 - 1.8221782551871404 - 0.6361210221579313
38 - 1.8221782551871404 - 0.6543765680276595
39 - 1.8221782551871404 - 0.7309685291928769
40 - 1.8221782551871404 - 0.9262324833518096
41 - 1.8221782551871404 - 0.9704934901016571
42 - 1.9397125469313727 - 0.6380517392092224
43 - 1.9397125469313727 - 0.6842910556299102
44 - 1.9397125469313727 - 0.6999517757001135
45 - 1.9397125469313727 - 0.7503365574974266
46 - 1.9397125469313727 - 0.8260628012709438
47 - 1.9397125469313727 - 1.015379762793115
48 - 1.9397125469313727 - 1.139302183636404
49 - 1.9397125469313727 - 0.7588072574411612
50 - 1.9397125469313727 - 0.6613945035878999
51 - 1.9397125469313727 - 0.7375589579884521
52 - 1.9397125469313727 - 0.7874643196289133
53 - 1.9397125469313727 - 0.8329633564801486
54 - 1.9397125469313727 - 0.9799313319627091
55 - 1.9397125469313727 - 0.9971238592298081
56 - 1.9397125469313727 - 0.6631503820200709
57 - 1.9397125469313727 - 0.6274262815095588
58 - 2.000529172685411 - 0.658597322596082
59 - 2.000529172685411 - 0.7157369237760496
60 - 2.000529172685411 - 0.8302206476410436
61 - 2.000529172685411 - 1.0072107238532042
62 - 2.000529172685411 - 1.0534014770214912
63 - 2.000529172685411 - 0.8321732778171403
64 - 2.000529172685411 - 0.7384955175598023
65 - 2.000529172685411 - 0.7723233604916863
66 - 2.000529172685411 - 0.79522815575461
67 - 2.000529172685411 - 0.8351564848816231
68 - 2.000529172685411 - 1.051661350156355
69 - 2.000529172685411 - 1.1636713475205882
70 - 2.000529172685411 - 0.8868176801550888
71 - 2.000529172685411 - 0.8310261744736798
72 - 2.000529172685411 - 0.8936462972307991
73 - 2.000529172685411 - 0.9079129878607477
74 - 2.000529172685411 - 0.9403931350224756
75 - 2.000529172685411 - 1.2126052608716096
76 - 2.000529172685411 - 1.2782055093500297
77 - 2.000529172685411 - 0.8078192529276323
78 - 2.000529172685411 - 0.7177228823617853
79 - 2.000529172685411 - 0.7631269235125769
80 - 2.000529172685411 - 0.7959230481443229
81 - 2.000529172685411 - 0.8478388364866587
82 - 2.000529172685411 - 1.107434699057291
83 - 2.000529172685411 - 1.1880243599215263
