0 - 0.7259726809094785 - 0.039989091097878196
1 - 0.7259726809094785 - 0.04921932259615327
2 - 1.107725789132325 - 0.07482402781151712
3 - 1.140994569944298 - 0.09717616416030707
4 - 1.6501651739037542 - 0.11834834687394133
5 - 1.6501651739037542 - 0.11834838913716228
6 - 1.6501651739037542 - 0.12801623774169107
7 - 1.826828099748362 - 0.13994701014457583
8 - 2.1465745930049724 - 0.17923366883993894
9 - 2.1465745930049724 - 0.17923830455053225
10 - 2.1465745930049724 - 0.18475172788089253
11 - 2.1465745930049724 - 0.19422476284113052
12 - 2.1465745930049724 - 0.19429442195695812
13 - 2.1465745930049724 - 0.19430582007543334
14 - 2.1465745930049724 - 0.25021896836221347
15 - 2.778992085459353 - 0.28440938056237364
16 - 2.778992085459353 - 0.32424757918336833
17 - 3.051055534881459 - 0.36074550608638883
18 - 3.051055534881459 - 0.40227095536273605
19 - 3.078937904990238 - 0.41963688165600893
20 - 3.078937904990238 - 0.4196403440363741
21 - 4.932721205897953 - 0.47589431279227856
22 - 4.932721205897953 - 0.5984732467987386
23 - 4.987677340986935 - 0.6446328749480403
24 - 4.987677340986935 - 0.6642111641286342
25 - 5.059749163428078 - 0.6989897251538506
26 - 5.061113965316959 - 0.7025903408772528
27 - 5.061113965316959 - 0.7063079292507377
28 - 5.068786262311345 - 0.6777669550337526
29 - 6.215839915620656 - 0.7854011159851038
30 - 7.675180385865665 - 0.8252292744538365
31 - 7.675180385865665 - 0.8330762095793045
32 - 17.561436850609986 - 1.1715800028862464
33 - 19.466392303031427 - 1.2362246610716603
34 - 22.348566244996114 - 1.3092243550117295
35 - 22.348566244996114 - 1.295238132260322
36 - 26.69391788513764 - 1.4078841134540145
37 - 26.69391788513764 - 1.4698090194991078
38 - 26.69391788513764 - 1.4810928328576263
39 - 26.69391788513764 - 1.5647669731375857
40 - 26.69391788513764 - 1.5754734139366846
41 - 26.69391788513764 - 1.5764736577831737
42 - 26.69391788513764 - 1.6095397865167875
43 - 27.856646242643656 - 1.677682870583191
44 - 27.856646242643656 - 1.6867061363757685
45 - 27.856646242643656 - 1.7123166410437736
46 - 27.856646242643656 - 1.7470035965932122
47 - 27.856646242643656 - 1.7875415893923698
48 - 27.856646242643656 - 1.7887480289922082
49 - 27.856646242643656 - 1.6988487014356317
50 - 27.856646242643656 - 1.698622586547809
51 - 27.856646242643656 - 1.6998562649847009
52 - 27.856646242643656 - 1.7372548321761225
53 - 27.856646242643656 - 1.7467548619411974
54 - 27.856646242643656 - 1.84790699402968
55 - 27.856646242643656 - 1.85205829168845
56 - 27.856646242643656 - 1.7536754656220475
57 - 27.856646242643656 - 1.7855973571537942
58 - 29.053108115321713 - 1.842401253034583
59 - 29.053108115321713 - 1.8436682589092175
60 - 29.053108115321713 - 1.9071105060744966
61 - 29.053108115321713 - 1.992060367491948
62 - 29.053108115321713 - 2.1683250129077005
63 - 29.053108115321713 - 2.136133974289994
64 - 29.053108115321713 - 2.126458342953337
65 - 29.053108115321713 - 2.2064824155616547
66 - 29.053108115321713 - 2.2367392474377987
67 - 29.053108115321713 - 2.5141984935727346
68 - 29.053108115321713 - 2.779394721608908
69 - 29.053108115321713 - 3.019340921879136
70 - 29.053108115321713 - 2.957571167104154
71 - 29.053108115321713 - 3.003915733182316
72 - 29.053108115321713 - 3.0602757748752194
73 - 29.053108115321713 - 3.1105335198949997
74 - 29.053108115321713 - 3.447286369648927
75 - 29.88569189109301 - 3.6548103552906204
76 - 31.50573438509651 - 3.703295121665439
77 - 31.50573438509651 - 3.6545249344904938
78 - 31.50573438509651 - 3.634550924463214
79 - 31.50573438509651 - 3.6741719875225423
80 - 31.50573438509651 - 3.680182033608851
81 - 36.277260413895476 - 3.8628518516717554
82 - 37.31611608795498 - 4.157570469432381
83 - 37.31611608795498 - 4.298423930277225
84 - 37.31611608795498 - 4.187333548813434
85 - 37.31611608795498 - 4.049914496310548
86 - 37.31611608795498 - 4.061575380516247
87 - 37.31611608795498 - 4.08625678317495
88 - 37.31611608795498 - 4.143878338592904
89 - 37.31611608795498 - 4.304120274058542
90 - 37.31611608795498 - 4.525193196077488
91 - 38.43144187782122 - 4.299167795554739
92 - 38.43144187782122 - 4.209493487703083
93 - 38.43144187782122 - 4.237988536328621
94 - 38.43144187782122 - 4.384581450868777
95 - 38.43144187782122 - 4.521531662597298
96 - 38.43144187782122 - 4.906434504801984
97 - 38.43144187782122 - 5.01245056814887
98 - 38.43144187782122 - 4.709256080701712
99 - 38.43144187782122 - 4.504154465382177
100 - 38.43144187782122 - 4.789424053345111
101 - 38.43144187782122 - 4.818119119266474
102 - 38.43144187782122 - 4.874290678195769
103 - 38.43144187782122 - 5.267676650143865
104 - 38.43144187782122 - 5.460346922877211
105 - 38.43144187782122 - 5.246860281037973
106 - 38.43144187782122 - 5.038172627122571
107 - 38.43144187782122 - 5.12317898702827
108 - 38.43144187782122 - 5.196051133336086
109 - 38.43144187782122 - 5.225357286629813
110 - 38.43144187782122 - 5.717709229902859
111 - 38.43144187782122 - 5.974042542217436
112 - 38.43144187782122 - 5.619774010245566
113 - 38.43144187782122 - 5.315457779046008
114 - 38.43144187782122 - 5.416092434184111
115 - 38.43144187782122 - 5.424052362361874
116 - 42.249685904226816 - 5.561813189297682
117 - 43.62202884711717 - 6.260175493552978
118 - 43.62202884711717 - 6.361425212749632
119 - 43.62202884711717 - 6.101364524910948
120 - 43.62202884711717 - 5.7114506683771555
121 - 43.62202884711717 - 5.761361218815544
122 - 43.62202884711717 - 5.869476613045265
123 - 43.62202884711717 - 5.93596905285723
124 - 43.62202884711717 - 6.450324401490656
125 - 43.62202884711717 - 6.660158695174674
126 - 43.62202884711717 - 6.376451973865394
127 - 43.62202884711717 - 5.909618624184245
128 - 43.62202884711717 - 6.013683159552782
129 - 43.62202884711717 - 6.034598990595472
130 - 43.62202884711717 - 6.052640181752571
131 - 43.62202884711717 - 6.643689037457429
132 - 43.62202884711717 - 6.748633214123646
133 - 43.62202884711717 - 6.514263506193745
134 - 43.62202884711717 - 6.319371956235765
135 - 43.62202884711717 - 6.34023615503255
136 - 43.62202884711717 - 6.406732067054305
137 - 43.62202884711717 - 6.4425003534680725
138 - 43.62202884711717 - 6.790885680601869
139 - 43.62202884711717 - 6.96372410704249
140 - 47.01492641812876 - 6.804473833363774
141 - 47.01492641812876 - 6.472024278450223
142 - 47.01492641812876 - 6.484952026970809
143 - 47.01492641812876 - 6.50854547531379
144 - 47.01492641812876 - 6.5365413612313175
145 - 47.01492641812876 - 6.961889720584961
146 - 47.01492641812876 - 7.489014816477943
147 - 47.01492641812876 - 6.38363342551799
148 - 47.01492641812876 - 6.209068635135898
149 - 47.01492641812876 - 6.346851884538589
150 - 47.01492641812876 - 6.380442399978266
151 - 47.01492641812876 - 6.500998750777984
152 - 47.01492641812876 - 7.497740480449984
153 - 47.01492641812876 - 8.450362389206646
154 - 47.01492641812876 - 7.688032452428603
155 - 47.01492641812876 - 7.365308548220997
156 - 47.11367268010189 - 7.394177804857508
157 - 47.677324805761636 - 7.638654293740046
158 - 47.677324805761636 - 7.665823090909578
159 - 47.677324805761636 - 8.282089221091065
160 - 47.677324805761636 - 9.124212872574773
161 - 47.677324805761636 - 8.64206858593992
162 - 47.677324805761636 - 8.193935421389593
163 - 47.677324805761636 - 8.271489678986143
164 - 47.677324805761636 - 8.326825657692922
165 - 47.677324805761636 - 8.42339689887044
166 - 47.677324805761636 - 8.954212661944982
167 - 47.677324805761636 - 9.308444201399189
168 - 47.677324805761636 - 8.395997109258744
169 - 47.677324805761636 - 8.439583594830468
170 - 47.677324805761636 - 8.708329265067992
171 - 47.677324805761636 - 8.723756901898863
172 - 47.677324805761636 - 9.23697896275649
173 - 47.677324805761636 - 10.259989650399426
174 - 47.677324805761636 - 10.61690474797713
175 - 47.677324805761636 - 9.227763218958868
176 - 47.677324805761636 - 8.802828291603326
177 - 47.677324805761636 - 8.810615056358802
178 - 47.677324805761636 - 8.817642573574307
179 - 47.677324805761636 - 8.9637021811706
180 - 47.677324805761636 - 9.582022134679615
181 - 47.677324805761636 - 11.80981440812921
182 - 47.677324805761636 - 11.322115899136836
183 - 47.677324805761636 - 10.947909351272452
184 - 47.677324805761636 - 11.029704714543868
185 - 47.677324805761636 - 11.17547257277268
186 - 47.677324805761636 - 11.395251981453665
187 - 47.677324805761636 - 12.19786295939223
188 - 47.677324805761636 - 12.491979621233117
189 - 48.718111266364204 - 11.59207105330563
190 - 48.718111266364204 - 11.580814898321593
191 - 48.718111266364204 - 11.633670669219013
192 - 48.718111266364204 - 11.688774649514697
193 - 48.718111266364204 - 11.849939533518071
194 - 48.94661297642667 - 12.459567249896068
195 - 48.94661297642667 - 12.671525971720587
196 - 49.21888185752065 - 11.794829865304509
197 - 49.21888185752065 - 10.70937827833559
198 - 55.478087879607564 - 11.054830991316802
199 - 55.478087879607564 - 11.101094669450287
200 - 68.54512197660365 - 11.988329217909598
201 - 71.96647135071134 - 13.690777284435631
202 - 71.96647135071134 - 14.174375224202592
203 - 71.96647135071134 - 13.276114484858734
204 - 71.96647135071134 - 12.571921341530734
205 - 71.96647135071134 - 12.645513554393002
206 - 71.96647135071134 - 12.646104933516321
207 - 71.96647135071134 - 12.903151833207573
208 - 71.96647135071134 - 14.294707583744653
209 - 71.96647135071134 - 14.902219370421657
210 - 71.96647135071134 - 13.511117555377263
211 - 71.96647135071134 - 12.108182290050255
212 - 71.96647135071134 - 12.195746996644413
213 - 71.96647135071134 - 12.283529483997679
214 - 71.96647135071134 - 12.741258838981368
215 - 71.96647135071134 - 13.688679405365358
216 - 71.96647135071134 - 14.243691624187127
217 - 71.96647135071134 - 13.746801469028139
218 - 71.96647135071134 - 12.991326489297123
219 - 71.96647135071134 - 13.025748827077456
220 - 71.96647135071134 - 13.123129417591233
221 - 71.96647135071134 - 13.237092888840966
222 - 71.96647135071134 - 14.943999965181622
223 - 71.96647135071134 - 15.510856504933349
224 - 71.96647135071134 - 14.099880770411028
225 - 71.96647135071134 - 13.060526226342034
226 - 71.96647135071134 - 13.309349405118644
227 - 71.96647135071134 - 13.314947579857948
228 - 71.96647135071134 - 13.72631998437906
229 - 71.96647135071134 - 14.88206975468905
230 - 71.96647135071134 - 15.417484800129746
231 - 71.96647135071134 - 14.381101973370082
232 - 71.96647135071134 - 13.703458262113761
233 - 71.96647135071134 - 13.741635575802325
234 - 71.96647135071134 - 13.74596110868153
235 - 71.96647135071134 - 14.146233001974384
236 - 71.96647135071134 - 15.315263944300648
237 - 71.96647135071134 - 15.744506386186021
238 - 71.96647135071134 - 15.10143157522036
239 - 71.96647135071134 - 13.765866913918694
240 - 71.96647135071134 - 13.789491975252133
241 - 71.96647135071134 - 14.124283834177183
242 - 71.96647135071134 - 14.590830995594033
243 - 71.96647135071134 - 15.641679698713602
244 - 71.96647135071134 - 16.031488019162268
245 - 71.96647135071134 - 15.361212837847082
246 - 71.96647135071134 - 14.599325973170119
247 - 71.96647135071134 - 14.853419919407878
248 - 71.96647135071134 - 14.879068610341301
249 - 71.96647135071134 - 14.933741416865923
250 - 71.96647135071134 - 15.828093216252697
251 - 71.96647135071134 - 16.38550090868744
252 - 71.96647135071134 - 15.199825098742988
253 - 73.32763434223507 - 14.086175066484609
254 - 73.32763434223507 - 14.151256409223688
255 - 73.32763434223507 - 14.551597241233448
256 - 73.32763434223507 - 14.911411919832101
257 - 73.32763434223507 - 15.937952248334986
258 - 73.32763434223507 - 17.355003129211262
259 - 74.21585564349829 - 16.530353718551417
260 - 74.21585564349829 - 15.403443956430431
261 - 74.21585564349829 - 15.437351992299735
262 - 74.21585564349829 - 15.448931905834282
263 - 74.21585564349829 - 16.31771759952422
264 - 74.21585564349829 - 17.54733128442898
265 - 74.21585564349829 - 18.175780500683622
266 - 74.21585564349829 - 17.34933110573827
267 - 74.21585564349829 - 15.34458834115963
268 - 74.21585564349829 - 16.345726235869552
269 - 74.21585564349829 - 16.523569372586568
270 - 74.21585564349829 - 16.665620790204823
271 - 74.21585564349829 - 18.01484606027136
272 - 74.21585564349829 - 19.273935557682833
273 - 74.21585564349829 - 18.446260669666714
274 - 74.21585564349829 - 17.31665703869013
275 - 74.21585564349829 - 17.321807358656418
276 - 74.21585564349829 - 17.39455855951486
277 - 74.21585564349829 - 17.422509427950754
278 - 74.21585564349829 - 18.95875902758404
279 - 74.21585564349829 - 19.695326748666353
280 - 74.21585564349829 - 18.829493375438076
281 - 74.21585564349829 - 17.862814608686886
282 - 74.21585564349829 - 17.962113936509866
283 - 74.21585564349829 - 17.966106694663463
284 - 74.21585564349829 - 17.99712483185592
285 - 74.21585564349829 - 19.38038245211021
286 - 74.21585564349829 - 19.972620555058533
287 - 74.21585564349829 - 19.131810771774173
288 - 74.21585564349829 - 18.271177860679714
289 - 74.21585564349829 - 18.32017485167139
290 - 74.21585564349829 - 18.34710279844842
291 - 74.21585564349829 - 18.402786911377724
292 - 74.21585564349829 - 19.616981266322814
293 - 74.21585564349829 - 20.336871257624843
294 - 74.21585564349829 - 19.65815123956332
295 - 74.21585564349829 - 18.284703877357096
296 - 74.21585564349829 - 18.43420183584013
297 - 74.21585564349829 - 18.476952610924254
298 - 74.21585564349829 - 18.640536160870404
299 - 74.21585564349829 - 20.125698031771293
300 - 74.21585564349829 - 20.637371743667703
301 - 74.21585564349829 - 19.490168709174206
302 - 74.21585564349829 - 18.15321827240596
303 - 74.21585564349829 - 18.44643549985528
304 - 74.21585564349829 - 18.530123504905855
305 - 74.21585564349829 - 18.530123504905855
306 - 74.21585564349829 - 20.085300232631376
307 - 74.21585564349829 - 20.637939446114267
308 - 74.21585564349829 - 19.40505829583271
309 - 74.21585564349829 - 18.75569815569445
310 - 74.21585564349829 - 18.838787547061525
311 - 74.21585564349829 - 18.925896099527687
312 - 74.21585564349829 - 19.132846251535852
313 - 74.21585564349829 - 20.23156428994077
314 - 74.21585564349829 - 20.88749854859414
315 - 74.21585564349829 - 20.03249834379838
316 - 74.21585564349829 - 18.970771320619164
317 - 74.21585564349829 - 19.007697886402052
318 - 74.21585564349829 - 19.087266891592716
319 - 74.21585564349829 - 19.100868425752367
320 - 74.21585564349829 - 20.404309620960944
321 - 74.21585564349829 - 20.876231646477596
322 - 74.21585564349829 - 19.663352274224557
323 - 74.21585564349829 - 18.769984331198
324 - 74.21585564349829 - 18.841000328104744
325 - 74.21585564349829 - 18.994659579862994
326 - 74.21585564349829 - 19.0351103686535
327 - 74.21585564349829 - 20.320955587386216
328 - 74.21585564349829 - 20.929930015976602
329 - 74.21585564349829 - 19.382559888307576
330 - 74.21585564349829 - 18.164211395078265
331 - 74.21585564349829 - 18.945260909078264
332 - 74.21585564349829 - 19.00248402950438
333 - 74.21585564349829 - 19.065683890878056
334 - 74.21585564349829 - 20.597475911890523
335 - 74.21585564349829 - 21.045072447055116
336 - 74.21585564349829 - 19.808162698114234
337 - 74.21585564349829 - 18.965374930081758
338 - 74.21585564349829 - 18.97151876945281
339 - 74.21585564349829 - 18.975909738353845
340 - 74.21585564349829 - 18.98247339552101
341 - 74.21585564349829 - 20.449340946901778
342 - 74.21585564349829 - 21.160366951440306
343 - 74.21585564349829 - 19.83658642874382
344 - 74.21585564349829 - 18.796758819387783
345 - 74.21585564349829 - 18.81709056823718
346 - 74.21585564349829 - 18.89868636018634
347 - 74.21585564349829 - 19.100432367713786
348 - 74.21585564349829 - 20.78832480723658
349 - 74.21585564349829 - 21.439496784034098
350 - 74.21585564349829 - 19.993450360724715
351 - 74.21585564349829 - 18.844669245308214
352 - 74.21585564349829 - 19.13321929938924
353 - 74.21585564349829 - 19.266799633530766
354 - 74.21585564349829 - 19.38900761945937
355 - 74.21585564349829 - 21.053746518047646
356 - 74.21585564349829 - 21.643258111832406
357 - 74.21585564349829 - 20.42353905545371
358 - 74.21585564349829 - 19.371296234858757
359 - 74.21585564349829 - 19.409870205700084
360 - 74.21585564349829 - 19.55324899007226
361 - 74.21585564349829 - 19.644037599486683
362 - 74.21585564349829 - 21.3066841103985
363 - 74.21585564349829 - 22.851749895158093
364 - 74.21585564349829 - 21.00505339429564
365 - 74.21585564349829 - 19.588439502743412
366 - 74.21585564349829 - 19.615053010418524
367 - 74.21585564349829 - 19.615067758745635
368 - 74.21585564349829 - 19.931539864248187
369 - 74.21585564349829 - 22.304766897355783
370 - 74.21585564349829 - 23.08658408244137
371 - 74.21585564349829 - 21.606760921153843
372 - 74.21585564349829 - 20.133896202709142
373 - 74.21585564349829 - 20.217420155639477
374 - 74.21585564349829 - 20.270630190097485
375 - 74.21585564349829 - 20.34187473894539
376 - 74.21585564349829 - 22.221160313185727
377 - 74.21585564349829 - 22.87915402324764
378 - 74.21585564349829 - 21.68907642412043
379 - 74.21585564349829 - 20.399139207647366
380 - 74.21585564349829 - 20.61905942676137
381 - 74.21585564349829 - 20.629635960120947
382 - 74.21585564349829 - 20.713946881420622
383 - 74.21585564349829 - 22.18817969705853
384 - 74.21585564349829 - 22.81725757153564
385 - 74.21585564349829 - 21.10413856097127
386 - 74.21585564349829 - 19.947657882630494
387 - 74.21585564349829 - 20.007921244952012
388 - 74.21585564349829 - 20.011605004102314
389 - 74.21585564349829 - 20.075520604834402
390 - 74.21585564349829 - 22.036780384938606
391 - 74.21585564349829 - 22.82448416164064
392 - 74.21585564349829 - 21.41432060308388
393 - 74.21585564349829 - 19.543456200310935
394 - 74.21585564349829 - 19.579797295465944
395 - 74.21585564349829 - 19.668233258036103
396 - 74.21585564349829 - 20.297427593100508
397 - 74.21585564349829 - 22.104672558803117
398 - 74.21585564349829 - 23.050244711402605
399 - 74.21585564349829 - 21.658100451642866
400 - 74.21585564349829 - 19.81754559748974
401 - 74.21585564349829 - 19.852558891904295
402 - 74.21585564349829 - 19.93814805055707
403 - 74.21585564349829 - 19.943400725734172
404 - 74.21585564349829 - 22.154949003677313
405 - 74.21585564349829 - 23.0935026165467
406 - 74.21585564349829 - 21.387871794183702
407 - 74.21585564349829 - 20.402416473816857
408 - 74.21585564349829 - 20.41512467234191
409 - 74.21585564349829 - 20.46506970175698
410 - 74.21585564349829 - 20.580780173384348
411 - 74.21585564349829 - 22.161015438795644
412 - 74.21585564349829 - 22.923451978814334
413 - 74.21585564349829 - 21.143597392673417
414 - 74.21585564349829 - 20.42821952222352
415 - 74.21585564349829 - 20.44925173877686
416 - 74.21585564349829 - 20.460789108383146
417 - 74.21585564349829 - 20.59502301472868
418 - 74.21585564349829 - 22.002688433076845
419 - 74.21585564349829 - 22.731713744431303
420 - 74.21585564349829 - 21.62358365331561
421 - 74.21585564349829 - 20.24850276360626
422 - 74.21585564349829 - 20.346135998827755
423 - 74.21585564349829 - 20.37984309947366
424 - 74.21585564349829 - 20.489226316354248
425 - 74.21585564349829 - 22.099139370834816
426 - 74.21585564349829 - 22.688886478165557
427 - 74.21585564349829 - 21.80193063142005
428 - 74.21585564349829 - 20.80952847493067
429 - 74.21585564349829 - 20.847846370840685
430 - 74.21585564349829 - 20.874494932084968
431 - 74.21585564349829 - 20.96398581661642
432 - 74.21585564349829 - 22.636848124884224
433 - 74.21585564349829 - 23.240846867088326
434 - 74.21585564349829 - 22.167676101221463
435 - 74.21585564349829 - 20.407315801947405
436 - 74.21585564349829 - 20.49162729274951
437 - 74.21585564349829 - 20.613360371091836
438 - 74.21585564349829 - 20.62057080694901
439 - 74.21585564349829 - 22.56948764768061
440 - 74.21585564349829 - 23.39514073005522
441 - 74.21585564349829 - 20.487894493194638
442 - 74.21585564349829 - 19.548025037422352
443 - 74.21585564349829 - 19.593629303133266
444 - 74.21585564349829 - 19.639094962325068
445 - 74.21585564349829 - 20.239473844815333
446 - 74.21585564349829 - 22.448883108162143
447 - 74.21585564349829 - 23.059956852770355
448 - 74.21585564349829 - 21.302696300638356
449 - 74.21585564349829 - 20.04007819858146
450 - 74.21585564349829 - 20.351365164263648
451 - 74.21585564349829 - 21.019040178916367
452 - 74.21585564349829 - 21.124941569616677
453 - 74.21585564349829 - 22.6492366917344
454 - 74.21585564349829 - 23.401324874504212
455 - 74.21585564349829 - 22.116861949561674
456 - 74.21585564349829 - 20.705837904519846
457 - 74.21585564349829 - 21.21023809511211
458 - 74.21585564349829 - 21.283594471282953
459 - 74.21585564349829 - 22.19927242173357
460 - 74.21585564349829 - 23.812770759112716
461 - 74.21585564349829 - 24.831843801611093
462 - 74.21585564349829 - 22.5542989064874
463 - 74.21585564349829 - 21.414006564354857
464 - 74.21585564349829 - 21.456697561499396
465 - 74.21585564349829 - 21.58759020098502
466 - 74.21585564349829 - 21.8592943376373
467 - 74.21585564349829 - 23.745349160980606
468 - 74.21585564349829 - 24.21446636983375
469 - 74.21585564349829 - 22.772220350088965
470 - 74.21585564349829 - 20.639086063575952
471 - 74.21585564349829 - 20.7068283101933
472 - 74.21585564349829 - 20.73065517610118
473 - 74.21585564349829 - 21.10824792317626
474 - 74.21585564349829 - 23.46127053397723
475 - 74.21585564349829 - 24.133038429740527
476 - 74.21585564349829 - 22.258831083859825
477 - 74.21585564349829 - 21.132957592001315
478 - 74.21585564349829 - 21.15452277921712
479 - 74.21585564349829 - 21.239418386313226
480 - 74.21585564349829 - 21.357850356145182
481 - 74.21585564349829 - 23.38804983328214
482 - 74.21585564349829 - 24.268891442847465
483 - 74.21585564349829 - 23.092582535070072
484 - 74.21585564349829 - 21.44066912278245
485 - 74.35600324342126 - 21.50025772676831
486 - 74.56455153101368 - 21.55698385082882
487 - 74.56455153101368 - 21.6242132257506
488 - 74.56455153101368 - 23.652978414403474
489 - 74.56455153101368 - 25.193820911516283
490 - 74.56455153101368 - 22.922232447537887
491 - 74.56455153101368 - 21.40001233749634
492 - 74.56455153101368 - 21.43401132253278
493 - 74.56455153101368 - 21.55371015789209
494 - 74.56455153101368 - 21.96935131403111
495 - 74.56455153101368 - 24.46880613574768
496 - 74.56455153101368 - 25.218642852022477
497 - 74.56455153101368 - 22.702206624549554
498 - 74.56455153101368 - 21.053597801579762
499 - 74.56455153101368 - 21.535125830070857
500 - 74.56455153101368 - 22.13266005677605
501 - 74.56455153101368 - 22.435170178806167
502 - 74.56455153101368 - 24.477970437884622
503 - 74.56455153101368 - 25.55712945476882
504 - 74.56455153101368 - 24.3670119115044
505 - 74.56455153101368 - 23.06889828880009
506 - 74.56455153101368 - 23.118369985483376
507 - 74.56455153101368 - 23.315426563528824
508 - 74.56455153101368 - 23.527305508721348
509 - 74.56455153101368 - 25.432237888234255
510 - 74.56455153101368 - 25.94854638078774
511 - 74.56455153101368 - 24.768143942177367
512 - 74.56455153101368 - 23.522603149594467
513 - 74.56455153101368 - 23.62803855243886
514 - 74.56455153101368 - 23.660949238703065
515 - 74.56455153101368 - 23.775982765298405
516 - 74.56455153101368 - 25.381453350675024
517 - 74.56455153101368 - 26.200736233686833
518 - 74.56455153101368 - 25.089638895672685
519 - 74.56455153101368 - 23.74748600686165
520 - 74.56455153101368 - 23.784978189852144
521 - 74.56455153101368 - 23.78815376407027
522 - 74.56455153101368 - 23.904228297783767
523 - 74.56455153101368 - 25.876411890298975
524 - 74.56455153101368 - 26.703908652392272
525 - 74.56455153101368 - 25.26792961422698
526 - 74.56455153101368 - 24.274579241999117
527 - 74.56455153101368 - 24.384155670636993
528 - 74.56455153101368 - 24.53339761657653
529 - 74.56455153101368 - 24.607039653602023
530 - 74.56455153101368 - 26.342342115652475
531 - 74.56455153101368 - 27.16126965633965
532 - 74.56455153101368 - 26.058289568340467
533 - 74.56455153101368 - 24.279301804255038
534 - 74.56455153101368 - 24.32380077891272
535 - 74.56455153101368 - 24.617941202307573
536 - 74.56455153101368 - 24.668136878345205
537 - 74.56455153101368 - 26.37827702113926
538 - 74.56455153101368 - 27.366183394643095
539 - 74.56455153101368 - 25.944196649528926
540 - 74.56455153101368 - 23.792986377826452
541 - 74.56455153101368 - 23.910479639396904
542 - 74.56455153101368 - 23.97506279860327
543 - 74.56455153101368 - 24.328758880122287
544 - 74.56455153101368 - 26.69778326836926
545 - 74.56455153101368 - 27.468054075904263
546 - 74.56455153101368 - 25.9030062744698
547 - 74.56455153101368 - 24.80029293333184
548 - 74.56455153101368 - 24.854355911695013
549 - 74.56455153101368 - 24.93880490210685
550 - 74.56455153101368 - 25.111229467170002
551 - 74.56455153101368 - 26.950588480531913
552 - 74.56455153101368 - 29.297297462189288
553 - 74.56455153101368 - 27.959870389202695
554 - 74.56455153101368 - 25.722460120482975
555 - 74.56455153101368 - 25.83155193065527
556 - 74.56455153101368 - 25.84918394210511
557 - 74.56455153101368 - 26.025979163006962
558 - 74.56455153101368 - 28.57648446582845
559 - 74.56455153101368 - 29.443390958777307
560 - 74.56455153101368 - 28.4531590337702
561 - 74.56455153101368 - 26.532961233423134
562 - 74.56455153101368 - 26.597000922380175
563 - 74.56455153101368 - 26.62596143966818
564 - 74.56455153101368 - 26.973189084934166
565 - 74.56455153101368 - 29.284573921298325
566 - 75.58493281364441 - 29.880573549196527
567 - 75.58493281364441 - 27.95828380504899
568 - 75.58493281364441 - 25.727061185244338
569 - 76.06178754868714 - 25.845384458763494
570 - 76.06178754868714 - 25.888475456428317
571 - 76.06178754868714 - 25.97485360139975
572 - 76.06178754868714 - 28.38731686229758
573 - 76.06178754868714 - 29.262793207475493
574 - 76.06178754868714 - 27.737550200977303
575 - 76.06178754868714 - 26.557249857596695
576 - 76.06178754868714 - 26.64035680240927
577 - 76.06178754868714 - 26.64035680240927
578 - 76.06178754868714 - 26.796475043978518
579 - 76.06178754868714 - 29.411343493191815
580 - 76.06178754868714 - 31.75097827129296
581 - 76.06178754868714 - 30.52211522522
582 - 76.06178754868714 - 28.441334638376937
583 - 76.06178754868714 - 28.711347267267133
584 - 76.06178754868714 - 28.848865215982347
585 - 76.06178754868714 - 28.96033936453972
586 - 76.06178754868714 - 31.24827992475151
