0 - 2.0 - 0.0
1 - 2.9875 - 0.11110243021644478
2 - 2.9875 - 0.11110243021644478
3 - 2.9875 - 0.11110243021644478
4 - 2.9875 - 0.11110243021644478
5 - 2.8375 - 0.4013648589500581
6 - 3.0875 - 0.6163146517810525
7 - 4.0375 - 0.5797359312652612
8 - 4.9375 - 0.5325352101035198
9 - 4.9375 - 0.5325352101035198
10 - 4.9375 - 0.5325352101035198
11 - 4.9375 - 0.5325352101035198
12 - 4.5 - 0.9219544457292888
13 - 4.8875 - 1.396368056781592
14 - 5.825 - 1.3488420960216205
15 - 6.75 - 1.2796483892069728
16 - 6.75 - 1.2796483892069728
17 - 6.75 - 1.2796483892069728
18 - 6.75 - 1.2796483892069728
19 - 6.2625 - 1.5061851645797066
20 - 6.4125 - 1.7797032758299907
21 - 7.375 - 1.7633419974582356
22 - 8.3125 - 1.7363305416884194
23 - 8.3125 - 1.7363305416884194
24 - 8.3125 - 1.7363305416884194
25 - 8.3125 - 1.7363305416884194
26 - 7.7375 - 1.6788668053183964
27 - 7.8875 - 2.1212835147617577
28 - 8.8625 - 2.102045135100576
29 - 9.7875 - 2.035274858587901
30 - 9.7875 - 2.035274858587901
31 - 9.7875 - 2.035274858587901
32 - 9.7875 - 2.035274858587901
33 - 9.0 - 2.103568396796263
34 - 8.6875 - 2.586473226229106
35 - 9.65 - 2.5985572920372566
36 - 10.5625 - 2.5876811530789494
37 - 10.5625 - 2.5876811530789494
38 - 10.5625 - 2.5876811530789494
39 - 10.5625 - 2.5876811530789494
40 - 9.5625 - 2.705751974960011
41 - 9.475 - 2.7747747656341404
42 - 10.425 - 2.773873645283794
43 - 11.325 - 2.7783763244024375
44 - 11.325 - 2.7783763244024375
45 - 11.325 - 2.7783763244024375
46 - 11.325 - 2.7783763244024375
47 - 10.225 - 2.7293543192484186
48 - 10.1375 - 3.0973527002910086
49 - 11.0625 - 3.1278736787153028
50 - 11.975 - 3.0658400153954544
51 - 11.975 - 3.0658400153954544
52 - 11.975 - 3.0658400153954544
53 - 11.975 - 3.0658400153954544
54 - 10.9625 - 3.0555022091302764
55 - 10.425 - 3.032222782052796
56 - 11.3875 - 3.0597947235067906
57 - 12.25 - 2.9389624019371188
58 - 12.25 - 2.9389624019371188
59 - 12.25 - 2.9389624019371188
60 - 12.25 - 2.9389624019371188
61 - 11.2375 - 3.1314683057632893
62 - 10.85 - 3.122899293925437
63 - 11.775 - 3.0535839598740364
64 - 12.55 - 2.910755915565577
65 - 12.55 - 2.910755915565577
66 - 12.55 - 2.910755915565577
67 - 12.55 - 2.910755915565577
68 - 11.6875 - 3.084614035823607
69 - 11.3 - 3.2419130154894646
70 - 12.1625 - 3.1719227213158896
71 - 12.8875 - 2.928283413537701
72 - 12.8875 - 2.928283413537701
73 - 12.8875 - 2.928283413537701
74 - 12.8875 - 2.928283413537701
75 - 12.0625 - 3.055093083688286
76 - 11.3625 - 3.4323597932035037
77 - 12.1625 - 3.2918222537069033
