0 - 0.21665253380070543 - 0.0067709923267637116
1 - 0.30731187088657963 - 0.027171513650259778
2 - 0.5766861112221424 - 0.047391714822469885
3 - 1.0 - 0.08224117644006862
4 - 1.0 - 0.08931614159339582
5 - 1.0 - 0.0893641692671761
6 - 1.0 - 0.10027721234440137
7 - 1.0 - 0.10523879125101006
8 - 1.5260475539642828 - 0.1852818463894968
9 - 1.5260475539642828 - 0.20685763872048288
10 - 1.7123088385747827 - 0.2778578266961118
11 - 1.9471567827722303 - 0.2931442326773291
12 - 1.9643497000569883 - 0.2937233554136832
13 - 1.9643497000569883 - 0.2937245057460745
14 - 2.0 - 0.32945028103008067
15 - 2.4763058957300688 - 0.36771428528517863
16 - 2.4765119925925605 - 0.37030014378591136
17 - 2.4765119925925605 - 0.39676514929572726
18 - 2.4765119925925605 - 0.40013994906638395
19 - 2.4765119925925605 - 0.42687279460260924
20 - 2.4765119925925605 - 0.42808943650034975
21 - 3.726595905552739 - 0.5042716947202894
22 - 3.726595905552739 - 0.501081371224184
23 - 3.726595905552739 - 0.5163881470209642
24 - 4.0 - 0.589762933356784
25 - 5.2483239469320875 - 0.6926473107260966
26 - 5.431528740343841 - 0.722913109299972
27 - 5.431528740343841 - 0.7294091095624053
28 - 5.465512211944746 - 0.6938615417304185
29 - 7.167293494680654 - 0.7435616536020182
30 - 7.475070755378059 - 0.8532480237532798
31 - 7.628944964512533 - 0.8826576020163323
32 - 7.628944964512533 - 0.9217071571847013
33 - 7.628944964512533 - 0.9589423106759145
34 - 7.628944964512533 - 0.9625675383763916
35 - 7.725293971864808 - 0.950879064399919
36 - 7.725293971864808 - 1.0303782558411394
37 - 7.725293971864808 - 1.0338780104180514
38 - 7.725293971864808 - 1.0760412391447254
39 - 7.725293971864808 - 1.1235842867564318
40 - 7.725293971864808 - 1.131093578241718
41 - 7.725293971864808 - 1.1321849161408646
42 - 7.725293971864808 - 1.153031018710529
43 - 9.434473391201186 - 1.208267325899286
44 - 9.434473391201186 - 1.2490548143995883
45 - 9.434473391201186 - 1.270729471671845
46 - 9.434473391201186 - 1.3210777737659996
47 - 9.535962817979895 - 1.3828289745387503
48 - 9.535962817979895 - 1.3831731156813079
49 - 9.535962817979895 - 1.3417381129236507
50 - 9.535962817979895 - 1.2901848798976867
51 - 9.535962817979895 - 1.304408935188262
52 - 9.535962817979895 - 1.3321982148327938
53 - 9.535962817979895 - 1.4233905082916656
54 - 9.535962817979895 - 1.5240612004475185
55 - 9.535962817979895 - 1.5581333793815393
56 - 9.535962817979895 - 1.5219718061486864
57 - 9.535962817979895 - 1.5008524816459266
58 - 9.535962817979895 - 1.6115322866999038
59 - 9.535962817979895 - 1.633292208441836
60 - 9.535962817979895 - 1.6867737355581842
61 - 9.535962817979895 - 1.7222558026238932
62 - 9.535962817979895 - 1.7239294008651544
63 - 9.535962817979895 - 1.6997610010150788
64 - 9.535962817979895 - 1.6163665637482807
65 - 9.535962817979895 - 1.6475081973785255
66 - 9.606387691394142 - 1.661577896776691
67 - 9.884461331763557 - 1.7491068879065796
68 - 12.174385655859242 - 1.9176328268776124
69 - 12.174385655859242 - 1.9147275845107792
70 - 12.174385655859242 - 1.8711985037542231
71 - 12.395129472146861 - 1.9427980689894828
72 - 12.395129472146861 - 1.9951282667493095
73 - 12.395129472146861 - 2.090470383588248
74 - 13.490706127985664 - 2.166921552053574
75 - 18.108351900266562 - 2.4503888964459817
76 - 18.108351900266562 - 2.4990308480837613
77 - 18.108351900266562 - 2.4570727632113316
78 - 18.108351900266562 - 2.4173536872877257
79 - 18.108351900266562 - 2.517637732491413
80 - 18.108351900266562 - 2.5279997565516634
81 - 18.108351900266562 - 2.7295488012580673
82 - 18.108351900266562 - 2.859491524773712
83 - 19.09806664186975 - 3.0145413332197806
84 - 19.09806664186975 - 2.955470868613305
85 - 20.466090751007997 - 3.027323182942806
86 - 23.43029717100295 - 3.1210372743869157
87 - 27.329199168556627 - 3.294356424088715
88 - 28.024835379374668 - 3.4662029661976193
89 - 29.070243246178897 - 3.7671020072339316
90 - 29.875188087036758 - 3.9137844143513263
91 - 29.875188087036758 - 3.7404784224985113
92 - 30.001836200011436 - 3.521102809058737
93 - 30.001836200011436 - 3.6137335892099522
94 - 30.001836200011436 - 3.6514001154760356
95 - 30.001836200011436 - 3.6691330040677586
96 - 30.001836200011436 - 4.005645825310056
97 - 30.001836200011436 - 4.249371197546564
98 - 30.001836200011436 - 4.165152654149308
99 - 30.001836200011436 - 4.072649151751904
100 - 30.001836200011436 - 4.231541507746724
101 - 30.001836200011436 - 4.337031036597194
102 - 30.001836200011436 - 4.415235888055742
103 - 30.001836200011436 - 4.767584021728316
104 - 30.001836200011436 - 5.108351982000027
105 - 30.001836200011436 - 5.1193293989387
106 - 30.001836200011436 - 4.889094937824564
107 - 30.001836200011436 - 4.994912098193982
108 - 30.001836200011436 - 5.04423742113331
109 - 30.001836200011436 - 5.2159451418244185
110 - 30.001836200011436 - 5.755155247248639
111 - 30.001836200011436 - 6.002016613598912
112 - 30.001836200011436 - 5.818734039761003
113 - 30.890507363394725 - 5.504992821555579
114 - 30.890507363394725 - 5.550844516861653
115 - 30.890507363394725 - 5.628750860702007
116 - 30.890507363394725 - 5.666850115089426
117 - 30.890507363394725 - 6.140920657177759
118 - 30.890507363394725 - 6.390681305696515
119 - 30.890507363394725 - 6.046218394470063
120 - 30.890507363394725 - 5.755963442687422
121 - 30.890507363394725 - 5.825179192823267
122 - 30.890507363394725 - 6.032462587804842
123 - 30.890507363394725 - 6.125992362517978
124 - 30.890507363394725 - 6.853561706236566
125 - 31.17797485539788 - 6.980838773820821
126 - 31.17797485539788 - 6.232256653649807
127 - 31.17797485539788 - 5.75424598313438
128 - 31.17797485539788 - 5.9784398379339105
129 - 31.17797485539788 - 6.096222658260668
130 - 31.17797485539788 - 6.455969130982178
131 - 31.850160632807267 - 7.3506939843778
132 - 31.850160632807267 - 7.652789733534438
133 - 31.850160632807267 - 7.294895012039426
134 - 31.850160632807267 - 7.0162904302947435
135 - 31.850160632807267 - 7.04650010985119
136 - 31.850160632807267 - 7.136797892331375
137 - 31.850160632807267 - 7.315874163874308
138 - 31.850160632807267 - 7.920976627077114
139 - 31.850160632807267 - 8.148563499894111
140 - 31.850160632807267 - 7.7762681204068524
141 - 31.850160632807267 - 7.411757293331806
142 - 31.850160632807267 - 7.499713539613738
143 - 31.850160632807267 - 7.572324799194094
144 - 33.26986775335513 - 7.884908537859671
145 - 33.26986775335513 - 8.386811590483422
146 - 33.26986775335513 - 8.657459726888842
147 - 33.3194916560148 - 8.306051264119535
148 - 33.3194916560148 - 7.78059767872116
149 - 33.3194916560148 - 7.8026228118901555
150 - 33.3194916560148 - 8.010905516215384
151 - 34.657442606946695 - 8.296164848853898
152 - 36.700213256509684 - 9.053053046832328
153 - 38.49273314310157 - 10.052642006078061
154 - 38.49273314310157 - 9.577508460520502
155 - 38.49273314310157 - 8.916156608790239
156 - 38.49273314310157 - 8.951532420552255
157 - 38.49273314310157 - 9.047166384206879
158 - 38.96678368091584 - 9.29672650583672
159 - 39.169744748861895 - 10.28815925675568
160 - 39.51851004362106 - 10.470167123981293
161 - 39.51851004362106 - 10.036749880900285
162 - 39.51851004362106 - 9.538208386743475
163 - 39.51851004362106 - 9.785007015630493
164 - 39.51851004362106 - 9.830676169519132
165 - 39.51851004362106 - 10.824050435363016
166 - 39.51851004362106 - 11.78181244321249
167 - 39.51851004362106 - 12.923650481583826
168 - 39.51851004362106 - 12.147491301061073
169 - 39.51851004362106 - 11.455944657606441
170 - 39.51851004362106 - 11.498432653213893
171 - 41.97797624801334 - 11.609205424206317
172 - 41.97797624801334 - 11.96650163001684
173 - 41.97797624801334 - 13.174647596941048
174 - 41.97797624801334 - 14.400117489004908
175 - 41.97797624801334 - 13.294079649358192
176 - 41.97797624801334 - 12.929403831995163
177 - 42.135724242355515 - 12.981094045468774
178 - 42.135724242355515 - 13.082119350660653
179 - 42.135724242355515 - 13.268177671930607
180 - 42.135724242355515 - 14.289911737755457
181 - 42.135724242355515 - 14.551787276323207
182 - 42.135724242355515 - 13.738592369973324
183 - 43.16464990449988 - 13.206006310974185
184 - 43.16464990449988 - 13.21650612122346
185 - 43.16464990449988 - 13.251596433788345
186 - 43.16464990449988 - 13.322148419951763
187 - 43.16464990449988 - 14.504781284698728
188 - 43.16464990449988 - 14.867077318017564
189 - 43.16464990449988 - 14.341897419873305
190 - 43.16464990449988 - 13.552756776803662
191 - 43.16464990449988 - 13.569336356818045
192 - 43.16464990449988 - 13.677604841724223
193 - 43.16464990449988 - 13.865507876501534
194 - 43.16464990449988 - 15.196358104324526
195 - 43.16464990449988 - 16.995540004016316
196 - 43.16464990449988 - 16.20866163411727
197 - 43.16464990449988 - 15.40429294464128
198 - 43.16464990449988 - 15.576484989290572
199 - 43.16464990449988 - 15.685362415505972
200 - 43.16464990449988 - 15.871919349469223
201 - 43.16464990449988 - 17.470203276979447
202 - 43.16464990449988 - 19.436408495567065
203 - 43.16464990449988 - 18.346102754389
204 - 43.16464990449988 - 17.498274197445696
205 - 43.16464990449988 - 17.828234192770694
206 - 43.16464990449988 - 18.142471394114658
207 - 43.16464990449988 - 18.39910649597181
208 - 43.48112464340109 - 19.79014304366759
209 - 43.48112464340109 - 20.39307874613298
210 - 43.48112464340109 - 19.32785824079139
211 - 43.48112464340109 - 18.31934247153224
212 - 43.48112464340109 - 18.450739699613727
213 - 43.48112464340109 - 18.77022444540386
214 - 43.48112464340109 - 19.08169794624635
215 - 43.48112464340109 - 20.605097148093435
216 - 43.561102868474045 - 21.40362197830779
217 - 43.561102868474045 - 19.985077141502284
218 - 43.561102868474045 - 18.57498045399344
219 - 43.561102868474045 - 18.95946573302458
220 - 43.561102868474045 - 19.278672069062626
221 - 47.196956472396856 - 19.603775526336264
222 - 47.196956472396856 - 21.164879858063028
223 - 47.196956472396856 - 21.768342402867376
224 - 47.196956472396856 - 20.45130920379849
225 - 47.196956472396856 - 19.03315272238049
226 - 47.196956472396856 - 19.03880233611712
227 - 47.196956472396856 - 19.20637558757983
228 - 47.196956472396856 - 19.359347127805805
229 - 48.449862813949586 - 21.257991910643206
230 - 49.12681809238766 - 21.968129461625914
231 - 49.12681809238766 - 20.350267831188905
232 - 49.12681809238766 - 19.258981297971513
233 - 49.12681809238766 - 19.33731297722444
234 - 49.12681809238766 - 19.441323865669382
235 - 59.15344433106875 - 19.818188435384812
236 - 59.15344433106875 - 21.656388622737914
237 - 59.15344433106875 - 24.718135593473374
238 - 59.15344433106875 - 23.351972485804104
239 - 59.15344433106875 - 21.668305509343305
240 - 59.15344433106875 - 21.768854012144622
241 - 59.15344433106875 - 21.80847208308578
242 - 59.15344433106875 - 22.00528966673077
243 - 59.15344433106875 - 23.852191838424265
244 - 59.15344433106875 - 25.83197129974578
245 - 59.15344433106875 - 24.472208486454072
246 - 62.34682786941528 - 22.848256075083444
247 - 62.34682786941528 - 22.858004204847123
248 - 62.34682786941528 - 22.992992607259247
249 - 62.34682786941528 - 23.830698408990052
250 - 62.34682786941528 - 25.793897054265262
251 - 62.34682786941528 - 27.146185020026515
252 - 62.34682786941528 - 25.187894644706343
253 - 62.34682786941528 - 23.662053006115563
254 - 62.34682786941528 - 23.91460799180982
255 - 62.34682786941528 - 24.106768945830247
256 - 62.34682786941528 - 24.36420998910919
257 - 62.34682786941528 - 26.892205871987112
258 - 62.34682786941528 - 29.243983161582786
259 - 63.285281715393054 - 27.503199103762107
260 - 63.285281715393054 - 25.800588190581674
261 - 63.285281715393054 - 26.0100718592995
262 - 63.285281715393054 - 26.170678762104234
263 - 63.285281715393054 - 26.695535068002254
264 - 63.285281715393054 - 28.8216173840757
265 - 63.285281715393054 - 29.481569683662364
266 - 63.436128045885205 - 27.509064446750095
267 - 63.436128045885205 - 25.755879494084333
268 - 63.436128045885205 - 25.81706413756122
269 - 63.436128045885205 - 25.953810754900854
270 - 63.436128045885205 - 26.310962619561042
271 - 63.436128045885205 - 28.84943546657333
272 - 63.436128045885205 - 29.744363951475286
273 - 63.436128045885205 - 27.041915649721545
274 - 63.436128045885205 - 25.611274242122068
275 - 63.436128045885205 - 25.91514384299432
276 - 63.436128045885205 - 26.03038660653325
277 - 63.436128045885205 - 26.066873900782163
278 - 63.436128045885205 - 28.376269521241888
279 - 63.436128045885205 - 29.322608215732053
280 - 67.63452646406076 - 27.847817696540677
281 - 67.63452646406076 - 26.380389325101174
282 - 67.63452646406076 - 26.62876657041595
283 - 67.63452646406076 - 26.73860854586139
284 - 67.63452646406076 - 26.92974783304809
285 - 67.63452646406076 - 28.67964246013629
286 - 67.63452646406076 - 29.506347376387446
