0 - 2.95 - 1.2835497652993437
1 - 3.725 - 1.4489220130842104
2 - 3.725 - 1.4489220130842104
3 - 3.725 - 1.4489220130842104
4 - 3.725 - 1.4489220130842104
5 - 3.675 - 1.403344220068619
6 - 3.575 - 1.5147194459701108
7 - 4.325 - 1.6790994610206982
8 - 5.025 - 1.9935834569939634
9 - 5.025 - 1.9935834569939634
10 - 5.025 - 1.9935834569939634
11 - 5.025 - 1.9935834569939634
12 - 4.925 - 1.9543221331193072
13 - 4.65 - 2.2085062825357773
14 - 5.375 - 2.496873044429772
15 - 6.075 - 2.8318501019651445
16 - 6.075 - 2.8318501019651445
17 - 6.075 - 2.8318501019651445
18 - 6.075 - 2.8318501019651445
19 - 5.95 - 2.7290108097990373
20 - 5.85 - 2.894391127681261
21 - 6.5 - 3.22490309931942
22 - 7.15 - 3.588523373199623
23 - 7.15 - 3.588523373199623
24 - 7.15 - 3.588523373199623
25 - 7.15 - 3.588523373199623
26 - 6.725 - 3.442292114275022
27 - 6.35 - 3.44637490705814
28 - 7.0 - 3.774917217635375
29 - 7.625 - 4.157448135575476
30 - 7.625 - 4.157448135575476
31 - 7.625 - 4.157448135575476
32 - 7.625 - 4.157448135575476
33 - 7.35 - 4.04073013204297
34 - 6.475 - 4.068092304754158
35 - 7.125 - 4.365704410516131
36 - 7.725 - 4.598844963683814
37 - 7.725 - 4.598844963683814
38 - 7.725 - 4.598844963683814
39 - 7.725 - 4.598844963683814
40 - 7.4 - 4.476605857119878
41 - 7.275 - 4.577048721610902
42 - 7.9 - 4.784349485562274
43 - 8.5 - 5.029910535983717
44 - 8.5 - 5.029910535983717
45 - 8.5 - 5.029910535983717
46 - 8.5 - 5.029910535983717
47 - 8.05 - 4.769433928675395
48 - 7.425 - 4.663086424247357
49 - 8.05 - 4.862869523234199
50 - 8.6 - 5.053711507397311
51 - 8.6 - 5.053711507397311
52 - 8.6 - 5.053711507397311
53 - 8.6 - 5.053711507397311
54 - 7.825 - 4.477094481915699
55 - 7.725 - 4.404472159067417
56 - 8.325 - 4.601018908893986
57 - 8.9 - 4.836320915737498
58 - 8.9 - 4.836320915737498
59 - 8.9 - 4.836320915737498
60 - 8.9 - 4.836320915737498
61 - 8.325 - 4.3896896245634505
62 - 7.675 - 4.326589303365874
63 - 8.325 - 4.5243093395567024
64 - 8.925 - 4.755983073981656
65 - 8.925 - 4.755983073981656
66 - 8.925 - 4.755983073981656
67 - 8.925 - 4.755983073981656
68 - 8.25 - 4.27638866334668
69 - 8.0 - 4.2895221179054435
70 - 8.7 - 4.594562003064057
71 - 9.35 - 4.85051543652837
72 - 9.35 - 4.85051543652837
73 - 9.35 - 4.85051543652837
74 - 9.35 - 4.85051543652837
75 - 8.8 - 4.394314508543966
76 - 8.65 - 4.3906149910917955
77 - 9.375 - 4.672726720021191
78 - 10.05 - 4.944441323344832
79 - 10.05 - 4.944441323344832
80 - 10.05 - 4.944441323344832
81 - 10.05 - 4.944441323344832
82 - 9.125 - 4.354236442822094
83 - 8.8 - 4.337049688440288
84 - 9.525 - 4.598844963683815
85 - 10.1 - 4.8
86 - 10.1 - 4.8
87 - 10.1 - 4.8
88 - 10.1 - 4.8
89 - 9.3 - 4.261455150532503
90 - 8.925 - 4.285950886326161
91 - 9.7 - 4.550824101193101
92 - 10.425 - 4.800455707534441
93 - 10.425 - 4.800455707534441
94 - 10.425 - 4.800455707534441
95 - 10.425 - 4.800455707534441
96 - 9.75 - 4.437059837324712
97 - 9.375 - 4.586324781347261
98 - 10.075 - 4.854830069116734
99 - 10.65 - 5.0722283071644165
100 - 10.65 - 5.0722283071644165
101 - 10.65 - 5.0722283071644165
102 - 10.65 - 5.0722283071644165
103 - 9.675 - 4.638898037249795
104 - 9.225 - 4.782716278434254
105 - 9.8 - 4.864154602806124
106 - 10.35 - 4.962610200287748
107 - 10.35 - 4.962610200287748
108 - 10.35 - 4.962610200287748
109 - 10.35 - 4.962610200287748
110 - 9.275 - 4.674331503006606
111 - 8.925 - 4.750723629090626
112 - 9.575 - 4.774345504883366
113 - 10.2 - 4.8846698967279245
114 - 10.2 - 4.8846698967279245
115 - 10.2 - 4.8846698967279245
116 - 10.2 - 4.8846698967279245
117 - 9.75 - 4.69973403502794
118 - 9.35 - 4.824676154935168
119 - 10.0 - 4.954795656734998
120 - 10.55 - 5.009740512242126
121 - 10.55 - 5.009740512242126
122 - 10.55 - 5.009740512242126
123 - 10.55 - 5.009740512242126
124 - 10.025 - 4.756508698614983
125 - 9.875 - 4.838323573305117
126 - 10.55 - 4.893618293246828
127 - 11.1 - 4.978955713801841
128 - 11.1 - 4.978955713801841
129 - 11.1 - 4.978955713801841
130 - 11.1 - 4.978955713801841
131 - 10.575 - 4.7428235261287135
132 - 10.025 - 4.9116570523602325
133 - 10.65 - 5.052474641203061
134 - 11.1 - 5.053711507397311
135 - 11.1 - 5.053711507397311
136 - 11.1 - 5.053711507397311
137 - 11.1 - 5.053711507397311
138 - 10.325 - 4.755983073981656
139 - 9.975 - 4.756508698614983
140 - 10.6 - 4.747630988187687
141 - 11.15 - 4.703987670051868
142 - 11.15 - 4.703987670051868
143 - 11.15 - 4.703987670051868
144 - 11.15 - 4.703987670051868
145 - 10.6 - 4.437341546466759
146 - 10.05 - 4.732599708405519
147 - 10.675 - 4.803058921145981
148 - 11.225 - 4.839873448758758
149 - 11.225 - 4.839873448758758
150 - 11.225 - 4.839873448758758
151 - 11.225 - 4.839873448758758
152 - 10.45 - 4.5108203245086145
153 - 10.15 - 4.45841900229218
154 - 10.85 - 4.486368241685026
155 - 11.5 - 4.505552130427524
156 - 11.5 - 4.505552130427524
157 - 11.5 - 4.505552130427524
158 - 11.5 - 4.505552130427524
159 - 10.7 - 4.255584566190643
160 - 9.95 - 4.438186566605779
161 - 10.65 - 4.452808102759426
162 - 11.225 - 4.384560981443866
163 - 11.225 - 4.384560981443866
164 - 11.225 - 4.384560981443866
165 - 11.225 - 4.384560981443866
166 - 10.475 - 4.159251735588986
167 - 10.0 - 4.47213595499958
168 - 10.75 - 4.481908075808784
169 - 11.4 - 4.420407221060068
170 - 11.4 - 4.420407221060068
171 - 11.4 - 4.420407221060068
172 - 11.4 - 4.420407221060068
173 - 10.775 - 4.192180220362669
174 - 10.525 - 4.1169618652593805
175 - 11.25 - 4.072775466435634
176 - 11.925 - 3.9899091468353007
177 - 11.925 - 3.9899091468353007
178 - 11.925 - 3.9899091468353007
179 - 11.925 - 3.9899091468353007
180 - 11.125 - 3.89991987097171
181 - 10.675 - 4.280113900353588
182 - 11.375 - 4.115139730312933
183 - 12.05 - 4.055551750378732
184 - 12.05 - 4.055551750378732
185 - 12.05 - 4.055551750378732
186 - 12.05 - 4.055551750378732
187 - 11.175 - 3.852839861712397
188 - 10.675 - 4.167658215353078
189 - 11.35 - 4.138538389335055
190 - 12.0 - 4.135214625627067
191 - 12.0 - 4.135214625627067
192 - 12.0 - 4.135214625627067
193 - 12.0 - 4.135214625627067
194 - 11.325 - 3.945804734144861
195 - 11.15 - 3.6983104250454693
196 - 11.85 - 3.5675621928706445
197 - 12.5 - 3.4713109915419564
198 - 12.5 - 3.4713109915419564
199 - 12.5 - 3.4713109915419564
200 - 12.5 - 3.4713109915419564
201 - 11.55 - 3.492491947020064
202 - 10.85 - 4.25764019146757
203 - 11.6 - 4.103656905736638
204 - 12.3 - 3.9382737335030433
205 - 12.3 - 3.9382737335030433
206 - 12.3 - 3.9382737335030433
207 - 12.3 - 3.9382737335030433
208 - 11.25 - 3.960744879438715
209 - 11.0 - 4.012480529547776
210 - 11.75 - 3.8584323241440948
211 - 12.4 - 3.6386810797320503
212 - 12.4 - 3.6386810797320503
213 - 12.4 - 3.6386810797320503
214 - 12.4 - 3.6386810797320503
215 - 11.625 - 3.6447736555237555
216 - 11.15 - 4.015905875391005
217 - 11.875 - 3.8417932010976332
218 - 12.5 - 3.7013511046643495
219 - 12.5 - 3.7013511046643495
220 - 12.5 - 3.7013511046643495
221 - 12.5 - 3.7013511046643495
222 - 11.625 - 3.6103150832025728
223 - 11.225 - 4.046526288064863
224 - 11.925 - 3.869027655626152
225 - 12.575 - 3.7807902613078133
226 - 12.575 - 3.7807902613078133
227 - 12.575 - 3.7807902613078133
228 - 12.575 - 3.7807902613078133
229 - 11.9 - 3.7669616403674726
230 - 11.425 - 4.030431118379274
231 - 12.125 - 3.906324999280014
232 - 12.775 - 3.784755606376718
233 - 12.775 - 3.784755606376718
234 - 12.775 - 3.784755606376718
235 - 12.775 - 3.784755606376718
236 - 12.0 - 3.7349698793966195
237 - 11.325 - 3.9521354986892856
238 - 12.075 - 3.7708586555319195
239 - 12.775 - 3.581113653599952
240 - 12.775 - 3.581113653599952
241 - 12.775 - 3.581113653599952
242 - 12.775 - 3.581113653599952
243 - 11.725 - 3.563618245547634
244 - 11.25 - 3.8778215533982476
245 - 12.0 - 3.7013511046643495
246 - 12.675 - 3.4884631286570884
247 - 12.675 - 3.4884631286570884
248 - 12.675 - 3.4884631286570884
249 - 12.675 - 3.4884631286570884
250 - 11.675 - 3.5594065516599818
251 - 10.775 - 4.174251429897342
252 - 11.525 - 4.068092304754158
253 - 12.225 - 3.9527680174783852
254 - 12.225 - 3.9527680174783852
255 - 12.225 - 3.9527680174783852
256 - 12.225 - 3.9527680174783852
257 - 11.3 - 3.9382737335030433
258 - 10.725 - 4.086486877502483
259 - 11.45 - 3.9493670378935404
260 - 12.15 - 3.8829756630707846
261 - 12.15 - 3.8829756630707846
262 - 12.15 - 3.8829756630707846
263 - 12.15 - 3.8829756630707846
264 - 11.325 - 3.8625606791350218
265 - 10.725 - 4.3987924479338645
266 - 11.45 - 4.188973621306298
267 - 12.1 - 3.9862262855989496
268 - 12.1 - 3.9862262855989496
269 - 12.1 - 3.9862262855989496
270 - 12.1 - 3.9862262855989496
271 - 11.175 - 4.030431118379273
272 - 10.775 - 4.192180220362669
273 - 11.475 - 4.031051351694741
274 - 12.1 - 3.9230090491866068
275 - 12.1 - 3.9230090491866068
276 - 12.1 - 3.9230090491866068
277 - 12.1 - 3.9230090491866068
278 - 11.275 - 4.018628497385644
279 - 10.8 - 4.2731721238443
280 - 11.525 - 4.06194226940758
281 - 12.175 - 3.9867750124630814
282 - 12.175 - 3.9867750124630814
283 - 12.175 - 3.9867750124630814
284 - 12.175 - 3.9867750124630814
285 - 11.35 - 4.144574767090105
286 - 11.3 - 3.9255572852781047
287 - 11.975 - 3.7046423579071703
288 - 12.625 - 3.5049072740944234
289 - 12.625 - 3.5049072740944234
290 - 12.625 - 3.5049072740944234
291 - 12.625 - 3.5049072740944234
292 - 11.75 - 3.638337532445279
293 - 11.225 - 3.65709926034282
294 - 11.95 - 3.4637407524235995
295 - 12.65 - 3.2905166767545797
296 - 12.65 - 3.2905166767545797
297 - 12.65 - 3.2905166767545797
298 - 12.65 - 3.2905166767545797
299 - 11.725 - 3.383692509670464
300 - 10.475 - 4.129088882550241
301 - 11.25 - 4.127650663513084
302 - 11.925 - 4.058247774594351
303 - 11.925 - 4.058247774594351
304 - 11.925 - 4.058247774594351
305 - 11.925 - 4.058247774594351
306 - 11.175 - 3.967918219923389
307 - 10.825 - 3.8722570937374496
308 - 11.6 - 3.793415347678131
309 - 12.325 - 3.7039674674597243
310 - 12.325 - 3.7039674674597243
311 - 12.325 - 3.7039674674597243
312 - 12.325 - 3.7039674674597243
313 - 11.425 - 3.7342167853513812
314 - 10.875 - 3.925477677939336
315 - 11.7 - 3.8288379438153295
316 - 12.4 - 3.7269290307168443
317 - 12.4 - 3.7269290307168443
318 - 12.4 - 3.7269290307168443
319 - 12.4 - 3.7269290307168443
320 - 11.325 - 3.6632465109517267
321 - 11.0 - 3.7282703764614498
322 - 11.775 - 3.5811136535999526
323 - 12.5 - 3.420526275297414
324 - 12.5 - 3.420526275297414
325 - 12.5 - 3.420526275297414
326 - 12.5 - 3.420526275297414
327 - 11.6 - 3.448187929913334
328 - 11.0 - 3.847076812334269
329 - 11.775 - 3.7046423579071712
330 - 12.475 - 3.5212746271769264
331 - 12.475 - 3.5212746271769264
332 - 12.475 - 3.5212746271769264
333 - 12.475 - 3.5212746271769264
334 - 11.575 - 3.5418039189091197
335 - 10.925 - 3.77085865553192
336 - 11.7 - 3.6687872655688283
337 - 12.425 - 3.597829206618902
338 - 12.425 - 3.597829206618902
339 - 12.425 - 3.597829206618902
340 - 12.425 - 3.597829206618902
341 - 11.55 - 3.6670833096617805
342 - 11.2 - 3.722902093797258
343 - 11.95 - 3.470950878361721
344 - 12.675 - 3.227905667766641
345 - 12.675 - 3.227905667766641
346 - 12.675 - 3.227905667766641
347 - 12.675 - 3.227905667766641
348 - 11.75 - 3.344772040064913
349 - 10.575 - 4.110276754672367
350 - 11.4 - 3.9293765408777004
351 - 12.1 - 3.9038442591886278
352 - 12.1 - 3.9038442591886278
353 - 12.1 - 3.9038442591886278
354 - 12.1 - 3.9038442591886278
355 - 11.2 - 3.71618083521241
356 - 10.875 - 3.5439208512606486
357 - 11.75 - 3.418698582794336
358 - 12.5 - 3.248076353782343
359 - 12.5 - 3.248076353782343
360 - 12.5 - 3.248076353782343
361 - 12.5 - 3.248076353782343
362 - 11.475 - 3.2402739081750487
363 - 10.95 - 3.3686050525402944
364 - 11.775 - 3.29004179304762
365 - 12.525 - 3.2633380149779154
366 - 12.525 - 3.2633380149779154
367 - 12.525 - 3.2633380149779154
368 - 12.525 - 3.2633380149779154
369 - 11.425 - 3.2625718382895412
370 - 10.8 - 3.4583232931581165
371 - 11.65 - 3.2905166767545793
372 - 12.425 - 3.270225527391039
373 - 12.425 - 3.270225527391039
374 - 12.425 - 3.270225527391039
375 - 12.425 - 3.270225527391039
376 - 11.4 - 3.3823069050575527
377 - 10.975 - 3.1103657341219537
378 - 11.825 - 2.9739493943239856
379 - 12.6 - 2.808914381037628
380 - 12.6 - 2.808914381037628
381 - 12.6 - 2.808914381037628
382 - 12.6 - 2.808914381037628
383 - 11.75 - 2.9979159427842537
384 - 10.7 - 3.593048844644337
385 - 11.5 - 3.4641016151377544
386 - 12.2 - 3.4510867853474796
387 - 12.2 - 3.4510867853474796
388 - 12.2 - 3.4510867853474796
389 - 12.2 - 3.4510867853474796
390 - 11.375 - 3.3740739470260577
391 - 10.5 - 3.8013155617496426
392 - 11.375 - 3.6721077053920954
393 - 12.175 - 3.4776967952942655
394 - 12.175 - 3.4776967952942655
395 - 12.175 - 3.4776967952942655
396 - 12.175 - 3.4776967952942655
397 - 11.25 - 3.329789783154486
398 - 10.375 - 3.9159130480642697
399 - 11.275 - 3.8209128490453685
400 - 12.125 - 3.6482016117533855
401 - 12.125 - 3.6482016117533855
402 - 12.125 - 3.6482016117533855
403 - 12.125 - 3.6482016117533855
404 - 11.2 - 3.465544690232692
405 - 10.45 - 3.9556921012636965
406 - 11.375 - 3.8580273456780994
407 - 12.175 - 3.7542475943922504
408 - 12.175 - 3.7542475943922504
409 - 12.175 - 3.7542475943922504
410 - 12.175 - 3.7542475943922504
411 - 11.05 - 3.6465737343429656
412 - 10.8 - 3.4942810419312296
413 - 11.65 - 3.3507461855533016
414 - 12.4 - 3.22335229225724
415 - 12.4 - 3.22335229225724
416 - 12.4 - 3.22335229225724
417 - 12.4 - 3.22335229225724
418 - 11.5 - 3.255764119219941
419 - 10.45 - 3.859727969689055
420 - 11.3 - 3.6959437225152656
421 - 12.05 - 3.5843409436045564
422 - 12.05 - 3.5843409436045564
423 - 12.05 - 3.5843409436045564
424 - 12.05 - 3.5843409436045564
425 - 11.125 - 3.5439208512606486
426 - 10.675 - 3.6972117872797057
427 - 11.525 - 3.5283671861074777
428 - 12.25 - 3.337289319193048
429 - 12.25 - 3.337289319193048
430 - 12.25 - 3.337289319193048
431 - 12.25 - 3.337289319193048
432 - 11.5 - 3.3689761055846033
433 - 10.575 - 4.152634705822318
434 - 11.4 - 3.967366884975475
435 - 12.1 - 3.666060555964671
436 - 12.1 - 3.666060555964671
437 - 12.1 - 3.666060555964671
438 - 12.1 - 3.666060555964671
439 - 11.25 - 3.6452023263462343
440 - 10.65 - 4.138538389335056
441 - 11.45 - 3.923964831646684
442 - 12.125 - 3.6890886408434267
443 - 12.125 - 3.6890886408434267
444 - 12.125 - 3.6890886408434267
445 - 12.125 - 3.6890886408434267
446 - 11.275 - 3.7682058064813813
447 - 10.8 - 4.0877866871939394
448 - 11.55 - 3.9048047326338873
449 - 12.225 - 3.677550135620179
450 - 12.225 - 3.677550135620179
451 - 12.225 - 3.677550135620179
452 - 12.225 - 3.677550135620179
453 - 11.4 - 3.666060555964673
454 - 10.75 - 4.2115911482478925
455 - 11.55 - 4.00593309979086
456 - 12.175 - 3.9108023473451072
457 - 12.175 - 3.9108023473451072
458 - 12.175 - 3.9108023473451072
459 - 12.175 - 3.9108023473451072
460 - 11.4 - 3.9038442591886278
461 - 11.0 - 3.866522985836241
462 - 11.8 - 3.655133376499413
463 - 12.5 - 3.4641016151377544
464 - 12.5 - 3.4641016151377544
465 - 12.5 - 3.4641016151377544
466 - 12.5 - 3.4641016151377544
467 - 11.775 - 3.5106089215405354
468 - 11.125 - 3.8806410552897055
469 - 11.925 - 3.6768702723919966
470 - 12.65 - 3.4245437652335537
471 - 12.65 - 3.4245437652335537
472 - 12.65 - 3.4245437652335537
473 - 12.65 - 3.4245437652335537
474 - 11.75 - 3.498213829942361
475 - 11.125 - 4.148418373308074
476 - 11.925 - 3.9584561384458965
477 - 12.55 - 3.7144986202716512
478 - 12.55 - 3.7144986202716512
479 - 12.55 - 3.7144986202716512
480 - 12.55 - 3.7144986202716512
481 - 11.65 - 3.7386494887860247
482 - 11.125 - 4.093821564259976
483 - 11.875 - 3.9318411717667336
484 - 12.525 - 3.708014967607331
485 - 12.525 - 3.708014967607331
486 - 12.525 - 3.708014967607331
487 - 12.525 - 3.708014967607331
488 - 11.7 - 3.7762415176998405
489 - 11.4 - 4.07308237088326
490 - 12.175 - 3.865795519682851
491 - 12.8 - 3.6414282912066263
492 - 12.8 - 3.6414282912066263
493 - 12.8 - 3.6414282912066263
494 - 12.8 - 3.6414282912066263
495 - 11.925 - 3.6358458438168135
496 - 11.175 - 3.929933205539249
497 - 11.975 - 3.7315378867164144
498 - 12.65 - 3.4318362431794447
499 - 12.65 - 3.4318362431794447
500 - 12.65 - 3.4318362431794447
501 - 12.65 - 3.4318362431794447
502 - 11.775 - 3.467618058552585
503 - 11.05 - 4.116734142496938
504 - 11.825 - 3.980499340535054
505 - 12.475 - 3.7549134477375112
506 - 12.475 - 3.7549134477375112
507 - 12.475 - 3.7549134477375112
508 - 12.475 - 3.7549134477375112
509 - 11.55 - 3.7144986202716517
510 - 11.025 - 4.174251429897342
511 - 11.825 - 3.9804993405350535
512 - 12.45 - 3.7279350852717377
513 - 12.45 - 3.7279350852717377
514 - 12.45 - 3.7279350852717377
515 - 12.45 - 3.7279350852717377
516 - 11.6 - 3.686461718233353
517 - 11.05 - 4.128861828639946
518 - 11.875 - 3.963505392957098
519 - 12.55 - 3.6738943915142688
520 - 12.55 - 3.6738943915142688
521 - 12.55 - 3.6738943915142688
522 - 12.55 - 3.6738943915142688
523 - 11.75 - 3.679334178897046
524 - 11.05 - 4.347125487031632
525 - 11.85 - 4.162631379308046
526 - 12.525 - 3.885791425179689
527 - 12.525 - 3.885791425179689
528 - 12.525 - 3.885791425179689
529 - 12.525 - 3.885791425179689
530 - 11.625 - 3.8515418990321266
531 - 11.25 - 4.078909167902615
532 - 12.025 - 3.9527680174783852
533 - 12.65 - 3.8114957693797855
534 - 12.65 - 3.8114957693797855
535 - 12.65 - 3.8114957693797855
536 - 12.65 - 3.8114957693797855
537 - 11.875 - 3.7827734534333404
538 - 11.325 - 3.9331126350512777
539 - 12.125 - 3.7429099641856203
540 - 12.8 - 3.4583232931581165
541 - 12.8 - 3.4583232931581165
542 - 12.8 - 3.4583232931581165
543 - 12.8 - 3.4583232931581165
544 - 12.025 - 3.5389793726440395
545 - 11.075 - 4.395381098380435
546 - 11.825 - 4.158650622497638
547 - 12.475 - 3.9432695824657995
548 - 12.475 - 3.9432695824657995
549 - 12.475 - 3.9432695824657995
550 - 12.475 - 3.9432695824657995
551 - 11.725 - 3.9178278420573815
552 - 11.45 - 3.714498620271651
553 - 12.175 - 3.5276585719142384
554 - 12.825 - 3.3082283778481796
555 - 12.825 - 3.3082283778481796
556 - 12.825 - 3.3082283778481796
557 - 12.825 - 3.3082283778481796
558 - 12.0 - 3.427827300200522
559 - 11.4 - 4.029888335921977
560 - 12.125 - 3.7827734534333404
561 - 12.75 - 3.5619517121937516
562 - 12.75 - 3.5619517121937516
563 - 12.75 - 3.5619517121937516
564 - 12.75 - 3.5619517121937516
565 - 11.95 - 3.6738943915142697
566 - 11.625 - 3.692475456925882
567 - 12.35 - 3.4391132578035286
568 - 13.025 - 3.1740155954248235
569 - 13.025 - 3.1740155954248235
570 - 13.025 - 3.1740155954248235
571 - 13.025 - 3.1740155954248235
572 - 12.075 - 3.2433585987368097
573 - 10.7 - 4.196427051671458
574 - 11.525 - 4.018628497385643
575 - 12.275 - 3.7880568897523172
576 - 12.275 - 3.7880568897523172
577 - 12.275 - 3.7880568897523172
578 - 12.275 - 3.7880568897523172
579 - 11.3 - 3.75632799419859
580 - 10.725 - 4.049614179153367
581 - 11.5 - 3.9749213828703582
582 - 12.175 - 3.833324275351617
583 - 12.175 - 3.833324275351617
584 - 12.175 - 3.833324275351617
585 - 12.175 - 3.833324275351617
586 - 11.4 - 3.8131351929875232
587 - 11.2 - 3.4365680554879163
