0 - 2.0 - 0.09478947348500558
1 - 2.0 - 0.1350223121580684
2 - 2.0 - 0.16546980070645273
3 - 2.0 - 0.17536393422678112
4 - 2.0 - 0.17727241347549944
5 - 2.0 - 0.17727241347549944
6 - 2.0 - 0.17727241347549944
7 - 2.0 - 0.24810658777312605
8 - 2.204158066448413 - 0.3588759786223628
9 - 4.0 - 0.4915793793303502
10 - 4.0 - 0.5108074236943634
11 - 4.0 - 0.5206844940449112
12 - 4.0 - 0.5235471068019588
13 - 4.0 - 0.523547111352695
14 - 47.083606724609545 - 1.7439762558858853
15 - 50.04779792851524 - 2.8235465102478163
16 - 51.04780254254216 - 2.9075771758248434
17 - 51.04780254254216 - 2.9432907990536696
18 - 51.04780254254216 - 2.9615907200981284
19 - 51.182095527209725 - 3.119737903040337
20 - 54.076440656969424 - 4.278597629884986
21 - 54.09380649234119 - 4.230985109586061
22 - 54.09380649234119 - 4.499901473641553
23 - 64.01834131416521 - 5.011752668031872
24 - 64.01834131416521 - 5.124827151059002
25 - 91.66278731145357 - 6.879848599345695
26 - 91.66278731145357 - 7.19646660150608
27 - 91.66278731145357 - 7.196466620423019
28 - 91.66278731145357 - 7.413417846378001
29 - 91.66278731145357 - 5.842009624629985
30 - 91.66278731145357 - 5.842590513596511
31 - 91.66278731145357 - 5.90447154084484
32 - 91.66278731145357 - 6.260874202827646
33 - 91.66278731145357 - 8.2409927926957
34 - 91.66278731145357 - 10.594879998045863
35 - 91.66278731145357 - 10.936053526764926
36 - 91.66278731145357 - 10.697164733467439
37 - 91.66450801874461 - 11.034355563098
38 - 91.68033127132215 - 11.092729489307882
39 - 91.68033127132215 - 11.128188552823756
40 - 91.68033127132215 - 11.667098513019138
41 - 91.68033127132215 - 12.061689497278046
42 - 91.68033127132215 - 10.23568372366704
43 - 91.68033127132215 - 8.929345891511215
44 - 91.68033127132215 - 9.180704460927078
45 - 91.68033127132215 - 9.293573859612163
46 - 91.68033127132215 - 11.53639158024635
47 - 91.68033127132215 - 13.667889339040613
48 - 91.68033127132215 - 14.046391961514775
49 - 91.68033127132215 - 11.960073624301291
50 - 91.68033127132215 - 9.219074641361178
51 - 91.68033127132215 - 11.000907011200855
52 - 91.68033127132215 - 11.114651111428973
53 - 91.68033127132215 - 12.894776563629566
54 - 91.68033127132215 - 14.955998575172496
55 - 91.68033127132215 - 16.194443389375653
56 - 91.68033127132215 - 12.577068711435441
57 - 91.68033127132215 - 11.098828838884348
58 - 91.68033127132215 - 11.194112285367243
59 - 91.68033127132215 - 11.313492953569298
60 - 91.68033127132215 - 12.4070295835657
61 - 91.68033127132215 - 14.758313722115727
62 - 91.68033127132215 - 15.946091464665505
63 - 91.68033127132215 - 14.149290340587541
64 - 94.63381542933614 - 14.039009532556028
65 - 94.63381542933614 - 14.314018749472108
66 - 94.63381542933614 - 14.358213062053432
67 - 94.63381542933614 - 15.325765566375239
68 - 94.63381542933614 - 16.821570205350156
69 - 94.63381542933614 - 18.27698117006657
70 - 94.63381542933614 - 16.61444298048332
71 - 94.63381542933614 - 14.727794948289183
72 - 94.63381542933614 - 15.1432851950667
73 - 94.63381542933614 - 15.592552003340472
74 - 94.63381542933614 - 16.972739310638694
75 - 94.63381542933614 - 18.592183640994744
76 - 94.63381542933614 - 19.678165091442782
77 - 94.63381542933614 - 17.76541859860386
78 - 94.63381542933614 - 16.01019613414031
79 - 97.80898821692713 - 17.703133964874063
80 - 97.80898821692713 - 19.05337782680082
81 - 109.77909626471369 - 20.30645042501011
82 - 110.4598956394195 - 22.89834800383014
83 - 113.96582453727716 - 23.71353827517861
84 - 113.96582453727716 - 21.064951112461834
85 - 118.74098228454584 - 17.747381217403138
86 - 118.74098228454584 - 19.729033819250212
87 - 148.8791612243651 - 20.784274040162195
88 - 148.8791612243651 - 23.37082607867984
89 - 148.8791612243651 - 26.453531770087842
90 - 148.8791612243651 - 27.69807927225356
91 - 148.8791612243651 - 23.88433572852968
92 - 148.8791612243651 - 21.892426498417073
93 - 148.8791612243651 - 23.152449810073932
94 - 148.8791612243651 - 24.823709640302525
95 - 148.8791612243651 - 27.38838891273435
