0 - 0.0 - 0.0
1 - 0.21826275224271 - 0.017805287000288973
2 - 1.0146438749212967 - 0.05227576561358982
3 - 1.0146438749212967 - 0.05535751758588241
4 - 1.2190812157547992 - 0.06250697472358854
5 - 1.2190812157547992 - 0.06250697472358854
6 - 1.2190812157547992 - 0.06250697472358854
7 - 1.219081324857215 - 0.07862536033914684
8 - 1.43752922312073 - 0.1444337943768098
9 - 1.569686988320039 - 0.1704322957890114
10 - 1.569686988320039 - 0.18060964988055694
11 - 1.6506947367599136 - 0.19675831404821312
12 - 1.6618552334998786 - 0.19704033558938713
13 - 1.6618552334998786 - 0.1970405016852515
14 - 1.7276284932794894 - 0.22161531861501635
15 - 2.4149769729689545 - 0.2554420658122254
16 - 2.4149769729689545 - 0.2852234178431162
17 - 2.4149769729689545 - 0.3223004418719998
18 - 2.620395739768681 - 0.3456830332571422
19 - 2.620395739768681 - 0.3460317322815539
20 - 2.620395739768681 - 0.34603174995562686
21 - 5.103774635869345 - 0.48310645277559294
22 - 9.207263378060382 - 0.6725715760621493
23 - 9.207263378060382 - 0.7257213028721174
24 - 9.207263378060382 - 0.7696343768969782
25 - 9.207263378060382 - 0.8336840561375594
26 - 9.521810376540474 - 0.8441663546277655
27 - 9.525918325755907 - 0.8444238972058022
28 - 27.643219438221145 - 1.3376032273667184
29 - 27.643219438221145 - 1.3885003394420672
30 - 27.643219438221145 - 1.3946670029645776
31 - 27.643219438221145 - 1.491915290687794
32 - 27.643219438221145 - 1.563381485579428
33 - 27.643219438221145 - 1.5911436953461746
34 - 27.643219438221145 - 2.2265961785427617
35 - 27.643219438221145 - 2.188273748256939
36 - 27.643219438221145 - 2.2200226264264997
37 - 27.643219438221145 - 2.295825376574368
38 - 27.643219438221145 - 2.320589914058785
39 - 28.342969501951465 - 2.373828238755027
40 - 29.472874120422034 - 2.5691995229592037
41 - 29.472874120422034 - 2.5801891567166635
42 - 29.472874120422034 - 2.521433992293267
43 - 29.472874120422034 - 2.4298002355056907
44 - 29.472874120422034 - 2.464637551081033
45 - 29.472874120422034 - 2.518910219028554
46 - 29.916495637686353 - 2.541336787832848
47 - 29.916495637686353 - 2.651738410173214
48 - 29.916495637686353 - 3.3591648988254668
49 - 29.916495637686353 - 3.3079413247620435
50 - 29.916495637686353 - 3.1549510624236943
51 - 29.916495637686353 - 3.2323670245535205
52 - 29.916495637686353 - 3.2791267582598493
53 - 29.916495637686353 - 3.463851570538376
54 - 29.916495637686353 - 3.62855703251209
55 - 29.916495637686353 - 3.7133926475177894
56 - 29.916495637686353 - 3.6022267859741177
57 - 29.916495637686353 - 3.562613717974879
58 - 29.916495637686353 - 3.614920260450686
59 - 29.916495637686353 - 3.7313753898991644
60 - 29.916495637686353 - 3.795602847741983
61 - 29.916495637686353 - 3.9560944560446836
62 - 29.916495637686353 - 4.009157440259044
63 - 29.916495637686353 - 3.87908783821169
64 - 29.916495637686353 - 3.4214809760893417
65 - 29.916495637686353 - 3.468668224146139
66 - 29.916495637686353 - 3.510825190423342
67 - 29.916495637686353 - 3.6067436344319423
68 - 29.916495637686353 - 4.222053811241244
69 - 29.916495637686353 - 4.31720910423787
70 - 29.916495637686353 - 4.079493919175311
71 - 29.916495637686353 - 3.527277616470587
72 - 29.916495637686353 - 3.615590703544094
73 - 29.916495637686353 - 3.7377724764411746
74 - 29.916495637686353 - 3.8952628366370545
75 - 29.916495637686353 - 4.40951241100009
76 - 29.916495637686353 - 4.651877367585631
77 - 29.916495637686353 - 4.252985986933021
78 - 29.916495637686353 - 4.551666352450015
79 - 29.916495637686353 - 4.588902764525722
80 - 29.916495637686353 - 4.6010128076649774
81 - 29.916495637686353 - 4.673126071575693
82 - 29.916495637686353 - 4.9239700797945956
83 - 29.916495637686353 - 4.965335607695401
84 - 29.916495637686353 - 4.35678067237332
85 - 29.916495637686353 - 4.02704672836663
86 - 29.916495637686353 - 4.055740501413009
87 - 29.916495637686353 - 4.147172387786685
88 - 29.916495637686353 - 4.640061816312388
89 - 29.916495637686353 - 5.065222703780888
90 - 29.916495637686353 - 5.186175313059069
91 - 29.916495637686353 - 4.9381459855241285
92 - 29.916495637686353 - 4.612353972705646
93 - 29.916495637686353 - 4.6987985640289045
94 - 29.916495637686353 - 4.770133988635571
95 - 29.916495637686353 - 4.793645221746308
96 - 29.916495637686353 - 5.214138343499103
97 - 29.916495637686353 - 5.353413134446893
98 - 29.916495637686353 - 5.1452756912851605
99 - 29.916495637686353 - 4.961445187956428
100 - 29.916495637686353 - 4.978721508534482
101 - 29.916495637686353 - 4.981870599291911
102 - 30.285850390351335 - 5.052572843411253
103 - 30.285850390351335 - 5.351166238003996
104 - 30.285850390351335 - 5.410067711321863
105 - 30.285850390351335 - 5.229780243279431
106 - 30.285850390351335 - 5.015392572956012
107 - 30.285850390351335 - 5.021951944197808
108 - 30.285850390351335 - 5.284666210274542
109 - 30.285850390351335 - 5.388750755514587
110 - 30.285850390351335 - 5.866206534745093
111 - 30.285850390351335 - 6.218009305526489
112 - 30.285850390351335 - 6.1418186103636385
113 - 36.12508398109156 - 6.104491154336553
114 - 36.12508398109156 - 6.109923806638334
115 - 36.12508398109156 - 6.176758171150457
116 - 36.12508398109156 - 6.210789343031279
117 - 40.900850359020026 - 6.644493147008871
118 - 41.23855710208416 - 6.806138641388246
119 - 42.083895715035894 - 6.506252586344692
120 - 42.083895715035894 - 5.40738414816371
121 - 42.083895715035894 - 5.462793975320108
122 - 42.083895715035894 - 5.465047366730308
123 - 42.083895715035894 - 5.898889323455952
124 - 42.083895715035894 - 6.182945783914957
125 - 42.083895715035894 - 6.2638425664815625
126 - 42.083895715035894 - 5.625029796321077
127 - 42.083895715035894 - 5.302312838670302
128 - 42.083895715035894 - 5.349877176315582
129 - 42.083895715035894 - 5.410269944633714
130 - 42.083895715035894 - 5.440458312043406
131 - 42.083895715035894 - 6.184297498741369
132 - 42.083895715035894 - 6.342482608515086
133 - 42.083895715035894 - 5.424327417672468
134 - 42.083895715035894 - 5.436107457216137
135 - 42.083895715035894 - 5.478988180321601
136 - 42.083895715035894 - 5.499900247659106
137 - 42.083895715035894 - 5.737464515908544
138 - 42.083895715035894 - 6.63238690294528
139 - 42.083895715035894 - 6.729870090615629
140 - 42.083895715035894 - 6.404160307073316
141 - 42.083895715035894 - 5.626164887730096
142 - 42.083895715035894 - 5.725824447518038
143 - 42.083895715035894 - 6.149950196549818
144 - 42.95761104718636 - 6.212829935146251
145 - 42.95761104718636 - 6.640615322041599
146 - 42.95761104718636 - 6.761561254004415
147 - 42.95761104718636 - 5.376552410948077
148 - 42.95761104718636 - 5.232373294193257
149 - 42.95761104718636 - 5.275696946882481
150 - 42.95761104718636 - 5.27907609206344
151 - 42.95761104718636 - 5.725420073631935
152 - 42.95761104718636 - 7.081382973179116
153 - 42.95761104718636 - 7.255164155114741
154 - 43.023270658207565 - 6.724846653331637
155 - 43.023270658207565 - 5.252125833630993
156 - 43.023270658207565 - 5.259329962231723
157 - 43.023270658207565 - 5.377985023970718
158 - 43.023270658207565 - 6.073708386613837
159 - 43.04553745439179 - 7.160806150486349
160 - 43.04553745439179 - 7.311471269533001
161 - 43.04553745439179 - 5.689088288374538
162 - 43.04553745439179 - 6.178126234202198
163 - 43.650703854623586 - 6.221334791616127
164 - 43.650703854623586 - 6.242730570528508
165 - 43.650703854623586 - 6.855285215152099
166 - 43.650703854623586 - 7.262146758916943
167 - 43.650703854623586 - 7.669729241732727
168 - 43.650703854623586 - 6.639144464506842
169 - 43.650703854623586 - 6.47114764661283
170 - 43.650703854623586 - 6.524926219100688
171 - 43.650703854623586 - 6.530392115395527
172 - 43.650703854623586 - 6.635436188341312
173 - 43.650703854623586 - 6.983175955231596
174 - 43.650703854623586 - 7.244833968103313
175 - 43.650703854623586 - 6.88984175348565
176 - 43.650703854623586 - 6.750968409907522
177 - 43.650703854623586 - 6.775272796676579
178 - 43.650703854623586 - 6.858190179116986
179 - 43.650703854623586 - 6.868070018699363
180 - 43.650703854623586 - 7.27945229068129
181 - 43.650703854623586 - 7.516509122928305
182 - 43.650703854623586 - 6.436469543747393
183 - 43.650703854623586 - 6.434589446185408
184 - 43.650703854623586 - 6.540854227348172
185 - 44.65942027524114 - 6.679932286984169
186 - 44.65942027524114 - 6.7048624248615045
187 - 44.65942027524114 - 7.085108027486092
188 - 44.65942027524114 - 7.353976657554097
189 - 44.65942027524114 - 6.885417192423563
190 - 44.65942027524114 - 6.979455817553213
191 - 44.65942027524114 - 7.066406579834604
192 - 44.65942027524114 - 7.091325425077727
193 - 44.65942027524114 - 7.241662090141062
194 - 44.65942027524114 - 7.757713203202959
195 - 44.65942027524114 - 8.479363039208069
196 - 44.65942027524114 - 7.890391302752986
197 - 44.65942027524114 - 7.808166984698362
198 - 44.65942027524114 - 7.85117431999946
199 - 44.65942027524114 - 7.873564689744201
200 - 44.65942027524114 - 8.01171264910817
201 - 44.65942027524114 - 8.643995598873271
202 - 44.65942027524114 - 8.83378071650386
203 - 44.65942027524114 - 8.352326078465104
204 - 44.65942027524114 - 7.950625559587588
205 - 44.65942027524114 - 7.9853091972512305
206 - 44.65942027524114 - 8.00110585854244
207 - 44.65942027524114 - 8.065432676557194
208 - 44.65942027524114 - 8.665757021100514
209 - 44.65942027524114 - 9.575748583218061
210 - 44.65942027524114 - 9.216790338906304
211 - 44.65942027524114 - 7.768754380497062
212 - 44.65942027524114 - 8.041419037157576
213 - 45.734457888911045 - 8.161872795105714
214 - 45.734457888911045 - 8.738601125848152
215 - 45.734457888911045 - 9.770764108906928
216 - 45.734457888911045 - 10.074166737857094
217 - 45.734457888911045 - 9.263162007472545
218 - 45.734457888911045 - 9.031511823274077
219 - 45.734457888911045 - 9.042615311878071
220 - 45.734457888911045 - 9.193000099871048
221 - 45.734457888911045 - 9.274365160625289
222 - 45.734457888911045 - 10.499884512784613
223 - 45.734457888911045 - 10.970813789689275
224 - 46.66001020667782 - 10.149468555624344
225 - 46.66001020667782 - 9.005783274713782
226 - 46.66001020667782 - 9.550779164403124
227 - 46.66001020667782 - 9.627930222905437
228 - 46.66001020667782 - 9.793282764002456
229 - 46.66001020667782 - 11.107981412509961
230 - 46.66001020667782 - 11.729356873355485
231 - 46.66001020667782 - 11.278335218196677
232 - 46.66001020667782 - 9.896804362853356
233 - 46.66001020667782 - 10.197400844563655
234 - 46.66001020667782 - 10.430665994532465
235 - 46.66001020667782 - 11.038689948869523
236 - 46.66001020667782 - 12.190449590653653
237 - 46.66001020667782 - 12.940461461949528
238 - 46.66001020667782 - 11.978170643881404
239 - 46.66001020667782 - 10.572243764159774
240 - 46.92795646868451 - 10.61622262106038
241 - 46.92795646868451 - 10.81739879527093
242 - 46.92795646868451 - 11.385919285493676
243 - 46.92795646868451 - 12.436596619546437
244 - 46.92795646868451 - 12.897683153857745
245 - 46.92795646868451 - 11.942866234239377
246 - 48.642807677224596 - 11.375872516280637
247 - 48.642807677224596 - 11.393498292628545
248 - 48.642807677224596 - 11.598518840770087
249 - 48.642807677224596 - 11.629404927427036
250 - 48.642807677224596 - 13.093231975724326
251 - 48.642807677224596 - 14.268340903833097
252 - 48.642807677224596 - 13.360269592114545
253 - 48.642807677224596 - 12.282894828761702
254 - 48.642807677224596 - 12.350229693519399
255 - 48.642807677224596 - 12.389234201013966
256 - 48.642807677224596 - 12.709519928477638
257 - 48.642807677224596 - 13.883654883602457
258 - 48.642807677224596 - 15.02484590040063
259 - 48.642807677224596 - 14.196558366267373
260 - 48.642807677224596 - 13.20032264438754
261 - 48.642807677224596 - 13.402288198365827
262 - 48.642807677224596 - 13.592547947728317
263 - 48.642807677224596 - 13.966558759441742
264 - 48.642807677224596 - 15.082947856371089
265 - 48.642807677224596 - 15.661804930051641
266 - 48.642807677224596 - 15.249440904541979
267 - 48.642807677224596 - 13.54124699557649
268 - 48.642807677224596 - 13.682149172479665
269 - 48.642807677224596 - 14.023483970604047
270 - 48.642807677224596 - 14.081597307480603
271 - 48.642807677224596 - 15.84861201923577
272 - 48.642807677224596 - 17.166447780163985
273 - 48.642807677224596 - 16.377951457350356
274 - 48.642807677224596 - 15.47024403259609
275 - 48.642807677224596 - 15.62052941625629
276 - 48.642807677224596 - 15.67749926994046
277 - 48.642807677224596 - 16.43913982471421
278 - 48.642807677224596 - 17.41754597921139
279 - 48.642807677224596 - 17.733608680460485
280 - 48.642807677224596 - 16.01448621251891
281 - 48.642807677224596 - 15.424451989492724
282 - 48.642807677224596 - 15.574787671419077
283 - 48.642807677224596 - 15.583509203296709
284 - 48.642807677224596 - 16.053630228733315
285 - 48.642807677224596 - 17.348739405018712
286 - 48.642807677224596 - 17.85186105879847
287 - 48.642807677224596 - 16.92671515779648
288 - 48.642807677224596 - 16.133237381668316
289 - 48.642807677224596 - 16.194138752917205
290 - 48.642807677224596 - 16.23434769305552
291 - 48.642807677224596 - 16.632966979217393
292 - 48.642807677224596 - 18.18114065698625
293 - 48.642807677224596 - 19.36898818064129
294 - 48.642807677224596 - 18.47016703598152
295 - 48.642807677224596 - 17.653186298325902
296 - 48.642807677224596 - 18.074974794912734
297 - 48.642807677224596 - 18.153925149175414
