0 - 2.925 - 1.5392774278862145
1 - 3.7 - 1.7204650534085253
2 - 3.7 - 1.7204650534085253
3 - 3.7 - 1.7204650534085253
4 - 3.7 - 1.7204650534085253
5 - 3.7 - 1.7204650534085253
6 - 3.575 - 1.8287632432876597
7 - 4.325 - 2.0662465970933868
8 - 5.05 - 2.3659036328641956
9 - 5.05 - 2.3659036328641956
10 - 5.05 - 2.3659036328641956
11 - 5.05 - 2.3659036328641956
12 - 4.975 - 2.2526373432046274
13 - 4.9 - 2.3
14 - 5.625 - 2.5757280524154718
15 - 6.35 - 2.8943911276812613
16 - 6.35 - 2.8943911276812613
17 - 6.35 - 2.8943911276812613
18 - 6.35 - 2.8943911276812613
19 - 6.1 - 2.782085548648711
20 - 5.5 - 3.0166206257996713
21 - 6.25 - 3.2996211903792836
22 - 6.95 - 3.646573734342965
23 - 6.95 - 3.646573734342965
24 - 6.95 - 3.646573734342965
25 - 6.95 - 3.646573734342965
26 - 6.475 - 3.232549303568315
27 - 6.1 - 3.160696125855822
28 - 6.85 - 3.475269773701029
29 - 7.575 - 3.813708824753143
30 - 7.575 - 3.813708824753143
31 - 7.575 - 3.813708824753143
32 - 7.575 - 3.813708824753143
33 - 7.35 - 3.7453304260105007
34 - 7.05 - 3.625948151863178
35 - 7.8 - 3.9127995093027708
36 - 8.525 - 4.2189305516919795
37 - 8.525 - 4.2189305516919795
38 - 8.525 - 4.2189305516919795
39 - 8.525 - 4.2189305516919795
40 - 7.825 - 3.8979962801418893
41 - 7.8 - 3.957271787481876
42 - 8.55 - 4.1949374250398535
43 - 9.275 - 4.49993055501971
44 - 9.275 - 4.49993055501971
45 - 9.275 - 4.49993055501971
46 - 9.275 - 4.49993055501971
47 - 8.6 - 4.194043395102155
48 - 8.35 - 4.034538387473838
49 - 9.125 - 4.284784125250653
50 - 9.8 - 4.411349000022556
51 - 9.8 - 4.411349000022556
52 - 9.8 - 4.411349000022556
53 - 9.8 - 4.411349000022556
54 - 8.975 - 4.107843108006925
55 - 8.825 - 3.9044045640788814
56 - 9.6 - 4.06078810084939
57 - 10.3 - 4.202380277890139
58 - 10.3 - 4.202380277890139
59 - 10.3 - 4.202380277890139
60 - 10.3 - 4.202380277890139
61 - 9.3 - 3.6551333764994136
62 - 8.975 - 3.8437449186958275
63 - 9.85 - 3.9657912199206855
64 - 10.7 - 4.075536774462967
65 - 10.7 - 4.075536774462967
66 - 10.7 - 4.075536774462967
67 - 10.7 - 4.075536774462967
68 - 9.9 - 3.7802116342871597
69 - 9.525 - 3.7415738667036895
70 - 10.4 - 3.8327535793473597
71 - 11.175 - 3.955297081130569
72 - 11.175 - 3.955297081130569
73 - 11.175 - 3.955297081130569
74 - 11.175 - 3.955297081130569
75 - 10.525 - 3.6536796520767933
76 - 10.375 - 3.7992597963287533
77 - 11.2 - 3.9191835884530857
78 - 11.975 - 4.1017526741625945
79 - 11.975 - 4.1017526741625945
80 - 11.975 - 4.1017526741625945
81 - 11.975 - 4.1017526741625945
82 - 11.15 - 3.902242944769072
83 - 10.65 - 4.150602365922325
84 - 11.45 - 4.236448984704053
85 - 12.15 - 4.339066719929528
86 - 12.15 - 4.339066719929528
87 - 12.15 - 4.339066719929528
88 - 12.15 - 4.339066719929528
89 - 11.375 - 4.193372747562516
90 - 11.0 - 4.415880433163924
91 - 11.725 - 4.51102815331494
92 - 12.25 - 4.4651427748729375
93 - 12.25 - 4.4651427748729375
94 - 12.25 - 4.4651427748729375
95 - 12.25 - 4.4651427748729375
96 - 11.325 - 4.22721835253397
97 - 11.025 - 4.1802362373435304
98 - 11.775 - 4.2278097166263295
99 - 12.375 - 4.175449077644224
100 - 12.375 - 4.175449077644224
101 - 12.375 - 4.175449077644224
102 - 12.375 - 4.175449077644224
103 - 11.725 - 4.074233056662321
104 - 10.95 - 4.598641103630507
105 - 11.625 - 4.55898837462874
106 - 12.2 - 4.4732538492690095
107 - 12.2 - 4.4732538492690095
108 - 12.2 - 4.4732538492690095
109 - 12.2 - 4.4732538492690095
110 - 11.375 - 4.3167551470983385
111 - 11.3 - 4.261455150532504
112 - 11.975 - 4.162255998854467
113 - 12.55 - 4.0183952020676115
114 - 12.55 - 4.0183952020676115
115 - 12.55 - 4.0183952020676115
116 - 12.55 - 4.0183952020676115
117 - 11.65 - 3.8958311051687025
118 - 10.725 - 4.455263740790212
119 - 11.425 - 4.288866400344036
120 - 12.025 - 4.077299964437249
121 - 12.025 - 4.077299964437249
122 - 12.025 - 4.077299964437249
123 - 12.025 - 4.077299964437249
124 - 11.25 - 3.84545185901475
125 - 10.725 - 4.254336023400127
126 - 11.425 - 4.265486490425213
127 - 12.025 - 4.2218923482249044
128 - 12.025 - 4.2218923482249044
129 - 12.025 - 4.2218923482249044
130 - 12.025 - 4.2218923482249044
131 - 11.175 - 4.241977722713782
132 - 10.775 - 4.535898477699869
133 - 11.5 - 4.421538193886829
134 - 12.1 - 4.2708313008125245
135 - 12.1 - 4.2708313008125245
136 - 12.1 - 4.2708313008125245
137 - 12.1 - 4.2708313008125245
138 - 11.375 - 4.1694573987510655
139 - 10.925 - 4.676470357010723
140 - 11.55 - 4.549450516271168
141 - 12.05 - 4.409931972264425
142 - 12.05 - 4.409931972264425
143 - 12.05 - 4.409931972264425
144 - 12.05 - 4.409931972264425
145 - 11.6 - 4.369210454990695
146 - 11.225 - 4.745985145362341
147 - 11.775 - 4.568848323155411
148 - 12.225 - 4.4242937289470285
149 - 12.225 - 4.4242937289470285
150 - 12.225 - 4.4242937289470285
151 - 12.225 - 4.4242937289470285
152 - 11.725 - 4.415809665282235
153 - 11.6 - 4.352011029397789
154 - 12.15 - 4.180610003336834
155 - 12.575 - 3.95529708113057
156 - 12.575 - 3.95529708113057
157 - 12.575 - 3.95529708113057
158 - 12.575 - 3.95529708113057
159 - 12.025 - 4.046526288064864
160 - 11.45 - 4.460661385938189
161 - 12.0 - 4.254409477236529
162 - 12.425 - 4.018006346436003
163 - 12.425 - 4.018006346436003
164 - 12.425 - 4.018006346436003
165 - 12.425 - 4.018006346436003
166 - 11.8 - 4.063249930782009
167 - 11.25 - 4.710360920354193
168 - 11.775 - 4.546908290256139
169 - 12.2 - 4.417012565071556
170 - 12.2 - 4.417012565071556
171 - 12.2 - 4.417012565071556
172 - 12.2 - 4.417012565071556
173 - 11.625 - 4.453580020612631
174 - 11.55 - 4.598641103630507
175 - 12.075 - 4.395381098380435
176 - 12.475 - 4.283617046375645
177 - 12.475 - 4.283617046375645
178 - 12.475 - 4.283617046375645
179 - 12.475 - 4.283617046375645
180 - 11.825 - 4.236080145606313
181 - 11.25 - 4.363198368169845
182 - 11.85 - 4.269367634673781
183 - 12.35 - 4.132493194186773
184 - 12.35 - 4.132493194186773
185 - 12.35 - 4.132493194186773
186 - 12.35 - 4.132493194186773
187 - 11.575 - 4.140576650661114
188 - 10.65 - 4.623580863356885
189 - 11.3 - 4.462062303464622
190 - 11.85 - 4.315958757912314
191 - 11.85 - 4.315958757912314
192 - 11.85 - 4.315958757912314
193 - 11.85 - 4.315958757912314
194 - 11.275 - 4.26020832823936
195 - 11.125 - 4.2964374777250045
196 - 11.75 - 4.151806835583756
197 - 12.325 - 4.008662495147228
198 - 12.325 - 4.008662495147228
199 - 12.325 - 4.008662495147228
200 - 12.325 - 4.008662495147228
201 - 11.525 - 3.9305692971883857
202 - 11.025 - 4.524861876344955
203 - 11.675 - 4.502152263084845
204 - 12.125 - 4.534244700057552
205 - 12.125 - 4.534244700057552
206 - 12.125 - 4.534244700057552
207 - 12.125 - 4.534244700057552
208 - 11.625 - 4.397087103981453
209 - 12.125 - 3.585997071945263
210 - 12.75 - 3.440566813767755
211 - 13.3 - 3.2878564445547194
212 - 13.3 - 3.2878564445547194
213 - 13.3 - 3.2878564445547194
214 - 13.3 - 3.2878564445547194
215 - 12.575 - 3.368141178751271
216 - 11.925 - 4.173652477147564
217 - 12.575 - 4.09198912510774
218 - 13.1 - 3.961060464067672
219 - 13.1 - 3.961060464067672
220 - 13.1 - 3.961060464067672
221 - 13.1 - 3.961060464067672
222 - 12.425 - 3.9108023473451072
223 - 11.775 - 4.574316888891717
224 - 12.475 - 4.438397796502698
225 - 13.0 - 4.301162633521313
226 - 13.0 - 4.301162633521313
227 - 13.0 - 4.301162633521313
228 - 13.0 - 4.301162633521313
229 - 12.25 - 4.205650960315181
230 - 11.875 - 4.382850100106094
231 - 12.55 - 4.236448984704053
232 - 13.125 - 4.057015528686081
233 - 13.125 - 4.057015528686081
234 - 13.125 - 4.057015528686081
235 - 13.125 - 4.057015528686081
236 - 12.325 - 4.0211161385864
237 - 11.625 - 4.553501400021746
238 - 12.3 - 4.394314508543966
239 - 12.875 - 4.278945547678774
240 - 12.875 - 4.278945547678774
241 - 12.875 - 4.278945547678774
242 - 12.875 - 4.278945547678774
243 - 12.25 - 4.217522969706271
244 - 11.75 - 4.493050188902857
245 - 12.375 - 4.293527104840495
246 - 12.975 - 4.107843108006926
247 - 12.975 - 4.107843108006926
248 - 12.975 - 4.107843108006926
249 - 12.975 - 4.107843108006926
250 - 12.35 - 4.04073013204297
251 - 12.0 - 4.260281680828158
252 - 12.65 - 4.089926649709014
253 - 13.2 - 3.9761790704142097
254 - 13.2 - 3.9761790704142097
255 - 13.2 - 3.9761790704142097
256 - 13.2 - 3.9761790704142097
257 - 12.5 - 3.9370039370059056
258 - 12.075 - 4.045908427040829
259 - 12.7 - 3.9382737335030433
260 - 13.25 - 3.825898587260253
261 - 13.25 - 3.825898587260253
262 - 13.25 - 3.825898587260253
263 - 13.25 - 3.825898587260253
264 - 12.4 - 3.8262252939417984
265 - 11.9 - 4.121892769104989
266 - 12.575 - 3.961612676676003
267 - 13.175 - 3.78739686328222
268 - 13.175 - 3.78739686328222
269 - 13.175 - 3.78739686328222
270 - 13.175 - 3.78739686328222
271 - 12.425 - 3.7807902613078133
272 - 12.1 - 4.017461885320133
273 - 12.775 - 3.7979435224868725
274 - 13.425 - 3.604771143914688
275 - 13.425 - 3.604771143914688
276 - 13.425 - 3.604771143914688
277 - 13.425 - 3.604771143914688
278 - 12.775 - 3.6707458370200463
279 - 12.05 - 4.200892762258994
280 - 12.7 - 3.963584236521282
281 - 13.3 - 3.8223029707232783
282 - 13.3 - 3.8223029707232783
283 - 13.3 - 3.8223029707232783
284 - 13.3 - 3.8223029707232783
285 - 12.675 - 3.823529128959266
286 - 12.125 - 4.342738191510052
287 - 12.775 - 4.1199969660183
288 - 13.35 - 3.9720901298938327
289 - 13.35 - 3.9720901298938327
290 - 13.35 - 3.9720901298938327
291 - 13.35 - 3.9720901298938327
292 - 12.6 - 3.9484174044799265
293 - 12.5 - 4.006245124802026
294 - 13.125 - 3.7761587625522317
295 - 13.625 - 3.4977671449083054
296 - 13.625 - 3.4977671449083054
297 - 13.625 - 3.4977671449083054
