0 - 2.0 - 0.0
1 - 2.975 - 0.15612494995995993
2 - 2.975 - 0.15612494995995993
3 - 2.975 - 0.15612494995995993
4 - 2.975 - 0.15612494995995993
5 - 2.8 - 0.45825756949558405
6 - 3.025 - 0.6887488656977954
7 - 3.975 - 0.6887488656977953
8 - 4.9 - 0.7000000000000004
9 - 4.9 - 0.7000000000000004
10 - 4.9 - 0.7000000000000004
11 - 4.9 - 0.7000000000000004
12 - 4.325 - 0.7545694136393286
13 - 4.65 - 1.3702189606044721
14 - 5.6 - 1.3379088160259653
15 - 6.55 - 1.2835497652993435
16 - 6.55 - 1.2835497652993435
17 - 6.55 - 1.2835497652993435
18 - 6.55 - 1.2835497652993435
19 - 5.85 - 1.4756354563373704
20 - 6.0 - 1.746424919657298
21 - 6.925 - 1.649052758404048
22 - 7.825 - 1.5793590472087087
23 - 7.825 - 1.5793590472087087
24 - 7.825 - 1.5793590472087087
25 - 7.825 - 1.5793590472087087
26 - 6.875 - 1.5682394587562194
27 - 7.1 - 2.3853720883753127
28 - 8.0 - 2.224859546128699
29 - 8.925 - 2.183889878176095
30 - 8.925 - 2.183889878176095
31 - 8.925 - 2.183889878176095
32 - 8.925 - 2.183889878176095
33 - 7.7 - 2.3473389188611002
34 - 7.525 - 2.2911514572371683
35 - 8.5 - 2.3021728866442674
36 - 9.475 - 2.3236555252446522
37 - 9.475 - 2.3236555252446522
38 - 9.475 - 2.3236555252446522
39 - 9.475 - 2.3236555252446522
40 - 8.6 - 2.2781571499789037
41 - 8.475 - 2.3450746256782535
42 - 9.45 - 2.3659036328641956
43 - 10.325 - 2.3171911876234987
44 - 10.325 - 2.3171911876234987
45 - 10.325 - 2.3171911876234987
46 - 10.325 - 2.3171911876234987
47 - 9.2 - 2.2715633383201097
48 - 8.45 - 2.5975950415721076
49 - 9.4 - 2.6057628441590768
50 - 10.325 - 2.5630792028339666
51 - 10.325 - 2.5630792028339666
52 - 10.325 - 2.5630792028339666
53 - 10.325 - 2.5630792028339666
54 - 8.9 - 2.3748684174075834
55 - 8.425 - 2.279117153636469
56 - 9.35 - 2.2643983748448506
57 - 10.25 - 2.2555487137279924
58 - 10.25 - 2.2555487137279924
59 - 10.25 - 2.2555487137279924
60 - 10.25 - 2.2555487137279924
61 - 8.9 - 2.1656407827707715
62 - 8.625 - 2.320425607512553
63 - 9.6 - 2.3430749027719964
64 - 10.5 - 2.29128784747792
65 - 10.5 - 2.29128784747792
66 - 10.5 - 2.29128784747792
67 - 10.5 - 2.29128784747792
68 - 9.175 - 2.166650640966374
69 - 8.425 - 2.3225793850803034
70 - 9.325 - 2.2736259586836174
71 - 10.2 - 2.227105745132009
72 - 10.2 - 2.227105745132009
73 - 10.2 - 2.227105745132009
74 - 10.2 - 2.227105745132009
75 - 8.95 - 2.376446927663229
76 - 8.5 - 2.6739483914241875
77 - 9.425 - 2.5969934539771176
78 - 10.3 - 2.511971337416094
79 - 10.3 - 2.511971337416094
80 - 10.3 - 2.511971337416094
81 - 10.3 - 2.511971337416094
82 - 8.925 - 2.630470490235539
