0 - 2.0 - 0.0
1 - 2.9875 - 0.11110243021644482
2 - 2.9875 - 0.11110243021644482
3 - 2.9875 - 0.11110243021644482
4 - 2.9875 - 0.11110243021644482
5 - 2.8375 - 0.43138584816843545
6 - 3.0875 - 0.5743202503830073
7 - 4.0375 - 0.5109733358992422
8 - 4.95 - 0.47169905660283024
9 - 4.95 - 0.47169905660283024
10 - 4.95 - 0.47169905660283024
11 - 4.95 - 0.47169905660283024
12 - 4.5 - 0.9219544457292888
13 - 4.7375 - 1.2221267323808935
14 - 5.6625 - 1.1720041595489328
15 - 6.575 - 1.1266654339243756
16 - 6.575 - 1.1266654339243756
17 - 6.575 - 1.1266654339243756
18 - 6.575 - 1.1266654339243756
19 - 5.9375 - 1.154813296598199
20 - 6.1625 - 1.6236051706002903
21 - 7.1 - 1.562049935181331
22 - 8.025 - 1.5245901088489333
23 - 8.025 - 1.5245901088489333
24 - 8.025 - 1.5245901088489333
25 - 8.025 - 1.5245901088489333
26 - 7.3375 - 1.6427397085357138
27 - 7.5 - 2.0
28 - 8.4375 - 1.9738525147538253
29 - 9.4 - 1.965960325133751
30 - 9.4 - 1.965960325133751
31 - 9.4 - 1.965960325133751
32 - 9.4 - 1.965960325133751
33 - 8.8125 - 1.9880502382988212
34 - 8.6625 - 2.2745535276181132
35 - 9.625 - 2.331174596635782
36 - 10.5875 - 2.2676736427449167
37 - 10.5875 - 2.2676736427449167
38 - 10.5875 - 2.2676736427449167
39 - 10.5875 - 2.2676736427449167
40 - 9.4375 - 2.621277121938846
41 - 9.3 - 3.030676492138348
42 - 10.25 - 3.0228298000383678
43 - 11.1625 - 2.968348657081914
44 - 11.1625 - 2.968348657081914
45 - 11.1625 - 2.968348657081914
46 - 11.1625 - 2.968348657081914
47 - 10.1125 - 2.962236275181303
48 - 9.575 - 3.3233078400894493
49 - 10.4875 - 3.3353925930840584
50 - 11.3875 - 3.3260101848912007
51 - 11.3875 - 3.3260101848912007
52 - 11.3875 - 3.3260101848912007
53 - 11.3875 - 3.3260101848912007
54 - 10.1375 - 3.6665506610437
55 - 9.9125 - 3.7053803785846338
56 - 10.8375 - 3.6552829917805263
57 - 11.725 - 3.570626695693628
58 - 11.725 - 3.570626695693628
59 - 11.725 - 3.570626695693628
60 - 11.725 - 3.570626695693628
61 - 10.5375 - 3.714645844491773
62 - 10.1875 - 3.542928696714062
63 - 11.0625 - 3.4290805983528587
64 - 11.875 - 3.31049467602653
65 - 11.875 - 3.31049467602653
66 - 11.875 - 3.31049467602653
67 - 11.875 - 3.31049467602653
68 - 10.7875 - 3.632126615359106
69 - 10.0625 - 3.8384363678456364
70 - 10.95 - 3.7144986202716517
71 - 11.7625 - 3.5469837538393096
72 - 11.7625 - 3.5469837538393096
73 - 11.7625 - 3.5469837538393096
74 - 11.7625 - 3.5469837538393096
75 - 10.3875 - 3.793065218263456
76 - 9.7375 - 3.7806869415491153
77 - 10.625 - 3.651626349998039
78 - 11.45 - 3.5351803348627064
79 - 11.45 - 3.5351803348627064
80 - 11.45 - 3.5351803348627064
