0 - 0.43652173669441874 - 0.021883483859716453
1 - 0.6004574776384167 - 0.05291230471625027
2 - 0.6004574776384167 - 0.0656793705252257
3 - 0.6004574776384167 - 0.06582673961550548
4 - 0.6004574776384167 - 0.07296979541022879
5 - 0.6004574776384167 - 0.0730756995835938
6 - 0.6004574776384167 - 0.0730756995835938
7 - 0.6302248011833352 - 0.09605941550416856
8 - 1.2137908862984697 - 0.17250047921250863
9 - 1.2137908862984697 - 0.2177816676724184
10 - 1.2137908862984697 - 0.2315384767216182
11 - 1.509436462495638 - 0.2538575430475859
12 - 1.5094620243362762 - 0.2539845863138407
13 - 1.5094620243362762 - 0.2539845863138407
14 - 1.5094620243362762 - 0.24083374023846646
15 - 1.5094620243362762 - 0.2871397302802895
16 - 2.7501378025697623 - 0.37077546226783303
17 - 2.961626737791557 - 0.42241988110539175
18 - 3.0 - 0.45161193343242845
19 - 3.0 - 0.45388367272948155
20 - 3.0 - 0.46604202049037946
21 - 3.0 - 0.46476152970011153
22 - 3.0 - 0.5001264653642927
23 - 3.0 - 0.5258247523785256
24 - 3.0 - 0.5871956611550491
25 - 3.0 - 0.6624743189173877
26 - 3.0 - 0.6808623344562647
27 - 3.0 - 0.6848798934898874
28 - 3.0644107901531714 - 0.7834192848778077
29 - 3.861679006137519 - 0.803315644655519
30 - 8.146209939044454 - 0.9567648664636736
31 - 8.509762184723565 - 1.0169299385260004
32 - 8.509762184723565 - 1.1034017400093854
33 - 8.806250343115432 - 1.2238308034866687
34 - 8.806250343115432 - 1.2288161129418937
35 - 8.806250343115432 - 1.2088249793136427
36 - 20.36250098850416 - 1.462496550164462
37 - 23.78230588837674 - 1.6254326136163582
38 - 27.0785498461516 - 1.8040272157378148
39 - 27.0785498461516 - 1.8778509110291566
40 - 34.31826642679132 - 2.107292066379088
41 - 35.08771062954612 - 2.1279468465413216
42 - 35.08771062954612 - 2.129967258732015
43 - 35.08771062954612 - 2.1230242512136863
44 - 35.08771062954612 - 2.2112228415443558
45 - 35.08771062954612 - 2.274563904838923
46 - 35.08771062954612 - 2.324642405274961
47 - 35.08771062954612 - 2.3660528286237943
48 - 35.08771062954612 - 2.384068384247471
49 - 35.08771062954612 - 2.4535996557538353
50 - 35.08771062954612 - 2.48642746665755
51 - 35.08771062954612 - 2.585114848504443
52 - 35.08771062954612 - 2.684973686597023
53 - 35.08771062954612 - 2.974676960470358
54 - 35.08771062954612 - 3.0115295237032114
55 - 35.08771062954612 - 3.391612044571248
56 - 35.08771062954612 - 3.554065974971625
57 - 35.08771062954612 - 3.590804000601671
58 - 35.08771062954612 - 3.6263075321326736
59 - 35.08771062954612 - 3.628646633762196
60 - 35.08771062954612 - 3.6683009662211106
61 - 35.08771062954612 - 4.192870770715611
62 - 35.08771062954612 - 4.379036446383168
63 - 35.08771062954612 - 4.235029334442777
64 - 35.08771062954612 - 3.37991979305895
65 - 35.08771062954612 - 3.4342059979137387
66 - 35.08771062954612 - 3.519725180184736
67 - 35.08771062954612 - 3.557068243249362
68 - 35.08771062954612 - 4.492428996157342
69 - 35.08771062954612 - 4.580380420193019
70 - 35.08771062954612 - 4.121012281084298
71 - 35.08771062954612 - 3.996926305458067
72 - 35.08771062954612 - 4.178008423611556
73 - 35.08771062954612 - 4.46247769306511
74 - 35.08771062954612 - 4.874304186075249
75 - 35.08771062954612 - 5.212427870952519
76 - 35.08771062954612 - 5.305270841045744
77 - 35.14423066968503 - 4.968055240523081
78 - 35.14423066968503 - 4.485098031288439
79 - 35.14423066968503 - 4.504693631885149
80 - 35.14423066968503 - 4.652725751999169
81 - 36.54306885781496 - 5.097252186072018
82 - 36.54306885781496 - 5.471308412929054
83 - 36.54306885781496 - 5.525699197870276
84 - 36.54306885781496 - 4.910657039004123
85 - 36.54306885781496 - 4.727284123362406
86 - 36.54306885781496 - 4.834345781041929
87 - 36.54306885781496 - 4.901846693688367
88 - 36.54306885781496 - 5.24515233766178
89 - 36.54306885781496 - 6.031755727740665
90 - 36.54306885781496 - 6.0943277769010455
91 - 36.54306885781496 - 5.837289146874168
92 - 36.54306885781496 - 5.580627605831717
93 - 36.54306885781496 - 5.65378781442767
94 - 36.54306885781496 - 6.212636077620635
95 - 36.54306885781496 - 6.42008234901342
96 - 37.600928783002104 - 7.170695015398982
97 - 37.600928783002104 - 7.332268751808042
98 - 37.600928783002104 - 6.982439926072194
99 - 37.600928783002104 - 6.392036899935084
100 - 41.32957115788209 - 6.492417882167878
101 - 41.32957115788209 - 6.539343177857239
102 - 41.32957115788209 - 6.59759907009064
103 - 41.32957115788209 - 7.53067751912571
104 - 41.32957115788209 - 7.821297330905196
105 - 41.32957115788209 - 7.488746195377989
106 - 45.803351684134945 - 7.31766674251828
107 - 45.803351684134945 - 7.423884928297125
108 - 45.803351684134945 - 7.4563025672988275
109 - 45.803351684134945 - 7.546548998763872
110 - 45.803351684134945 - 8.094999552072668
111 - 45.803351684134945 - 8.23452281794823
112 - 45.803351684134945 - 8.018364534455788
113 - 45.803351684134945 - 6.730636319681471
114 - 45.803351684134945 - 7.211013773865868
115 - 45.803351684134945 - 7.38842160676771
116 - 45.803351684134945 - 7.6242783645448755
117 - 45.803351684134945 - 8.60121387027566
118 - 45.803351684134945 - 8.759360384574121
119 - 45.803351684134945 - 7.185861317025028
120 - 45.803351684134945 - 6.8071510429332065
121 - 45.803351684134945 - 6.951832969585984
122 - 45.803351684134945 - 7.49605271848309
123 - 45.803351684134945 - 7.747948225180062
124 - 45.803351684134945 - 8.770922552733698
125 - 45.803351684134945 - 9.053478140840792
126 - 45.803351684134945 - 8.555374939498364
127 - 45.803351684134945 - 8.421699718661555
128 - 45.803351684134945 - 8.483273608364728
129 - 46.914607234754065 - 8.60360647886744
130 - 46.914607234754065 - 8.65936593505164
131 - 46.914607234754065 - 9.315568781216466
132 - 46.914607234754065 - 10.524712403212929
133 - 46.914607234754065 - 10.376042908026333
134 - 46.914607234754065 - 9.343391080398876
135 - 46.914607234754065 - 9.408687092033453
136 - 46.914607234754065 - 9.991642432668018
137 - 46.914607234754065 - 10.087198584379658
138 - 46.914607234754065 - 10.996891470276491
139 - 46.914607234754065 - 12.147619162570916
140 - 46.914607234754065 - 11.784071365742491
141 - 46.914607234754065 - 10.987819706362135
142 - 46.914607234754065 - 11.213546836457695
143 - 46.914607234754065 - 11.50470520348459
144 - 46.914607234754065 - 11.643873387390787
145 - 46.914607234754065 - 12.634225528106278
146 - 46.914607234754065 - 12.970587767706547
147 - 46.99275120527847 - 12.280561111008668
148 - 46.99275120527847 - 11.761151387649313
149 - 46.99275120527847 - 11.975291709925335
150 - 46.99275120527847 - 12.050673474043945
151 - 48.67445802613308 - 12.136523568204577
152 - 48.67445802613308 - 12.70367856717756
153 - 48.67445802613308 - 13.109014398545431
154 - 48.67445802613308 - 12.385432632793279
155 - 48.67445802613308 - 11.792717469717132
156 - 48.67445802613308 - 11.87144633338291
157 - 48.67445802613308 - 11.956215044249662
158 - 48.67445802613308 - 12.095171343741864
159 - 48.67445802613308 - 13.06083026020482
160 - 48.67445802613308 - 14.304396943703546
161 - 48.67445802613308 - 13.5526207899263
162 - 48.67445802613308 - 12.956172820720173
163 - 48.67445802613308 - 13.10767063831715
164 - 48.67445802613308 - 13.232190373466617
165 - 48.67445802613308 - 13.435292041761922
166 - 48.67445802613308 - 14.353821708977694
167 - 49.02929864365122 - 15.67932961347474
168 - 49.02929864365122 - 15.033514432021951
169 - 49.02929864365122 - 14.300456825570132
170 - 49.02929864365122 - 14.316948752083906
171 - 49.02929864365122 - 14.422165116977533
172 - 49.02929864365122 - 14.540532287556584
173 - 49.02929864365122 - 15.720966168423251
174 - 49.02929864365122 - 18.01963267579561
175 - 49.02929864365122 - 17.31264417381659
176 - 49.02929864365122 - 16.696927613141696
177 - 49.02929864365122 - 16.811264143021845
178 - 49.02929864365122 - 16.934662484577913
179 - 49.02929864365122 - 17.086403061404546
180 - 53.126307360918624 - 18.308542302338704
181 - 56.030498486192606 - 18.791318730083812
182 - 56.030498486192606 - 18.092955019011832
183 - 56.030498486192606 - 17.153076904966127
184 - 56.030498486192606 - 17.39990835321318
185 - 56.030498486192606 - 17.485634436165714
186 - 56.030498486192606 - 17.527370823876595
187 - 56.687915066017815 - 19.048989822337333
188 - 58.54247895375541 - 19.340242384167365
189 - 58.54247895375541 - 18.028289302751606
190 - 58.54247895375541 - 17.839105708353106
191 - 58.54247895375541 - 17.88217806792087
192 - 58.54247895375541 - 17.95041866117449
193 - 58.54247895375541 - 18.127271827025513
194 - 58.54247895375541 - 19.503671922561928
195 - 58.54247895375541 - 19.98456714387904
196 - 58.54247895375541 - 19.357432705833023
197 - 58.54247895375541 - 17.162197185886463
198 - 58.54247895375541 - 17.657480176706592
199 - 58.54247895375541 - 17.87943947691285
200 - 58.54247895375541 - 18.10946167481265
201 - 58.54247895375541 - 19.26085332779062
202 - 58.54247895375541 - 19.621461984878337
203 - 58.54247895375541 - 16.827297813032274
204 - 58.54247895375541 - 16.18172570548333
205 - 58.54247895375541 - 16.491291650119106
206 - 58.54247895375541 - 16.71506106444245
207 - 58.54247895375541 - 17.591705562883277
208 - 58.54247895375541 - 18.808172751195116
209 - 58.54247895375541 - 19.432347575726265
210 - 58.54247895375541 - 18.40508563887434
211 - 58.54247895375541 - 17.333797346204754
212 - 58.54247895375541 - 17.90721807954201
213 - 58.54247895375541 - 17.965893257651043
214 - 58.54247895375541 - 18.23385003179968
215 - 58.54247895375541 - 19.227122691162908
216 - 58.54247895375541 - 20.162589639458865
217 - 58.54247895375541 - 19.08268867580811
218 - 58.54247895375541 - 17.528001158321118
219 - 58.54247895375541 - 17.58308046706459
220 - 58.54247895375541 - 17.595053505363726
221 - 58.54247895375541 - 17.71294605588195
222 - 58.54247895375541 - 19.20458540762814
223 - 58.54247895375541 - 19.506498270182096
224 - 58.54247895375541 - 18.56555879221728
225 - 58.54247895375541 - 17.76839241927262
226 - 58.54247895375541 - 17.777954798034315
227 - 58.54247895375541 - 17.846506223031728
228 - 58.54247895375541 - 18.11567287657709
229 - 58.54247895375541 - 19.24846911254368
230 - 58.54247895375541 - 20.608691677292303
231 - 58.54247895375541 - 19.512127609678675
232 - 58.54247895375541 - 18.881312420975146
233 - 58.54247895375541 - 19.395393397658367
234 - 58.54247895375541 - 19.71021359447807
235 - 58.54247895375541 - 19.921566494584233
236 - 58.54247895375541 - 20.897423827585907
237 - 58.54247895375541 - 22.61764581273375
238 - 58.54247895375541 - 21.362521519572525
239 - 58.54247895375541 - 20.62991777230132
240 - 58.54247895375541 - 20.937149122797234
241 - 58.54247895375541 - 20.937626070254634
242 - 58.54247895375541 - 21.085118788097212
243 - 58.54247895375541 - 22.630371463730853
244 - 58.54247895375541 - 23.298958389627778
245 - 58.54247895375541 - 22.040402179409824
246 - 58.54247895375541 - 20.846487987803577
247 - 58.54247895375541 - 20.884778585841957
248 - 58.54247895375541 - 20.926611912359736
249 - 58.54247895375541 - 21.205111474167087
250 - 58.54247895375541 - 22.76826939899738
251 - 58.54247895375541 - 23.574485196120484
252 - 58.54247895375541 - 22.144655705319508
253 - 58.54247895375541 - 20.97997396957603
254 - 58.54247895375541 - 21.008239022210734
255 - 58.54247895375541 - 21.282185998384048
256 - 58.54247895375541 - 21.50885190517319
257 - 58.54247895375541 - 22.928392941687317
258 - 58.54247895375541 - 23.68090526753809
259 - 58.54247895375541 - 22.234663006837177
260 - 58.54247895375541 - 20.810835768664468
261 - 58.54247895375541 - 21.347755396113918
262 - 58.54247895375541 - 21.761432087225085
263 - 58.54247895375541 - 21.79461791472172
264 - 58.54247895375541 - 23.5797004733867
265 - 58.54247895375541 - 24.180015897756242
266 - 58.54247895375541 - 23.117654479536647
267 - 58.54247895375541 - 21.931884830152732
268 - 58.54247895375541 - 22.208121544409714
269 - 58.54247895375541 - 22.343881549191966
270 - 58.54247895375541 - 22.48409245671857
271 - 58.54247895375541 - 23.771678213693555
272 - 58.58771077846225 - 24.514981728841548
273 - 58.58771077846225 - 23.332650468129202
274 - 58.58771077846225 - 20.70915869675185
275 - 58.58771077846225 - 20.994374227127373
276 - 58.58771077846225 - 21.02687972313885
277 - 58.58771077846225 - 21.287563156946433
278 - 58.58771077846225 - 23.78263363339888
279 - 58.58771077846225 - 24.547272629353028
280 - 58.58771077846225 - 22.492641110483287
281 - 58.58771077846225 - 21.313822476270957
282 - 58.58771077846225 - 21.49635973478847
283 - 58.58771077846225 - 21.656985736392052
284 - 58.58771077846225 - 22.004926262068192
285 - 58.58771077846225 - 23.924112887535937
286 - 58.58771077846225 - 24.422083802037985
287 - 58.58771077846225 - 23.126554665297085
288 - 58.58771077846225 - 22.00056264310699
289 - 58.58771077846225 - 22.246565703167644
290 - 58.58771077846225 - 22.295222906487403
291 - 58.58771077846225 - 22.380950425358883
292 - 58.58771077846225 - 23.863336655004282
293 - 58.58771077846225 - 24.584720558696848
294 - 58.58771077846225 - 22.90677737178148
295 - 58.58771077846225 - 21.956630860346557
296 - 58.58771077846225 - 21.9720391528967
297 - 58.58771077846225 - 22.01227357984113
298 - 58.58771077846225 - 22.1841141616062
299 - 58.58771077846225 - 24.108655882534418
300 - 58.58771077846225 - 24.73920731375001
301 - 58.58771077846225 - 23.204963740609788
302 - 58.58771077846225 - 21.698249926349057
303 - 58.58771077846225 - 21.961043141114406
304 - 58.58771077846225 - 22.29726201391356
305 - 58.58771077846225 - 22.476166425399178
306 - 58.58771077846225 - 24.630030765535032
307 - 58.58771077846225 - 26.335362999824167
308 - 58.58771077846225 - 24.822776836750887
309 - 58.58771077846225 - 22.774493725713977
310 - 58.58771077846225 - 23.096323996715054
311 - 58.58771077846225 - 23.21502681506964
312 - 58.58771077846225 - 23.567791893554556
313 - 58.58771077846225 - 25.4900876539162
314 - 58.58771077846225 - 27.701758515315323
315 - 58.58771077846225 - 26.489081475339496
316 - 58.58771077846225 - 24.485905983214217
317 - 58.58771077846225 - 24.710435254572438
318 - 58.58771077846225 - 24.988638930237283
319 - 58.58771077846225 - 25.11145400784732
320 - 58.58771077846225 - 26.685568578645736
321 - 58.58771077846225 - 28.471050821935584
322 - 58.58771077846225 - 26.66139929289872
323 - 58.58771077846225 - 25.575693220057623
324 - 58.58771077846225 - 25.72995824047063
325 - 58.58771077846225 - 25.744093554303966
326 - 58.58771077846225 - 25.83220085831951
327 - 58.58771077846225 - 28.018465666247284
328 - 58.58771077846225 - 28.82508501992573
329 - 58.58771077846225 - 26.554565455958596
330 - 58.58771077846225 - 25.37549858274906
331 - 58.58771077846225 - 25.560587481299343
332 - 58.58771077846225 - 25.88807513860001
333 - 58.58771077846225 - 26.334906787529057
334 - 58.58771077846225 - 28.58937667607524
335 - 58.58771077846225 - 29.785669536485692
336 - 58.58771077846225 - 27.63830096887265
337 - 58.58771077846225 - 26.387347298740575
338 - 58.58771077846225 - 26.777701459360024
339 - 58.58771077846225 - 26.804174774226237
340 - 58.58771077846225 - 26.84842859337264
341 - 58.58771077846225 - 29.04669784291578
342 - 58.58771077846225 - 30.01508135843728
343 - 58.58771077846225 - 28.002888741734683
344 - 58.58771077846225 - 26.906174809815287
345 - 58.58771077846225 - 27.161304040285994
346 - 58.58771077846225 - 27.39323530592575
347 - 58.58771077846225 - 28.085349815241848
348 - 58.58771077846225 - 29.578162411272025
349 - 58.58771077846225 - 30.344852011740365
350 - 58.58771077846225 - 28.228442838853276
351 - 58.58771077846225 - 25.7908276600838
352 - 58.58771077846225 - 26.654698446492553
353 - 58.58771077846225 - 26.760182537028747
354 - 58.58771077846225 - 27.138244718501262
355 - 58.58771077846225 - 29.014686044094823
356 - 58.58771077846225 - 30.313603369848884
357 - 58.58771077846225 - 28.598898821259144
358 - 58.58771077846225 - 26.631376995430816
359 - 58.58771077846225 - 26.831548454127017
360 - 58.58771077846225 - 27.70110099307675
361 - 58.58771077846225 - 27.894239722611196
362 - 58.58771077846225 - 30.087297126896363
363 - 58.58771077846225 - 30.64353173116904
364 - 58.58771077846225 - 28.903053493701872
365 - 58.58771077846225 - 26.9418491523653
366 - 58.58771077846225 - 27.55404615730969
367 - 58.58771077846225 - 27.578527020203143
368 - 58.58771077846225 - 27.65612976979302
369 - 58.58771077846225 - 30.14481475596857
370 - 58.58771077846225 - 31.17979210152651
371 - 58.58771077846225 - 29.419726216782287
372 - 58.58771077846225 - 29.126489055440782
373 - 58.58771077846225 - 29.230920779726176
374 - 58.58771077846225 - 29.26745290280425
375 - 58.58771077846225 - 29.349253471912693
376 - 58.58771077846225 - 30.743618113575614
377 - 58.58771077846225 - 31.35431419983164
378 - 60.01299600642658 - 30.10844143480265
379 - 60.01299600642658 - 28.555657879287235
380 - 60.01299600642658 - 28.67671759124814
381 - 60.01299600642658 - 28.67995626556717
382 - 60.01299600642658 - 28.801039787242285
383 - 60.01299600642658 - 30.846050890839773
384 - 60.01299600642658 - 31.553817619837087
385 - 60.01299600642658 - 29.98370037769333
386 - 60.01299600642658 - 28.576438863331312
387 - 60.01299600642658 - 28.691396937803365
388 - 60.01299600642658 - 28.981122218943444
389 - 60.01299600642658 - 29.286891070407414
390 - 60.01299600642658 - 31.7215622208197
391 - 60.01299600642658 - 32.655430248939126
392 - 60.01299600642658 - 29.56477639347029
393 - 60.01299600642658 - 28.753155712288923
394 - 60.01299600642658 - 28.88102771852214
395 - 60.01299600642658 - 29.629709770089427
396 - 60.01299600642658 - 29.943416677795017
397 - 60.01299600642658 - 31.822513194515977
398 - 60.01299600642658 - 32.667021398513086
399 - 60.01299600642658 - 29.68879962074262
400 - 60.01299600642658 - 28.602669415487156
401 - 60.01299600642658 - 29.0639783571119
402 - 60.01299600642658 - 29.0639783571119
403 - 60.01299600642658 - 29.41010331349661
404 - 60.01299600642658 - 32.10740762111619
405 - 60.01299600642658 - 33.150183659647396
406 - 60.01299600642658 - 30.610980256478435
407 - 60.01299600642658 - 28.14455583562265
408 - 60.01299600642658 - 28.757899940322453
409 - 60.01299600642658 - 29.2855776528366
410 - 60.01299600642658 - 29.58021404380046
411 - 62.90137664782375 - 32.05981627231933
412 - 64.63305070751593 - 33.38887463858258
413 - 64.63305070751593 - 31.307074315632786
414 - 64.63305070751593 - 28.893814497810418
415 - 64.63305070751593 - 29.1119787547982
416 - 64.63305070751593 - 29.34264781690711
417 - 64.63305070751593 - 29.424042811046398
418 - 64.63305070751593 - 32.37475485397515
419 - 64.63305070751593 - 33.63052070092904
420 - 64.63305070751593 - 31.51244698342247
421 - 64.63305070751593 - 29.531332019442306
422 - 64.63305070751593 - 30.088001334457054
423 - 67.72660819932034 - 30.38507767422211
424 - 67.72660819932034 - 30.718688250484185
425 - 67.72660819932034 - 32.90472684930109
426 - 67.72660819932034 - 33.633809702207785
427 - 67.72660819932034 - 31.247547695725025
428 - 67.72660819932034 - 29.546427286040494
429 - 67.72660819932034 - 29.855309963066723
430 - 67.72660819932034 - 29.91637071165699
431 - 67.72660819932034 - 30.10077508001398
432 - 67.72660819932034 - 32.72315636275178
433 - 67.72660819932034 - 33.65931075380656
434 - 67.72660819932034 - 32.707710199645106
435 - 67.72660819932034 - 29.720465002260777
436 - 67.72660819932034 - 29.779099870949985
437 - 67.72660819932034 - 29.96498985271243
438 - 67.72660819932034 - 30.044165445714743
439 - 67.72660819932034 - 32.882247766079054
440 - 67.72660819932034 - 33.820734977555375
441 - 67.72660819932034 - 32.69620455625034
442 - 67.72660819932034 - 30.793153482209572
443 - 67.72660819932034 - 30.83402838223131
444 - 67.72660819932034 - 30.90301649196403
445 - 67.72660819932034 - 30.96532675637112
446 - 67.72660819932034 - 32.86647390109156
447 - 67.72660819932034 - 33.70873009149041
448 - 67.72660819932034 - 32.20916052109395
449 - 67.72660819932034 - 29.82507790348337
450 - 67.72660819932034 - 29.8568126421088
451 - 67.72660819932034 - 29.856813017461207
452 - 68.80464918914596 - 29.971214358014645
453 - 68.80464918914596 - 33.440171444130854
454 - 68.80464918914596 - 34.18850699563833
455 - 68.80464918914596 - 31.733842868342283
456 - 68.80464918914596 - 30.377436666730937
457 - 68.80464918914596 - 30.443335810248904
458 - 68.80464918914596 - 30.542216968076087
459 - 68.80464918914596 - 30.959995875077844
460 - 68.80464918914596 - 33.55844105917705
461 - 68.80464918914596 - 34.365604650742995
462 - 68.80464918914596 - 32.54898281543885
463 - 68.80464918914596 - 31.216059754182226
464 - 68.80464918914596 - 31.505942724323013
465 - 68.80464918914596 - 31.506697966782163
466 - 68.80464918914596 - 31.72607314843475
467 - 68.80464918914596 - 33.96620550828891
468 - 68.80464918914596 - 34.53567446937562
469 - 68.80464918914596 - 32.420193045343076
470 - 68.80464918914596 - 29.663667835487768
471 - 68.80464918914596 - 29.798408687117025
472 - 68.80464918914596 - 30.236370398618767
473 - 68.80464918914596 - 30.61890320134056
474 - 68.80464918914596 - 33.56553205043271
475 - 68.80464918914596 - 34.941071906043014
476 - 68.80464918914596 - 32.4841263851129
477 - 68.80464918914596 - 30.807012095924193
478 - 68.80464918914596 - 30.97389540863632
479 - 68.80464918914596 - 31.198943505020743
480 - 68.80464918914596 - 31.44861239069772
481 - 68.80464918914596 - 34.25590088415591
482 - 68.80464918914596 - 34.98146096917714
483 - 68.80464918914596 - 33.043034723095964
484 - 68.80464918914596 - 31.13864600042133
485 - 68.80464918914596 - 31.246036691434067
486 - 68.80464918914596 - 31.509583045935994
487 - 68.80464918914596 - 31.7343911558798
488 - 68.80464918914596 - 34.32987971884277
489 - 68.80464918914596 - 35.86136788017818
490 - 68.80464918914596 - 33.663756110611516
491 - 68.80464918914596 - 31.062926106325488
492 - 68.80464918914596 - 31.30790166126992
493 - 68.80464918914596 - 31.331486951564138
494 - 68.80464918914596 - 32.13344524137864
495 - 68.80464918914596 - 34.82672097693718
496 - 68.80464918914596 - 35.59971645716206
497 - 68.80464918914596 - 32.99568831648795
498 - 68.80464918914596 - 31.27163055186215
499 - 68.80464918914596 - 31.293097480530793
500 - 68.80464918914596 - 31.38837834654287
501 - 68.80464918914596 - 32.25320787925454
502 - 68.80464918914596 - 34.93542286626872
503 - 68.80464918914596 - 35.868952443729704
504 - 68.80464918914596 - 33.779288159925386
505 - 68.80464918914596 - 32.64335301301385
506 - 68.80464918914596 - 32.763364005498964
507 - 68.80464918914596 - 33.101128991545
508 - 68.80464918914596 - 33.154836473474944
509 - 68.80464918914596 - 35.042312665471286
510 - 70.60084642907846 - 35.924608983469334
511 - 70.60084642907846 - 33.98515344772054
512 - 70.60084642907846 - 31.88317586577066
513 - 71.17568670699472 - 32.04050435199053
514 - 71.17568670699472 - 32.111724736597246
515 - 71.17568670699472 - 32.31878931909513
516 - 72.36553257490459 - 35.43506233328627
517 - 72.36553257490459 - 36.02630183909697
518 - 72.65650687920422 - 33.518703245967146
519 - 72.65650687920422 - 32.10003536225066
520 - 72.65650687920422 - 32.112827830706
521 - 72.65650687920422 - 32.37447402813151
522 - 72.65650687920422 - 32.688420466546084
523 - 72.65650687920422 - 35.53660151807513
524 - 72.65650687920422 - 36.389911687829226
525 - 72.65650687920422 - 33.93186601364947
526 - 72.65650687920422 - 32.719633876398284
527 - 73.67523491959824 - 32.84755591702964
528 - 73.67523491959824 - 33.44133280913893
529 - 73.67523491959824 - 33.980102109596
530 - 73.67523491959824 - 36.16080586801225
531 - 73.67523491959824 - 36.93505683010111
532 - 73.67523491959824 - 33.89788453426701
533 - 73.67523491959824 - 33.11330240551314
534 - 73.67523491959824 - 33.362042953467935
535 - 73.67523491959824 - 33.59972341856235
536 - 73.67523491959824 - 33.74652721164948
537 - 73.67523491959824 - 36.31455818761229
538 - 73.67523491959824 - 37.09125509745541
539 - 73.67523491959824 - 35.56997160616671
540 - 73.67523491959824 - 34.22423697774283
541 - 73.67523491959824 - 34.340122590202654
542 - 73.67523491959824 - 34.421951387942144
543 - 73.67523491959824 - 34.52150937065386
544 - 73.67523491959824 - 36.57184364341104
545 - 73.67523491959824 - 37.18857914487613
546 - 73.67523491959824 - 35.702856345963355
547 - 73.67523491959824 - 34.478469223609956
548 - 73.67523491959824 - 34.52467276919117
549 - 73.67523491959824 - 34.60131618481037
550 - 73.67523491959824 - 34.65742427480772
551 - 73.67523491959824 - 36.92934468660541
552 - 73.67523491959824 - 37.77355573335461
553 - 73.67523491959824 - 35.94147351195702
554 - 73.67523491959824 - 33.66883193171011
555 - 73.67523491959824 - 33.700527303647625
556 - 73.67523491959824 - 33.96748611110654
557 - 73.67523491959824 - 34.1648708071272
558 - 73.67523491959824 - 36.9602119022317
559 - 73.67523491959824 - 37.93715823420662
560 - 73.67523491959824 - 36.64179811168951
561 - 73.67523491959824 - 34.84210618696382
562 - 73.67523491959824 - 35.00641773280819
563 - 73.67523491959824 - 35.42591798825299
564 - 73.67523491959824 - 35.67633203956926
565 - 73.67523491959824 - 37.92065756213996
566 - 73.67523491959824 - 38.633712290010216
567 - 73.67523491959824 - 35.9621672887545
568 - 73.67523491959824 - 34.952797641977284
569 - 73.67523491959824 - 35.02215596071042
570 - 73.67523491959824 - 35.14827798626566
571 - 73.67523491959824 - 35.28583608495585
572 - 73.67523491959824 - 37.98253406709739
573 - 73.67523491959824 - 39.048442978691796
574 - 73.67523491959824 - 37.09419055224474
575 - 73.67523491959824 - 35.199251026982225
576 - 73.67523491959824 - 35.26984689774644
577 - 73.67523491959824 - 35.409682540770035
578 - 73.67523491959824 - 35.725643069176144
579 - 73.67523491959824 - 37.75807320259126
