0 - 3.25 - 1.6844880527923016
1 - 4.1 - 1.7860571099491749
2 - 4.1 - 1.7860571099491749
3 - 4.1 - 1.7860571099491749
4 - 4.1 - 1.7860571099491749
5 - 4.025 - 1.6953981833185972
6 - 3.875 - 1.8733325919334238
7 - 4.725 - 1.9873034494007202
8 - 5.55 - 2.167371680169324
9 - 5.55 - 2.167371680169324
10 - 5.55 - 2.167371680169324
11 - 5.55 - 2.167371680169324
12 - 5.375 - 1.9708817823502252
13 - 5.225 - 2.1504360023027886
14 - 6.025 - 2.3610114358045795
15 - 6.8 - 2.6095976701399777
16 - 6.8 - 2.6095976701399777
17 - 6.8 - 2.6095976701399777
18 - 6.8 - 2.6095976701399777
19 - 6.625 - 2.5757280524154718
20 - 6.6 - 2.6057628441590768
21 - 7.375 - 2.8869317622694166
22 - 8.15 - 3.1980462785894765
23 - 8.15 - 3.1980462785894765
24 - 8.15 - 3.1980462785894765
25 - 8.15 - 3.1980462785894765
26 - 7.6 - 2.9647934160747194
27 - 7.075 - 3.00322743061527
28 - 7.85 - 3.252306873589883
29 - 8.625 - 3.5333235062756425
30 - 8.625 - 3.5333235062756425
31 - 8.625 - 3.5333235062756425
32 - 8.625 - 3.5333235062756425
33 - 8.025 - 3.4167784534558283
34 - 7.725 - 3.556595984927161
35 - 8.5 - 3.7349698793966195
36 - 9.275 - 3.94960441057076
37 - 9.275 - 3.94960441057076
38 - 9.275 - 3.94960441057076
39 - 9.275 - 3.94960441057076
40 - 8.65 - 3.59548327766936
41 - 8.025 - 3.8241829192652386
42 - 8.85 - 4.034538387473837
43 - 9.625 - 4.270172713134681
44 - 9.625 - 4.270172713134681
45 - 9.625 - 4.270172713134681
46 - 9.625 - 4.270172713134681
47 - 9.0 - 4.0
48 - 8.825 - 4.104189932252161
49 - 9.625 - 4.3857011982122085
50 - 10.375 - 4.6189149158649805
51 - 10.375 - 4.6189149158649805
52 - 10.375 - 4.6189149158649805
53 - 10.375 - 4.6189149158649805
54 - 9.575 - 4.236080145606312
55 - 9.3 - 4.208325082500163
56 - 10.125 - 4.308059307855452
57 - 10.825 - 4.43219753621158
58 - 10.825 - 4.43219753621158
59 - 10.825 - 4.43219753621158
60 - 10.825 - 4.43219753621158
61 - 10.175 - 4.158650622497638
62 - 10.0 - 4.207136793592526
63 - 10.8 - 4.308131845707604
64 - 11.5 - 4.330127018922194
65 - 11.5 - 4.330127018922194
66 - 11.5 - 4.330127018922194
67 - 11.5 - 4.330127018922194
68 - 10.725 - 4.11696186525938
69 - 10.25 - 4.481908075808784
70 - 10.9 - 4.448595283907045
71 - 11.525 - 4.438397796502697
72 - 11.525 - 4.438397796502697
73 - 11.525 - 4.438397796502697
74 - 11.525 - 4.438397796502697
75 - 10.675 - 4.2976010750184805
76 - 10.325 - 4.361120842168903
77 - 11.025 - 4.32138577310566
78 - 11.675 - 4.2742689433399015
79 - 11.675 - 4.2742689433399015
80 - 11.675 - 4.2742689433399015
81 - 11.675 - 4.2742689433399015
82 - 10.925 - 4.191583829532698
83 - 10.65 - 4.132493194186772
84 - 11.375 - 4.078526081809456
85 - 12.05 - 4.0183952020676115
86 - 12.05 - 4.0183952020676115
87 - 12.05 - 4.0183952020676115
88 - 12.05 - 4.0183952020676115
89 - 11.05 - 3.9430318284284747
90 - 10.05 - 4.494162880893394
91 - 10.825 - 4.426553399655312
92 - 11.55 - 4.341370751271999
93 - 11.55 - 4.341370751271999
94 - 11.55 - 4.341370751271999
95 - 11.55 - 4.341370751271999
96 - 10.6 - 4.22965719651132
97 - 9.975 - 4.50825631480731
98 - 10.7 - 4.371498598878879
99 - 11.425 - 4.27719242026823
100 - 11.425 - 4.27719242026823
101 - 11.425 - 4.27719242026823
102 - 11.425 - 4.27719242026823
103 - 10.475 - 4.21893055169198
104 - 10.0 - 4.483302354291979
105 - 10.725 - 4.3473411414334615
106 - 11.425 - 4.3063180328443
107 - 11.425 - 4.3063180328443
108 - 11.425 - 4.3063180328443
109 - 11.425 - 4.3063180328443
110 - 10.6 - 4.2
111 - 10.4 - 4.097560249709575
112 - 11.15 - 3.9720901298938327
113 - 11.85 - 3.9214155607382386
114 - 11.85 - 3.9214155607382386
115 - 11.85 - 3.9214155607382386
116 - 11.85 - 3.9214155607382386
117 - 11.025 - 4.015516778697357
118 - 10.525 - 4.30108997813345
119 - 11.275 - 4.147212919540061
120 - 12.0 - 4.006245124802026
121 - 12.0 - 4.006245124802026
122 - 12.0 - 4.006245124802026
123 - 12.0 - 4.006245124802026
124 - 11.25 - 3.992179855667828
125 - 10.675 - 4.378284481392228
126 - 11.4 - 4.282522621072771
127 - 12.075 - 4.113316788189307
128 - 12.075 - 4.113316788189307
129 - 12.075 - 4.113316788189307
130 - 12.075 - 4.113316788189307
131 - 11.025 - 4.058863757260152
132 - 10.2 - 4.220189569201838
133 - 11.0 - 4.104875150354759
134 - 11.725 - 3.936924561126362
135 - 11.725 - 3.936924561126362
136 - 11.725 - 3.936924561126362
137 - 11.725 - 3.936924561126362
138 - 10.95 - 3.741323295306088
139 - 10.65 - 3.811495769379784
140 - 11.45 - 3.7279350852717372
141 - 12.15 - 3.5675621928706445
142 - 12.15 - 3.5675621928706445
143 - 12.15 - 3.5675621928706445
144 - 12.15 - 3.5675621928706445
145 - 10.875 - 3.295356581616017
146 - 9.575 - 3.687055057901903
147 - 10.5 - 3.63318042491699
148 - 11.35 - 3.489627487282848
149 - 11.35 - 3.489627487282848
150 - 11.35 - 3.489627487282848
151 - 11.35 - 3.489627487282848
152 - 10.35 - 3.282910294235894
153 - 9.7 - 3.722902093797257
154 - 10.625 - 3.6721077053920954
155 - 11.475 - 3.721474842048513
156 - 11.475 - 3.721474842048513
157 - 11.475 - 3.721474842048513
158 - 11.475 - 3.721474842048513
159 - 10.1 - 3.4698703145794947
160 - 9.75 - 3.554926159570688
161 - 10.65 - 3.4967842369811724
162 - 11.5 - 3.391164991562634
163 - 11.5 - 3.391164991562634
164 - 11.5 - 3.391164991562634
165 - 11.5 - 3.391164991562634
166 - 10.55 - 3.3162478797580857
167 - 9.825 - 3.727515928872739
168 - 10.7 - 3.695943722515266
169 - 11.55 - 3.6602595536382387
170 - 11.55 - 3.6602595536382387
171 - 11.55 - 3.6602595536382387
172 - 11.55 - 3.6602595536382387
173 - 10.0 - 3.6674241641784495
174 - 9.675 - 3.531200220888076
175 - 10.5 - 3.4351128074635335
176 - 11.325 - 3.37925657504724
177 - 11.325 - 3.37925657504724
178 - 11.325 - 3.37925657504724
179 - 11.325 - 3.37925657504724
180 - 10.125 - 3.2340957005011464
181 - 9.475 - 3.708014967607331
182 - 10.35 - 3.6162826216986974
183 - 11.2 - 3.515679166249389
184 - 11.2 - 3.515679166249389
185 - 11.2 - 3.515679166249389
186 - 11.2 - 3.515679166249389
187 - 10.15 - 3.4824560298731706
188 - 9.475 - 3.7415738667036895
189 - 10.35 - 3.636963018783667
190 - 11.175 - 3.5839049931603935
191 - 11.175 - 3.5839049931603935
192 - 11.175 - 3.5839049931603935
193 - 11.175 - 3.5839049931603935
194 - 10.05 - 3.591308953571107
195 - 9.55 - 3.6190468358395136
196 - 10.375 - 3.4473721876234946
197 - 11.2 - 3.3105890714493698
198 - 11.2 - 3.3105890714493698
199 - 11.2 - 3.3105890714493698
200 - 11.2 - 3.3105890714493698
201 - 10.25 - 3.2920358442763042
202 - 9.35 - 3.66435533211505
203 - 10.175 - 3.5769225599668775
204 - 11.025 - 3.5106089215405354
205 - 11.025 - 3.5106089215405354
206 - 11.025 - 3.5106089215405354
207 - 11.025 - 3.5106089215405354
208 - 10.1 - 3.5341194094144583
209 - 8.95 - 3.8661996844446613
210 - 9.8 - 3.75632799419859
211 - 10.65 - 3.6779749863205975
212 - 10.65 - 3.6779749863205975
213 - 10.65 - 3.6779749863205975
214 - 10.65 - 3.6779749863205975
215 - 9.7 - 3.6687872655688283
216 - 9.2 - 3.7894590642992836
217 - 10.075 - 3.6358458438168144
218 - 10.9 - 3.426368339802363
219 - 10.9 - 3.426368339802363
220 - 10.9 - 3.426368339802363
221 - 10.9 - 3.426368339802363
222 - 10.025 - 3.496337369305199
223 - 9.375 - 3.9477050295076506
224 - 10.225 - 3.758240944910264
225 - 10.975 - 3.6365333767201973
226 - 10.975 - 3.6365333767201973
227 - 10.975 - 3.6365333767201973
228 - 10.975 - 3.6365333767201973
229 - 10.1 - 3.6110940170535573
230 - 9.65 - 3.9468341743731767
231 - 10.475 - 3.72818655649097
232 - 11.25 - 3.462296925452813
233 - 11.25 - 3.462296925452813
234 - 11.25 - 3.462296925452813
235 - 11.25 - 3.462296925452813
236 - 10.25 - 3.526683994916471
237 - 9.375 - 3.941367148591971
238 - 10.15 - 3.8571362433805727
239 - 10.875 - 3.7429099641856203
240 - 10.875 - 3.7429099641856203
241 - 10.875 - 3.7429099641856203
242 - 10.875 - 3.7429099641856203
243 - 9.925 - 3.8300620099418756
244 - 9.2 - 3.8678159211627436
245 - 10.025 - 3.6707458370200463
246 - 10.825 - 3.4632896211550084
247 - 10.825 - 3.4632896211550084
248 - 10.825 - 3.4632896211550084
249 - 10.825 - 3.4632896211550084
250 - 9.75 - 3.483891502328969
251 - 8.825 - 3.5488554492962945
252 - 9.675 - 3.3718503822085584
253 - 10.525 - 3.2248061957271172
254 - 10.525 - 3.2248061957271172
255 - 10.525 - 3.2248061957271172
256 - 10.525 - 3.2248061957271172
257 - 9.45 - 3.1933524703671536
258 - 8.375 - 3.314268395890713
259 - 9.3 - 3.2186953878862163
260 - 10.2 - 3.203123475609394
261 - 10.2 - 3.203123475609394
262 - 10.2 - 3.203123475609394
263 - 10.2 - 3.203123475609394
264 - 9.05 - 3.130095845177908
265 - 8.25 - 3.533765696816924
266 - 9.15 - 3.4896274872828474
267 - 10.05 - 3.470950878361721
268 - 10.05 - 3.470950878361721
269 - 10.05 - 3.470950878361721
270 - 10.05 - 3.470950878361721
271 - 9.05 - 3.2783379935571015
272 - 8.175 - 3.484878046646683
273 - 9.1 - 3.3896902513356584
274 - 10.025 - 3.3127594238036666
275 - 10.025 - 3.3127594238036666
276 - 10.025 - 3.3127594238036666
277 - 10.025 - 3.3127594238036666
278 - 9.15 - 3.2446109165815242
279 - 8.425 - 3.3607104903576563
280 - 9.35 - 3.2676444114989014
281 - 10.25 - 3.1444395367060247
282 - 10.25 - 3.1444395367060247
283 - 10.25 - 3.1444395367060247
284 - 10.25 - 3.1444395367060247
285 - 9.1 - 2.99833287011299
286 - 8.2 - 3.407345007480165
287 - 9.15 - 3.365635155509284
288 - 9.975 - 3.5106089215405354
289 - 9.975 - 3.5106089215405354
290 - 9.975 - 3.5106089215405354
291 - 9.975 - 3.5106089215405354
292 - 8.875 - 3.4072532926097527
293 - 8.5 - 3.122498999199199
294 - 9.4 - 3.014962686336267
295 - 10.3 - 2.9342801502242417
296 - 10.3 - 2.9342801502242417
297 - 10.3 - 2.9342801502242417
298 - 10.3 - 2.9342801502242417
299 - 9.375 - 2.9299104081865712
300 - 8.25 - 3.2996211903792836
301 - 9.2 - 3.2572994949804666
302 - 10.15 - 3.2291639784935047
