0 - 1.011520287159241 - 0.040904437602594546
1 - 1.0779375309529509 - 0.06968936131587909
2 - 1.1453807265862181 - 0.10383791110742498
3 - 1.1453807265862181 - 0.12017093434797625
4 - 1.9971661583237021 - 0.1528299393266917
5 - 2.2010929208734753 - 0.15792841592653392
6 - 2.2010929208734753 - 0.15792841592653392
7 - 2.5305107122973385 - 0.22170330608239897
8 - 2.6185203920239988 - 0.2354100950806674
9 - 2.6185203920239988 - 0.24529028388993196
10 - 2.6185203920239988 - 0.2648093402572251
11 - 2.9271388219750443 - 0.2903827781288213
12 - 2.9271388219750443 - 0.29096532472058
13 - 2.9271388219750443 - 0.29096533348753834
14 - 2.9271388219750443 - 0.326886183923556
15 - 2.9271388219750443 - 0.33611658848690285
16 - 2.9271388219750443 - 0.42096423257129895
17 - 2.9271388219750443 - 0.4363407514814349
18 - 2.9271388219750443 - 0.46431987162084
19 - 2.9271388219750443 - 0.4758505718439895
20 - 2.9271388219750443 - 0.48371828165996905
21 - 2.9271388219750443 - 0.4998039672133192
22 - 2.9779924561909548 - 0.5393786910589332
23 - 2.9779924561909548 - 0.5776742271197527
24 - 5.436863797021948 - 0.7150058394257519
25 - 9.0 - 0.8483287796372979
26 - 9.0 - 0.8834732731184785
27 - 9.0 - 0.8834732741745173
28 - 9.0 - 0.924427768210942
29 - 9.0 - 0.904251911629045
30 - 9.0 - 0.9464288411013057
31 - 26.533388064624496 - 1.4326083271050964
32 - 26.533388064624496 - 1.4838983124122818
33 - 33.45196400546312 - 1.687496343265277
34 - 35.32296034647071 - 1.7442145588565943
35 - 35.32296034647071 - 1.7365161449541617
36 - 35.32296034647071 - 1.6684112326724279
37 - 35.32296034647071 - 1.7216791801894769
38 - 35.32296034647071 - 1.7515392855915848
39 - 35.32296034647071 - 1.8033927462471158
40 - 35.32296034647071 - 1.8689987513068522
41 - 35.32296034647071 - 1.8700330398745926
42 - 35.32296034647071 - 1.8651206521059074
43 - 38.17912977353386 - 2.048879262890967
44 - 38.17912977353386 - 2.0892247515309115
45 - 38.17912977353386 - 2.184127426940229
46 - 38.17912977353386 - 2.203283824227391
47 - 38.17912977353386 - 2.3287997142901977
48 - 38.17912977353386 - 2.348371088148787
49 - 38.17912977353386 - 2.266683736315268
50 - 38.17912977353386 - 2.2538129411736327
51 - 38.17912977353386 - 2.3465752206347306
52 - 38.17912977353386 - 2.411655871442695
53 - 39.125 - 2.4668571263545482
54 - 39.125 - 2.6643508487647076
55 - 39.125 - 2.7192800214944164
56 - 39.125 - 2.681728570671063
57 - 39.125 - 2.751431485539523
58 - 39.125 - 2.7842236053211917
59 - 39.125 - 2.79396737734565
60 - 39.125 - 3.234951368004282
61 - 39.125 - 3.333085938280979
62 - 39.125 - 3.380436841667759
63 - 39.125 - 3.2793465658065464
64 - 39.125 - 2.8347866527443353
65 - 39.125 - 2.929250906406535
66 - 39.125 - 2.9800407790213637
67 - 39.125 - 3.370210975858363
68 - 39.125 - 3.986157282729949
69 - 39.125 - 4.022229033715375
70 - 39.125 - 3.9602716398509097
71 - 39.125 - 3.8364059295756396
72 - 39.125 - 3.9495795099148667
73 - 39.125 - 3.983518050339285
74 - 39.125 - 4.048653414771222
75 - 39.125 - 4.295309121168294
76 - 39.125 - 4.387578101385669
77 - 39.125 - 4.613219806536044
78 - 39.125 - 4.44583081471654
79 - 39.125 - 4.541462496804242
80 - 39.125 - 4.590395593901734
81 - 41.74322000202382 - 4.768906651521089
82 - 41.74322000202382 - 4.984442093378644
83 - 41.74322000202382 - 5.0098144853390805
84 - 41.74322000202382 - 4.929995917949251
85 - 41.74322000202382 - 4.25985178162737
86 - 42.55022479157702 - 4.378217799320944
87 - 42.55022479157702 - 4.4197539168579265
88 - 44.77639179606189 - 4.863905908909404
89 - 45.38859504850288 - 5.227574942763946
90 - 45.38859504850288 - 5.352927574628083
91 - 46.740154806187306 - 5.30994737538552
92 - 46.740154806187306 - 5.138782794206484
93 - 46.740154806187306 - 5.180674280515015
94 - 46.740154806187306 - 5.302982189595034
95 - 64.17235339490992 - 5.901750767594397
96 - 64.17235339490992 - 6.275055817213035
97 - 64.17235339490992 - 6.408918351422882
98 - 64.17235339490992 - 6.228548793492747
99 - 64.17235339490992 - 6.003190093051051
100 - 64.17235339490992 - 6.044165739259266
101 - 64.17235339490992 - 6.079705548303474
102 - 65.7906293106079 - 6.409920545714044
103 - 65.7906293106079 - 6.803251620687687
104 - 65.7906293106079 - 6.929083392810152
105 - 65.7906293106079 - 6.658954868401243
106 - 65.7906293106079 - 6.169670877156885
107 - 65.7906293106079 - 6.2012812814891145
108 - 65.7906293106079 - 6.254611571115961
109 - 65.7906293106079 - 6.515934582239024
110 - 65.7906293106079 - 6.859716662476306
111 - 65.7906293106079 - 7.084943301404238
112 - 65.7906293106079 - 6.517276038683832
113 - 65.7906293106079 - 6.0619029545733865
114 - 65.7906293106079 - 6.172160120329432
115 - 65.7906293106079 - 6.229471942401313
116 - 65.7906293106079 - 6.539591289102622
117 - 65.7906293106079 - 7.483044059949103
118 - 65.7906293106079 - 7.714055809329262
119 - 68.01482076997343 - 7.495410550753147
120 - 68.01482076997343 - 7.040940410782551
121 - 68.01482076997343 - 7.043907310243659
122 - 68.01482076997343 - 7.0948082557824295
123 - 68.01482076997343 - 7.174853579368078
124 - 68.01482076997343 - 7.830599006560061
125 - 68.01482076997343 - 7.936815666737179
126 - 68.01482076997343 - 7.651814133557181
127 - 68.01482076997343 - 7.573967654758536
128 - 68.01482076997343 - 7.6364482358030985
129 - 68.01482076997343 - 7.730491987213941
130 - 68.01482076997343 - 7.753549646267752
131 - 68.01482076997343 - 7.992859012333641
132 - 68.01482076997343 - 8.223429490487524
133 - 68.01482076997343 - 7.5878593651660085
134 - 68.01482076997343 - 7.832653126190026
135 - 68.01482076997343 - 7.909444335057556
136 - 68.01482076997343 - 7.9448388061790824
137 - 68.01482076997343 - 8.071035628698503
138 - 68.01482076997343 - 8.656577526707773
139 - 68.01482076997343 - 9.020115104184985
140 - 68.01482076997343 - 8.487044196152619
141 - 68.01482076997343 - 8.375515343555197
142 - 68.01482076997343 - 8.507318897550672
143 - 68.01482076997343 - 8.77243468257839
144 - 68.01482076997343 - 8.791290133295405
145 - 68.01482076997343 - 9.204702248634812
146 - 68.01482076997343 - 9.38152124067559
147 - 68.01482076997343 - 8.898707667691752
148 - 68.01482076997343 - 8.888166535636884
149 - 68.01482076997343 - 8.946681116382107
150 - 68.01482076997343 - 8.986581851271897
151 - 68.01482076997343 - 9.151838600806583
152 - 68.01482076997343 - 9.773677438236788
153 - 68.01482076997343 - 9.973183063767893
154 - 68.01482076997343 - 9.543973775420799
155 - 68.01482076997343 - 9.165446401303528
156 - 68.01482076997343 - 9.243732574060017
157 - 68.01482076997343 - 9.416450417346432
158 - 68.01482076997343 - 9.504472629346152
159 - 68.01482076997343 - 10.579127301794255
160 - 68.01482076997343 - 10.856234506856275
161 - 68.01482076997343 - 9.88150704018035
162 - 68.01482076997343 - 9.618425817009332
163 - 68.01482076997343 - 9.771908005589074
164 - 68.01482076997343 - 9.916859936512592
165 - 68.01482076997343 - 10.394570651241384
166 - 68.01482076997343 - 11.338735096907177
167 - 68.01482076997343 - 11.628525937960816
168 - 68.01482076997343 - 11.220303059560003
169 - 68.01482076997343 - 10.528509831371608
170 - 68.01482076997343 - 10.680078631254208
171 - 68.01482076997343 - 10.732342982534046
172 - 68.01482076997343 - 10.842544615413505
173 - 68.01482076997343 - 11.403823194529876
174 - 68.01482076997343 - 11.662007775288176
175 - 68.01482076997343 - 10.596226073945864
176 - 68.01482076997343 - 9.991879046751091
177 - 68.01482076997343 - 10.105821960424652
178 - 68.01482076997343 - 10.769735479255788
179 - 68.01482076997343 - 10.841573556805425
180 - 68.01482076997343 - 11.621094139150129
181 - 68.01482076997343 - 11.943729022900843
182 - 68.01482076997343 - 11.650679045463182
183 - 68.01482076997343 - 11.126749826206643
184 - 68.01482076997343 - 11.193062111096738
185 - 68.01482076997343 - 11.25646609321313
186 - 68.01482076997343 - 11.320357330453183
187 - 68.01482076997343 - 12.081464736828
188 - 68.01482076997343 - 12.475714299884565
189 - 68.01482076997343 - 12.101743522203966
190 - 68.01482076997343 - 11.406967178455144
191 - 68.01482076997343 - 11.512500064024213
192 - 68.01482076997343 - 11.60738471574214
193 - 68.01482076997343 - 11.784087330121789
194 - 68.01482076997343 - 12.569937962581298
195 - 68.01482076997343 - 12.815444294031028
196 - 68.01482076997343 - 12.27549754652878
197 - 68.01482076997343 - 11.710399158349826
198 - 68.01482076997343 - 11.764371832735558
199 - 68.01482076997343 - 11.975874066302794
200 - 68.01482076997343 - 12.011421900540281
201 - 68.01482076997343 - 12.947155294520115
202 - 68.01482076997343 - 13.268621116687864
203 - 68.01482076997343 - 12.849054806922265
204 - 68.01482076997343 - 12.413771744904599
205 - 68.01482076997343 - 12.43438848413123
206 - 68.01482076997343 - 12.440288188542615
207 - 68.01482076997343 - 12.577063185969662
208 - 68.01482076997343 - 13.253672260550564
209 - 68.01482076997343 - 13.503700200271624
210 - 68.01482076997343 - 12.856908366468243
211 - 68.01482076997343 - 11.86683534806768
212 - 68.01482076997343 - 12.275921445173642
213 - 68.01482076997343 - 12.28620327740963
214 - 68.01482076997343 - 12.45032361895092
215 - 68.01482076997343 - 13.310539955465472
216 - 68.01482076997343 - 13.557886490697916
217 - 68.01482076997343 - 12.552188336566068
218 - 68.01482076997343 - 11.710218840767407
219 - 68.01482076997343 - 11.72540087637038
220 - 68.01482076997343 - 11.749421540294744
221 - 68.01482076997343 - 11.862339033662725
222 - 68.01482076997343 - 13.405297738325132
223 - 68.01482076997343 - 13.700921160698831
224 - 68.01482076997343 - 13.002625588946856
225 - 68.01482076997343 - 11.731099399983554
226 - 68.01482076997343 - 11.796071424822166
227 - 68.01482076997343 - 12.028425746735957
228 - 68.01482076997343 - 12.136085257841419
229 - 68.01482076997343 - 13.747844028619255
230 - 68.01482076997343 - 14.333044596130524
231 - 68.01482076997343 - 13.19742326555171
232 - 68.01482076997343 - 12.827657385791113
233 - 68.01482076997343 - 12.835272946671509
234 - 68.01482076997343 - 12.876649345501042
235 - 68.01482076997343 - 12.93313229517319
236 - 68.01482076997343 - 14.081402461570082
237 - 68.01482076997343 - 14.563321445118756
238 - 68.01482076997343 - 13.904321546957297
239 - 68.01482076997343 - 13.00251564840436
240 - 68.01482076997343 - 13.003239893137579
241 - 68.01482076997343 - 13.024286240594709
242 - 68.01482076997343 - 13.101863767737138
243 - 68.01482076997343 - 14.066588608750886
244 - 68.01482076997343 - 14.486202661591701
245 - 68.36969223001728 - 13.786111832251303
246 - 68.36969223001728 - 13.327743500641812
247 - 70.76649891106979 - 13.41235786817425
248 - 70.76649891106979 - 13.458923827472773
249 - 70.76649891106979 - 13.713267475373211
250 - 71.81591416358948 - 14.822740331975819
251 - 71.81591416358948 - 15.20732790818144
252 - 71.81591416358948 - 14.67341613278038
253 - 71.81591416358948 - 14.116974799730306
254 - 71.81591416358948 - 14.139472352830998
255 - 71.81591416358948 - 14.277776963203305
256 - 71.81591416358948 - 14.468391149404246
257 - 71.81591416358948 - 15.468544192509516
258 - 71.81591416358948 - 15.95544291077733
259 - 71.81591416358948 - 15.301630561359454
260 - 72.100181350708 - 13.745224069731872
261 - 72.100181350708 - 13.880202257869826
262 - 72.100181350708 - 13.889529283250194
263 - 72.100181350708 - 14.51653593509693
264 - 72.100181350708 - 15.395357139280899
265 - 72.100181350708 - 15.771495382815246
266 - 72.100181350708 - 14.91653128556043
267 - 72.100181350708 - 14.329042674631074
268 - 72.100181350708 - 14.377270571667747
269 - 72.100181350708 - 14.40594877987975
270 - 72.100181350708 - 14.429170209581248
271 - 72.100181350708 - 15.301659726973673
272 - 72.100181350708 - 15.818594099119707
273 - 72.100181350708 - 15.22541121156263
274 - 72.100181350708 - 14.192725131992082
275 - 72.100181350708 - 14.238063414831348
276 - 72.100181350708 - 14.252024411507605
277 - 72.100181350708 - 14.265137335077208
278 - 72.100181350708 - 15.272600372230738
279 - 72.100181350708 - 15.690775836907003
280 - 72.100181350708 - 15.17578241573851
281 - 72.100181350708 - 14.466108004245445
282 - 72.100181350708 - 14.48889430781801
283 - 72.100181350708 - 14.489371239745276
284 - 72.100181350708 - 14.501550849277407
285 - 72.100181350708 - 15.590388060865507
286 - 72.100181350708 - 15.939889269770779
287 - 72.100181350708 - 15.3661700994542
288 - 72.100181350708 - 14.188478674455178
289 - 72.100181350708 - 14.21328984235907
290 - 72.100181350708 - 14.26600894562543
291 - 72.100181350708 - 14.361394551788402
292 - 72.100181350708 - 15.520495009810798
293 - 72.100181350708 - 15.83926892906353
294 - 72.100181350708 - 15.208212014278306
