0 - 2.0 - 0.0
1 - 2.9875 - 0.11110243021644485
2 - 2.9875 - 0.11110243021644485
3 - 2.9875 - 0.11110243021644485
4 - 2.9875 - 0.11110243021644485
5 - 2.65 - 0.5937171043518954
6 - 3.0125 - 0.7825239612944779
7 - 3.95 - 0.687386354243376
8 - 4.875 - 0.6199798383818622
9 - 4.875 - 0.6199798383818622
10 - 4.875 - 0.6199798383818622
11 - 4.875 - 0.6199798383818622
12 - 4.3625 - 1.1095466416514452
13 - 4.65 - 0.9500000000000002
14 - 5.575 - 0.984568433375761
15 - 6.475 - 1.0243900624273938
16 - 6.475 - 1.0243900624273938
17 - 6.475 - 1.0243900624273938
18 - 6.475 - 1.0243900624273938
19 - 5.75 - 1.6085707942145413
20 - 6.075 - 1.7304262480672208
21 - 7.025 - 1.7462459735100326
22 - 7.9375 - 1.734529835430916
23 - 7.9375 - 1.734529835430916
24 - 7.9375 - 1.734529835430916
25 - 7.9375 - 1.734529835430916
26 - 7.0625 - 1.8731240615613265
27 - 7.2125 - 1.9345138278130765
28 - 8.15 - 1.9241881404893852
29 - 9.05 - 1.909842925478428
30 - 9.05 - 1.909842925478428
31 - 9.05 - 1.909842925478428
32 - 9.05 - 1.909842925478428
33 - 8.1875 - 1.962738838969668
34 - 8.175 - 2.0296243494794797
35 - 9.125 - 2.057759704144291
36 - 10.0375 - 2.09430030081648
37 - 10.0375 - 2.09430030081648
38 - 10.0375 - 2.09430030081648
39 - 10.0375 - 2.09430030081648
40 - 9.2125 - 2.0657550072552167
41 - 9.025 - 2.504870256121063
42 - 9.9625 - 2.4771139961656994
43 - 10.85 - 2.45
44 - 10.85 - 2.45
45 - 10.85 - 2.45
46 - 10.85 - 2.45
47 - 9.6125 - 2.9601256307798827
48 - 9.1875 - 2.766286997041341
49 - 10.1 - 2.7955321496988725
50 - 11.0125 - 2.799525629459391
51 - 11.0125 - 2.799525629459391
52 - 11.0125 - 2.799525629459391
53 - 11.0125 - 2.799525629459391
54 - 9.825 - 3.105539405642762
55 - 9.2 - 3.2611347718240666
56 - 10.0875 - 3.1827415462145208
57 - 10.9375 - 3.063265210522915
58 - 10.9375 - 3.063265210522915
59 - 10.9375 - 3.063265210522915
60 - 10.9375 - 3.063265210522915
61 - 9.8625 - 3.34194460606396
62 - 9.2125 - 3.5379858323628146
63 - 10.0875 - 3.4575777286996745
64 - 10.925 - 3.3457996054754977
65 - 10.925 - 3.3457996054754977
66 - 10.925 - 3.3457996054754977
67 - 10.925 - 3.3457996054754977
68 - 9.725 - 3.6945060562949408
69 - 8.9875 - 3.6451808940023813
70 - 9.8375 - 3.540634653561419
71 - 10.65 - 3.4099120223255026
72 - 10.65 - 3.4099120223255026
73 - 10.65 - 3.4099120223255026
74 - 10.65 - 3.4099120223255026
75 - 9.475 - 3.7482495914759992
76 - 9.275 - 3.9653972058294484
77 - 10.1125 - 3.781513420576476
78 - 10.9 - 3.5798044639337485
79 - 10.9 - 3.5798044639337485
80 - 10.9 - 3.5798044639337485
81 - 10.9 - 3.5798044639337485
