0 - -6.447274548312028E-5 - -0.004959245700198759
1 - 0.04648537809650103 - -0.010777831593926143
2 - 0.04648537809650103 - -0.004516197227591572
3 - 0.0653223463644584 - -0.002280742117545742
4 - 0.0653223463644584 - 4.245597756986776E-4
5 - 0.0653223463644584 - 6.631440860777125E-4
6 - 0.0653223463644584 - -0.02099726919649887
7 - 0.07769674497346084 - -0.020354286464610898
8 - 0.07769674497346084 - -0.024255534363904492
9 - 0.08720320090651512 - -0.0021707452522089915
10 - 0.08720320090651512 - -3.723358819206615E-4
11 - 0.11964236882825692 - 0.004878833916009172
12 - 0.1994707890068336 - 0.011217737289795573
13 - 0.1994707890068336 - 0.004897188360955625
14 - 0.1994707890068336 - -0.001974562147697725
15 - 0.1994707890068336 - -0.008458117077567143
16 - 0.1994707890068336 - 0.0026835699858118777
17 - 0.1994707890068336 - 0.011357912085481228
18 - 0.1994707890068336 - 0.01981615658324775
19 - 0.7564576089382171 - 0.03405354830499467
20 - 0.7564576089382171 - 0.02056734457718751
21 - 0.7564576089382171 - 0.004791983021068516
22 - 0.7564576089382171 - 0.011192116767730721
23 - 0.7564576089382171 - 0.025177920075996858
24 - 0.7564576089382171 - 0.028689978946058542
25 - 0.7564576089382171 - 0.043742864740476464
26 - 0.7677793777237336 - 0.052597363639094216
27 - 0.7677793777237336 - 0.05080433708162067
28 - 0.7677793777237336 - 0.014957794647022344
29 - 0.7677793777237336 - 0.012808639892706803
30 - 0.7677793777237336 - 0.019290674740623216
31 - 0.7677793777237336 - 0.030126398491071692
32 - 0.8087798336520791 - 0.04090016276915169
33 - 0.8087798336520791 - 0.06310563285922398
34 - 0.8087798336520791 - 0.07064693262208799
35 - 0.8087798336520791 - 0.04680206672586792
36 - 0.8087798336520791 - 0.027597506993358063
37 - 0.8087798336520791 - 0.03914476239736057
38 - 0.8087798336520791 - 0.04574861758049034
39 - 0.8087798336520791 - 0.05554030466012287
40 - 0.8690450678269068 - 0.07678660408491854
41 - 0.9240804508328437 - 0.08135334586237153
42 - 0.9240804508328437 - 0.0664042262474565
43 - 0.9605885218828917 - 0.05575165363188718
44 - 0.9605885218828917 - 0.06998546769165842
45 - 0.9605885218828917 - 0.09023246947996089
46 - 0.9605885218828917 - 0.11836731784739338
47 - 0.9963667273521424 - 0.14752941502238778
48 - 0.9963667273521424 - 0.14515272704530313
49 - 0.9963667273521424 - 0.08432577933495243
50 - 0.9963667273521424 - 0.06224785442711435
51 - 0.9963667273521424 - 0.07401467591257335
52 - 1.5561258867693444 - 0.09511254689988466
53 - 1.5561258867693444 - 0.11220577428267768
54 - 1.597084009111859 - 0.19521194849599846
55 - 1.597084009111859 - 0.19554341037912915
56 - 1.597084009111859 - 0.14991568546667014
57 - 1.597084009111859 - 0.11492494217946844
58 - 1.597084009111859 - 0.13109559208809515
59 - 1.6150699361111038 - 0.1503144076563573
60 - 1.6150699361111038 - 0.15581863071507537
61 - 1.6150699361111038 - 0.19830983624022333
62 - 1.6150699361111038 - 0.21838623569807775
63 - 1.6150699361111038 - 0.11564995642749332
64 - 1.6150699361111038 - 0.0873518058802559
65 - 1.6150699361111038 - 0.11580708445266283
66 - 1.6150699361111038 - 0.12639560558904123
67 - 1.6150699361111038 - 0.14278407675350532
68 - 1.6150699361111038 - 0.19040549833514284
69 - 1.6150699361111038 - 0.20000709223662855
70 - 1.6150699361111038 - 0.15495281143642692
71 - 1.6150699361111038 - 0.12838885262556377
72 - 1.6150699361111038 - 0.14569945497295217
73 - 1.6150699361111038 - 0.1515631084665559
74 - 1.6150699361111038 - 0.15820367660155168
75 - 1.6150699361111038 - 0.21072425577406345
76 - 1.6150699361111038 - 0.22592649592209152
77 - 1.6150699361111038 - 0.15691224402050466
78 - 1.6150699361111038 - 0.11964624427747059
79 - 1.6150699361111038 - 0.14508889431769303
