0 - 0.3052609578167136 - 0.012202774122951482
1 - 1.352891065258729 - 0.09131408466600531
2 - 1.352891065258729 - 0.11111894557623347
3 - 1.352891065258729 - 0.1460053839193751
4 - 1.8078581286104096 - 0.17399251533075327
5 - 1.8078581286104096 - 0.17399265762311794
6 - 1.8078581286104096 - 0.17399265762311794
7 - 3.7639463989358197 - 0.27020902936025654
8 - 6.65886735997702 - 0.4246729858296249
9 - 7.312335240589945 - 0.4596358683979215
10 - 7.312335240589945 - 0.5113549351764177
11 - 7.996515102511959 - 0.5568889510327932
12 - 7.996515102511959 - 0.5568889510327932
13 - 7.996515102511959 - 0.5568889510327932
14 - 7.996515102511959 - 0.554317315567938
15 - 8.605274998514275 - 0.7367427624984475
16 - 8.629194883296364 - 0.9240256634473962
17 - 44.13378591913926 - 1.9721194207745978
18 - 45.85974367882076 - 2.0250220086153776
19 - 51.804276335113926 - 2.179541441778931
20 - 55.51494304807562 - 2.2751089847946484
21 - 55.51494304807562 - 2.2554528163504166
22 - 55.51494304807562 - 2.453762967378015
23 - 55.51494304807562 - 2.463667569858577
24 - 56.51498071821112 - 2.605811921119735
25 - 56.840031986989466 - 3.3690330324052966
26 - 56.840031986989466 - 3.3731654804102837
27 - 56.840031986989466 - 3.3953580696820693
28 - 56.840031986989466 - 3.2919283753182436
29 - 56.840031986989466 - 3.233303084987979
30 - 56.840031986989466 - 3.2562268189859105
31 - 56.840031986989466 - 3.3232270504941033
32 - 63.00778327239186 - 3.5134508253947816
33 - 63.00778327239186 - 3.572446106626301
34 - 63.00778327239186 - 3.813125735223668
35 - 63.00778327239186 - 3.8737647250300213
36 - 63.00778327239186 - 3.898893326225952
37 - 63.00778327239186 - 3.9253894945669883
38 - 63.00778327239186 - 4.166428328921482
39 - 68.0 - 4.92069842753423
40 - 68.0 - 5.313601619899144
41 - 68.0 - 5.480783932720622
42 - 68.0 - 4.469175383658811
43 - 68.0 - 4.548943278438912
44 - 68.0 - 4.56628860156861
45 - 68.0 - 4.680187373435482
46 - 68.0 - 5.986840361911087
47 - 68.0 - 7.405734878419045
48 - 68.0 - 7.713978165770686
49 - 68.0 - 6.956239234231845
50 - 68.0 - 7.1783654954610725
51 - 68.0 - 7.401352812041786
52 - 68.0 - 7.566915160058
53 - 68.0 - 7.8041451178400205
54 - 68.0 - 8.945799882360692
55 - 69.16668661535178 - 9.399827587117645
56 - 69.16668661535178 - 7.75103014929409
57 - 69.16668661535178 - 8.380332475078031
58 - 69.16668661535178 - 9.374279217754784
59 - 69.16668661535178 - 9.801270763592274
60 - 69.16668661535178 - 10.209926152208336
61 - 69.16668661535178 - 13.701773306431628
62 - 73.75159095432022 - 16.126372812096303
63 - 73.75159095432022 - 15.571090350363539
64 - 73.75159095432022 - 13.58314112586763
65 - 73.75159095432022 - 14.484859615754539
66 - 73.75159095432022 - 15.200872719985664
67 - 73.75159095432022 - 17.215890682402463
68 - 84.40815153182902 - 20.672900243170385
69 - 84.40815153182902 - 21.427830706710708
70 - 84.40815153182902 - 15.603303560878729
71 - 84.40815153182902 - 15.279659922573282
72 - 86.82679423079965 - 15.444995300858443
73 - 86.82679423079965 - 15.904336824552294
74 - 101.6514022208719 - 18.861024902435126
75 - 101.6514022208719 - 22.21194279912889
76 - 101.6514022208719 - 22.898599008928972
77 - 101.6514022208719 - 18.437749907119766
78 - 101.6514022208719 - 16.58065540295157
79 - 101.6514022208719 - 16.811072123993334
80 - 101.6514022208719 - 17.02389176265264
81 - 101.6514022208719 - 18.709303601008543
82 - 101.6514022208719 - 21.18428106835731
83 - 101.6514022208719 - 23.45971444037136
84 - 101.6514022208719 - 18.798153613572925
85 - 101.6514022208719 - 17.958658376878297
86 - 101.6514022208719 - 17.995075188828018
87 - 101.6514022208719 - 18.419424475541284
88 - 101.6514022208719 - 19.081488738950974
89 - 101.6514022208719 - 22.200254308764702
90 - 101.6514022208719 - 24.58653016994747
91 - 101.6514022208719 - 22.326385248074008
92 - 101.6514022208719 - 18.380630126113854
93 - 101.6514022208719 - 19.3823724991174
94 - 101.6514022208719 - 19.4075205050433
95 - 101.6514022208719 - 21.33139698211339
96 - 101.6514022208719 - 24.16478116551593
97 - 101.6514022208719 - 25.924001502418825
98 - 101.6514022208719 - 23.259777785577334
