0 - 3.125 - 1.4694812009685594
1 - 3.925 - 1.6490527584040482
2 - 3.925 - 1.6490527584040482
3 - 3.925 - 1.6490527584040482
4 - 3.925 - 1.6490527584040482
5 - 3.875 - 1.5841006912440887
6 - 3.9 - 1.57797338380595
7 - 4.675 - 1.8219152011002049
8 - 5.45 - 2.1207310060448497
9 - 5.45 - 2.1207310060448497
10 - 5.45 - 2.1207310060448497
11 - 5.45 - 2.1207310060448497
12 - 5.15 - 1.930673457630782
13 - 5.025 - 2.1152718501412533
14 - 5.825 - 2.3225793850803034
15 - 6.625 - 2.5757280524154718
16 - 6.625 - 2.5757280524154718
17 - 6.625 - 2.5757280524154718
18 - 6.625 - 2.5757280524154718
19 - 6.35 - 2.4753787588973126
20 - 6.375 - 2.4257730726512734
21 - 7.15 - 2.7617928959282954
22 - 7.925 - 3.1175912175909137
23 - 7.925 - 3.1175912175909137
24 - 7.925 - 3.1175912175909137
25 - 7.925 - 3.1175912175909137
26 - 7.35 - 2.911614672308134
27 - 7.3 - 2.8035691537752374
28 - 8.125 - 3.075609695653855
29 - 8.95 - 3.3686050525402944
30 - 8.95 - 3.3686050525402944
31 - 8.95 - 3.3686050525402944
32 - 8.95 - 3.3686050525402944
33 - 8.225 - 3.3353223232545304
34 - 7.875 - 3.6068511197442015
35 - 8.7 - 3.8483762809787723
36 - 9.5 - 4.068169121361598
37 - 9.5 - 4.068169121361598
38 - 9.5 - 4.068169121361598
39 - 9.5 - 4.068169121361598
40 - 8.95 - 3.814118508908709
41 - 8.525 - 3.993666861419465
42 - 9.35 - 4.180610003336834
43 - 10.15 - 4.407663780280887
44 - 10.15 - 4.407663780280887
45 - 10.15 - 4.407663780280887
46 - 10.15 - 4.407663780280887
47 - 9.225 - 4.027949230067331
48 - 8.65 - 4.144574767090106
49 - 9.4 - 4.334743360338648
50 - 10.125 - 4.5999320647157385
51 - 10.125 - 4.5999320647157385
52 - 10.125 - 4.5999320647157385
53 - 10.125 - 4.5999320647157385
54 - 9.3 - 4.220189569201839
55 - 8.975 - 4.221892348224904
56 - 9.8 - 4.382921400162226
57 - 10.575 - 4.504927857357985
58 - 10.575 - 4.504927857357985
59 - 10.575 - 4.504927857357985
60 - 10.575 - 4.504927857357985
61 - 9.925 - 4.33813035765409
62 - 9.075 - 4.628107064448704
63 - 9.875 - 4.696740891298987
64 - 10.55 - 4.748420790115383
65 - 10.55 - 4.748420790115383
66 - 10.55 - 4.748420790115383
67 - 10.55 - 4.748420790115383
68 - 9.7 - 4.484417464955733
69 - 9.425 - 4.5436081477169665
70 - 10.175 - 4.5983013167908
71 - 10.85 - 4.601901780785853
72 - 10.85 - 4.601901780785853
73 - 10.85 - 4.601901780785853
74 - 10.85 - 4.601901780785853
75 - 10.05 - 4.341370751271999
76 - 9.475 - 4.695676202635782
77 - 10.225 - 4.617832283658642
78 - 10.925 - 4.518780255776994
79 - 10.925 - 4.518780255776994
80 - 10.925 - 4.518780255776994
81 - 10.925 - 4.518780255776994
82 - 10.375 - 4.408443602905678
83 - 9.95 - 4.58775544247947
84 - 10.675 - 4.502152263084846
85 - 11.3 - 4.422668877499196
86 - 11.3 - 4.422668877499196
87 - 11.3 - 4.422668877499196
88 - 11.3 - 4.422668877499196
89 - 10.7 - 4.28485705712571
90 - 10.175 - 4.549107055236226
91 - 10.9 - 4.4034077712608
92 - 11.6 - 4.270831300812525
93 - 11.6 - 4.270831300812525
94 - 11.6 - 4.270831300812525
95 - 11.6 - 4.270831300812525
96 - 11.025 - 4.303995236986212
97 - 10.5 - 4.727578661429125
98 - 11.225 - 4.535898477699871
99 - 11.9 - 4.328972164382673
100 - 11.9 - 4.328972164382673
101 - 11.9 - 4.328972164382673
102 - 11.9 - 4.328972164382673
103 - 11.175 - 4.521545642808442
104 - 10.9 - 4.651881339845202
105 - 11.55 - 4.324060591619873
106 - 12.175 - 3.999296813191039
107 - 12.175 - 3.999296813191039
108 - 12.175 - 3.999296813191039
109 - 12.175 - 3.999296813191039
110 - 11.525 - 4.271928721315467
111 - 10.75 - 4.846390409366542
112 - 11.4 - 4.521061822182926
113 - 12.0 - 4.171330722922842
114 - 12.0 - 4.171330722922842
115 - 12.0 - 4.171330722922842
116 - 12.0 - 4.171330722922842
117 - 11.275 - 4.460871551614101
118 - 10.775 - 4.787940580249508
119 - 11.425 - 4.460311087805423
120 - 12.0 - 4.2485291572496005
121 - 12.0 - 4.2485291572496005
122 - 12.0 - 4.2485291572496005
123 - 12.0 - 4.2485291572496005
124 - 11.475 - 4.370283171603415
125 - 11.0 - 4.769696007084728
126 - 11.625 - 4.414110895752394
127 - 12.25 - 4.139746369042432
128 - 12.25 - 4.139746369042432
129 - 12.25 - 4.139746369042432
130 - 12.25 - 4.139746369042432
131 - 11.375 - 4.3167551470983385
132 - 10.7 - 4.905099387372289
133 - 11.4 - 4.619523784980438
134 - 12.05 - 4.31248188401992
135 - 12.05 - 4.31248188401992
136 - 12.05 - 4.31248188401992
137 - 12.05 - 4.31248188401992
138 - 11.25 - 4.4483142874576656
139 - 10.9 - 4.4147480109288235
140 - 11.6 - 4.109744517606903
141 - 12.25 - 3.7798809505062456
142 - 12.25 - 3.7798809505062456
143 - 12.25 - 3.7798809505062456
144 - 12.25 - 3.7798809505062456
145 - 11.55 - 3.8206674809514634
146 - 10.95 - 4.499722213648305
147 - 11.675 - 4.395381098380435
148 - 12.275 - 4.213000712081592
149 - 12.275 - 4.213000712081592
150 - 12.275 - 4.213000712081592
151 - 12.275 - 4.213000712081592
152 - 11.65 - 4.281062952118317
153 - 11.05 - 4.795570873212072
154 - 11.725 - 4.65288888756222
155 - 12.3 - 4.46206230346462
156 - 12.3 - 4.46206230346462
157 - 12.3 - 4.46206230346462
158 - 12.3 - 4.46206230346462
159 - 11.35 - 4.480792340646908
160 - 11.05 - 4.604074282632721
161 - 11.8 - 4.3772137256478585
162 - 12.425 - 4.061326753660681
163 - 12.425 - 4.061326753660681
164 - 12.425 - 4.061326753660681
165 - 12.425 - 4.061326753660681
166 - 11.5 - 4.189272013130682
167 - 11.225 - 4.435580570793411
168 - 11.9 - 4.127953488110058
169 - 12.45 - 3.8075582726991835
170 - 12.45 - 3.8075582726991835
171 - 12.45 - 3.8075582726991835
172 - 12.45 - 3.8075582726991835
173 - 11.95 - 3.9048047326338873
174 - 11.35 - 4.413332074521472
175 - 12.025 - 4.113924525316428
176 - 12.625 - 3.8580273456780994
177 - 12.625 - 3.8580273456780994
178 - 12.625 - 3.8580273456780994
179 - 12.625 - 3.8580273456780994
180 - 11.975 - 4.040343425997349
181 - 11.25 - 4.619253186392796
182 - 11.9 - 4.380639222761902
183 - 12.5 - 4.135214625627067
184 - 12.5 - 4.135214625627067
185 - 12.5 - 4.135214625627067
186 - 12.5 - 4.135214625627067
187 - 11.85 - 4.216337273036872
188 - 11.325 - 4.72433857804455
189 - 11.975 - 4.418639496496631
190 - 12.55 - 4.0740029455070355
191 - 12.55 - 4.0740029455070355
192 - 12.55 - 4.0740029455070355
193 - 12.55 - 4.0740029455070355
194 - 11.575 - 4.091989125107739
195 - 10.925 - 4.6227021318704935
196 - 11.625 - 4.414110895752394
197 - 12.2 - 4.202380277890139
198 - 12.2 - 4.202380277890139
199 - 12.2 - 4.202380277890139
200 - 12.2 - 4.202380277890139
201 - 11.55 - 4.306680856529771
202 - 11.15 - 4.5307284182568255
203 - 11.85 - 4.251764339659478
204 - 12.45 - 3.9934321078490864
205 - 12.45 - 3.9934321078490864
206 - 12.45 - 3.9934321078490864
207 - 12.45 - 3.9934321078490864
208 - 11.85 - 4.046912403302053
209 - 11.75 - 4.103352288068866
210 - 12.4 - 3.7868192457522976
211 - 12.975 - 3.4313809173567424
212 - 12.975 - 3.4313809173567424
213 - 12.975 - 3.4313809173567424
214 - 12.975 - 3.4313809173567424
215 - 12.35 - 3.5885233731996227
216 - 11.5 - 4.024922359499621
217 - 12.175 - 3.707340691115399
218 - 12.8 - 3.370459909270544
219 - 12.8 - 3.370459909270544
220 - 12.8 - 3.370459909270544
221 - 12.8 - 3.370459909270544
222 - 12.05 - 3.653423052426314
223 - 11.225 - 4.546908290256138
224 - 11.85 - 4.27521929262114
225 - 12.425 - 3.9930408212288544
226 - 12.425 - 3.9930408212288544
227 - 12.425 - 3.9930408212288544
228 - 12.425 - 3.9930408212288544
229 - 11.8 - 4.166533331199932
230 - 11.075 - 4.829013874488248
231 - 11.7 - 4.484417464955733
232 - 12.25 - 4.258814389005466
233 - 12.25 - 4.258814389005466
234 - 12.25 - 4.258814389005466
235 - 12.25 - 4.258814389005466
236 - 11.5 - 4.376071297408213
237 - 11.425 - 4.38113855065096
238 - 12.075 - 4.05824777459435
239 - 12.65 - 3.6915443922564455
240 - 12.65 - 3.6915443922564455
241 - 12.65 - 3.6915443922564455
242 - 12.65 - 3.6915443922564455
243 - 11.875 - 3.75624480032918
244 - 11.025 - 4.412978019433136
245 - 11.7 - 4.172529209005012
246 - 12.325 - 3.9203794459210197
247 - 12.325 - 3.9203794459210197
248 - 12.325 - 3.9203794459210197
249 - 12.325 - 3.9203794459210197
250 - 11.5 - 4.123105625617661
251 - 10.925 - 4.671121385706007
252 - 11.625 - 4.464792828340415
253 - 12.25 - 4.223446459942401
254 - 12.25 - 4.223446459942401
255 - 12.25 - 4.223446459942401
256 - 12.25 - 4.223446459942401
257 - 11.475 - 4.301089978133449
258 - 11.075 - 4.573770326546797
259 - 11.75 - 4.264680527307995
260 - 12.375 - 3.9350190596742984
261 - 12.375 - 3.9350190596742984
262 - 12.375 - 3.9350190596742984
263 - 12.375 - 3.9350190596742984
264 - 11.75 - 4.091148982865327
265 - 11.175 - 4.576502485523197
266 - 11.8 - 4.302324952859791
267 - 12.375 - 4.016761755444303
268 - 12.375 - 4.016761755444303
269 - 12.375 - 4.016761755444303
270 - 12.375 - 4.016761755444303
271 - 11.525 - 4.207062514391722
272 - 11.0 - 4.488875137492688
273 - 11.65 - 4.138538389335056
274 - 12.25 - 3.851947559352282
275 - 12.25 - 3.851947559352282
276 - 12.25 - 3.851947559352282
277 - 12.25 - 3.851947559352282
278 - 11.55 - 4.116734142496939
279 - 10.975 - 4.390259103970972
280 - 11.625 - 4.02919036532155
281 - 12.225 - 3.7315378867164144
282 - 12.225 - 3.7315378867164144
283 - 12.225 - 3.7315378867164144
284 - 12.225 - 3.7315378867164144
285 - 11.55 - 3.974606898801441
286 - 11.0 - 4.4328320518603
287 - 11.65 - 4.077683165720456
288 - 12.25 - 3.692898590538332
289 - 12.25 - 3.692898590538332
290 - 12.25 - 3.692898590538332
291 - 12.25 - 3.692898590538332
292 - 11.6 - 3.871692136521188
293 - 11.075 - 4.3208072162502225
294 - 11.75 - 3.992179855667828
295 - 12.35 - 3.705064102009572
296 - 12.35 - 3.705064102009572
297 - 12.35 - 3.705064102009572
298 - 12.35 - 3.705064102009572
