0 - 2.0 - 0.0
1 - 2.975 - 0.15612494995995993
2 - 2.975 - 0.15612494995995993
3 - 2.975 - 0.15612494995995993
4 - 2.975 - 0.15612494995995993
5 - 2.975 - 0.15612494995995993
6 - 3.05 - 0.3840572873934306
7 - 4.0 - 0.31622776601683794
8 - 4.95 - 0.4444097208657796
9 - 4.95 - 0.4444097208657796
10 - 4.95 - 0.4444097208657796
11 - 4.95 - 0.4444097208657796
12 - 4.575 - 0.7709571972554636
13 - 4.775 - 1.106514798816536
14 - 5.75 - 1.0665364503850772
15 - 6.65 - 1.0851267207105355
16 - 6.65 - 1.0851267207105355
17 - 6.65 - 1.0851267207105355
18 - 6.65 - 1.0851267207105355
19 - 6.025 - 1.1508149286483906
20 - 6.2 - 1.2884098726725124
21 - 7.175 - 1.3395428324618812
22 - 8.1 - 1.4106735979665888
23 - 8.1 - 1.4106735979665888
24 - 8.1 - 1.4106735979665888
25 - 8.1 - 1.4106735979665888
26 - 7.2 - 1.3076696830622019
27 - 7.125 - 1.6307590257300433
28 - 8.05 - 1.61167614612862
29 - 8.95 - 1.5960889699512368
30 - 8.95 - 1.5960889699512368
31 - 8.95 - 1.5960889699512368
32 - 8.95 - 1.5960889699512368
33 - 7.825 - 1.6865274975522933
34 - 7.625 - 1.996089927833914
35 - 8.575 - 1.9860450649469163
36 - 9.5 - 2.0371548787463363
37 - 9.5 - 2.0371548787463363
38 - 9.5 - 2.0371548787463363
39 - 9.5 - 2.0371548787463363
40 - 8.4 - 2.374868417407584
41 - 8.025 - 2.612350474189862
42 - 8.95 - 2.6263091973337795
43 - 9.85 - 2.6320144376503714
44 - 9.85 - 2.6320144376503714
45 - 9.85 - 2.6320144376503714
46 - 9.85 - 2.6320144376503714
47 - 8.55 - 2.9744747435471695
48 - 8.325 - 3.1335881988544694
49 - 9.25 - 3.096368841078207
50 - 10.125 - 3.042922115335849
51 - 10.125 - 3.042922115335849
52 - 10.125 - 3.042922115335849
53 - 10.125 - 3.042922115335849
54 - 9.05 - 3.089902911096075
55 - 8.45 - 2.880538144166815
56 - 9.325 - 2.823008147349207
57 - 10.15 - 2.7253440149823285
58 - 10.15 - 2.7253440149823285
59 - 10.15 - 2.7253440149823285
60 - 10.15 - 2.7253440149823285
61 - 8.975 - 2.902477390092815
62 - 8.3 - 3.0512292604784714
63 - 9.175 - 2.9823438768860977
64 - 10.0 - 2.8284271247461903
65 - 10.0 - 2.8284271247461903
66 - 10.0 - 2.8284271247461903
67 - 10.0 - 2.8284271247461903
68 - 8.75 - 3.014548058996572
69 - 8.45 - 3.089902911096075
70 - 9.35 - 3.004579837514723
71 - 10.225 - 2.893851240129665
72 - 10.225 - 2.893851240129665
73 - 10.225 - 2.893851240129665
74 - 10.225 - 2.893851240129665
75 - 8.925 - 3.0609434820002797
76 - 8.725 - 3.4712209667493075
77 - 9.625 - 3.359222380254097
78 - 10.45 - 3.1460292433478747
79 - 10.45 - 3.1460292433478747
80 - 10.45 - 3.1460292433478747
81 - 10.45 - 3.1460292433478747
82 - 8.875 - 3.051126841021199
