0 - 0.2642155069269634 - 0.01981590906452192
1 - 1.4741579977305317 - 0.09331847611701437
2 - 1.6183164415783 - 0.12565134232275085
3 - 1.6183164415783 - 0.16526694007622272
4 - 1.8944427274559676 - 0.18155223713844623
5 - 1.8944427274559676 - 0.18496631957051396
6 - 1.8944427274559676 - 0.1854518047372173
7 - 1.8944427274559676 - 0.19039132827659258
8 - 2.982174110677289 - 0.2626269231887297
9 - 2.982174110677289 - 0.2903518480407964
10 - 2.982174110677289 - 0.30892960494603844
11 - 2.982174110677289 - 0.3160565081300975
12 - 2.982174110677289 - 0.3341248888947341
13 - 2.982174110677289 - 0.3341248888947341
14 - 4.122994657223555 - 0.3412629205360865
15 - 4.122994657223555 - 0.3510292132543414
16 - 5.0 - 0.48370088622817525
17 - 5.0 - 0.513129304097077
18 - 6.247983000152989 - 0.6203896996409687
19 - 6.247983431816101 - 0.6330134558038154
20 - 6.247983431816101 - 0.6330134770262059
21 - 6.247985110784832 - 0.664766785559483
22 - 7.038976767188624 - 0.6876457879805749
23 - 7.038976767188624 - 0.7133949690070581
24 - 7.038976767188624 - 0.7505393870523596
25 - 7.301102934166003 - 0.8462916201548664
26 - 7.408862277096822 - 0.8902003278025286
27 - 7.408862277096822 - 0.8968188431748049
28 - 7.408862277096822 - 0.895121418621126
29 - 7.408862277096822 - 0.8972283598276828
30 - 7.408862277096822 - 0.9582910326741791
31 - 7.408862277096822 - 1.0333499514958597
32 - 8.481924325666927 - 1.1285909597308528
33 - 9.003456498572703 - 1.1842930051114933
34 - 9.005971644426646 - 1.2021979310360915
35 - 9.005971644426646 - 1.253657354842733
36 - 9.005971644426646 - 1.2279332738606539
37 - 9.005971644426646 - 1.227970590812302
38 - 9.005971644426646 - 1.24236362615175
39 - 9.21874709618719 - 1.269819494164614
40 - 9.21874709618719 - 1.3236055124441741
41 - 9.21874709618719 - 1.3266667232682525
42 - 27.565394275062964 - 2.0124316793063795
43 - 27.565394275062964 - 1.9758056378547082
44 - 27.565394275062964 - 2.032871595919811
45 - 27.565394275062964 - 2.1356758934310562
46 - 27.565394275062964 - 2.529060741308997
47 - 27.565394275062964 - 2.7582825503688717
48 - 27.565394275062964 - 2.7703040347760632
49 - 27.565394275062964 - 3.007355610914561
50 - 27.565394275062964 - 2.974679647074422
51 - 27.565394275062964 - 2.9805395757552624
52 - 27.565394275062964 - 3.0031459008871852
53 - 27.684074465475582 - 3.052344151371395
54 - 28.83512239042081 - 3.2544296006713376
55 - 29.04557742934477 - 3.314945354694218
56 - 32.60097722153915 - 3.515778173563041
57 - 32.60097722153915 - 3.374953983614914
58 - 32.7979707243568 - 3.485944917987846
59 - 32.7979707243568 - 3.632767506650071
60 - 32.7979707243568 - 3.899498074076566
61 - 32.7979707243568 - 4.0640208504111275
62 - 32.7979707243568 - 4.1184151209828626
63 - 32.7979707243568 - 3.790454804422166
64 - 32.7979707243568 - 3.684157099290329
65 - 32.7979707243568 - 3.8064872857636702
66 - 32.7979707243568 - 4.0683999591199775
67 - 32.7979707243568 - 4.186009601310421
68 - 34.134236266926706 - 4.619592911200492
69 - 34.134236266926706 - 4.892701589144686
70 - 34.134236266926706 - 4.268216754597399
71 - 34.134236266926706 - 3.9595318725903867
72 - 34.134236266926706 - 4.012464679345447
73 - 34.134236266926706 - 4.087237763177187
74 - 34.134236266926706 - 4.35503484142481
75 - 34.134236266926706 - 4.711260693199762
76 - 34.134236266926706 - 5.240935820222516
77 - 34.134236266926706 - 4.583272730422816
78 - 34.134236266926706 - 4.327951377707846
79 - 34.134236266926706 - 4.594634323621923
80 - 34.134236266926706 - 4.691158934929376
81 - 34.134236266926706 - 4.785412364063389
82 - 34.134236266926706 - 5.199680462386745
83 - 34.134236266926706 - 5.80963080473185
84 - 34.134236266926706 - 5.2930087237932915
85 - 34.134236266926706 - 5.310062625455453
86 - 34.134236266926706 - 5.369117271081423
87 - 34.134236266926706 - 5.463526325920217
88 - 34.134236266926706 - 5.585589981653435
89 - 34.134236266926706 - 6.081367166013261
90 - 36.78591207617207 - 6.7484102384526
91 - 36.78591207617207 - 5.965387703254548
92 - 40.13170962923449 - 6.292641039232198
93 - 40.13170962923449 - 6.421834297199108
94 - 40.13170962923449 - 6.481875256299736
95 - 44.20581892013549 - 6.867182638772701
96 - 50.22005604806698 - 7.720892231222033
97 - 50.22005604806698 - 7.915262943558771
98 - 50.22005604806698 - 7.600622659427148
99 - 50.22005604806698 - 7.289366221546665
100 - 50.22005604806698 - 7.295657982304448
101 - 50.22005604806698 - 7.511212707366195
102 - 50.22005604806698 - 8.272836461473641
103 - 50.22005604806698 - 9.080365769661196
104 - 50.22005604806698 - 9.2926635551841
105 - 50.22005604806698 - 8.994239043766653
106 - 50.22005604806698 - 8.418088964651407
107 - 50.22005604806698 - 8.589160786004715
108 - 50.22005604806698 - 9.165035974116622
109 - 50.22005604806698 - 9.369390527519236
110 - 50.22005604806698 - 10.275987951736067
111 - 50.22005604806698 - 10.737229618663324
112 - 50.22005604806698 - 9.148990662754198
113 - 50.22005604806698 - 8.348323979359598
114 - 50.22005604806698 - 8.37100229404939
115 - 50.22005604806698 - 8.532071626570863
116 - 50.22005604806698 - 9.729776590111795
117 - 50.22005604806698 - 11.325821881721158
118 - 50.22005604806698 - 11.610324768948189
119 - 50.22005604806698 - 10.305255020352035
120 - 50.22005604806698 - 9.348468809706095
121 - 50.22005604806698 - 9.632757466859562
122 - 50.22005604806698 - 10.041158893982423
123 - 50.22005604806698 - 10.124407646621075
124 - 50.22005604806698 - 11.310036834691653
125 - 50.22005604806698 - 11.922687860689948
126 - 50.22005604806698 - 10.490529867455212
127 - 50.22005604806698 - 9.492372573213272
128 - 50.22005604806698 - 9.583907673522663
129 - 50.22005604806698 - 9.666159827903147
130 - 50.22005604806698 - 9.893574230549822
131 - 50.22005604806698 - 11.509606121097338
132 - 50.22005604806698 - 11.941140252699475
133 - 50.22005604806698 - 11.076060172705297
134 - 50.22005604806698 - 9.779890098812675
135 - 50.22005604806698 - 10.396733751224453
136 - 50.22005604806698 - 10.439324949528677
137 - 50.22005604806698 - 10.918196364489413
138 - 50.22005604806698 - 11.799779322428964
139 - 50.22005604806698 - 12.529450018960555
140 - 50.22005604806698 - 12.018338928980759
141 - 50.22005604806698 - 11.093296706316996
142 - 50.22005604806698 - 11.343820830909959
143 - 50.22005604806698 - 11.41877513010308
144 - 50.22005604806698 - 11.850483058361053
145 - 50.22005604806698 - 13.44720447154003
146 - 50.22005604806698 - 13.718966865056956
147 - 50.22005604806698 - 11.961685263818488
148 - 50.22005604806698 - 11.562448203318434
149 - 50.22005604806698 - 11.734274047051638
150 - 50.22005604806698 - 11.950723964653498
151 - 50.877334937923834 - 12.071920089140662
152 - 50.877334937923834 - 13.961573085298806
153 - 50.877334937923834 - 14.783326707371168
154 - 50.877334937923834 - 13.087385208857885
155 - 50.877334937923834 - 11.63238175812101
156 - 50.877334937923834 - 11.956444564093234
157 - 50.877334937923834 - 12.044588701840818
158 - 50.877334937923834 - 12.518372994391735
159 - 50.877334937923834 - 14.928118100795022
160 - 50.877334937923834 - 16.04881363652299
161 - 50.877334937923834 - 13.291573417401576
162 - 50.877334937923834 - 12.483460875359539
163 - 50.877334937923834 - 12.560266856505185
164 - 50.877334937923834 - 12.757875630554857
165 - 50.877334937923834 - 13.250932804156502
166 - 50.877334937923834 - 15.162185449062752
167 - 50.877334937923834 - 16.249998393947507
168 - 50.877334937923834 - 14.986512222482663
169 - 51.025917088734474 - 14.275956199609107
170 - 51.025917088734474 - 14.389603260899923
171 - 51.025917088734474 - 15.152511435675857
172 - 51.025917088734474 - 15.20836425349464
173 - 51.025917088734474 - 16.463699190576087
174 - 51.025917088734474 - 16.84311894071333
175 - 51.025917088734474 - 15.069711922329134
176 - 51.025917088734474 - 15.291427186628443
177 - 53.52072258246571 - 15.483241253100115
178 - 53.52072258246571 - 15.679174564053985
179 - 53.52072258246571 - 16.2933143204717
180 - 54.49940562524292 - 17.203575862136635
181 - 54.49940562524292 - 17.63243733527134
182 - 54.49940562524292 - 15.762471077990885
183 - 54.49940562524292 - 13.780440667755176
184 - 54.49940562524292 - 13.96701265137257
185 - 54.49940562524292 - 14.058599236177685
186 - 54.49940562524292 - 14.483022651363815
187 - 54.49940562524292 - 17.463039661998387
188 - 54.49940562524292 - 18.245202391929944
189 - 54.49940562524292 - 16.521977931488546
190 - 55.51490133887842 - 15.766023503010846
191 - 55.51490133887842 - 16.280394238556344
192 - 55.51490133887842 - 16.325265954333283
193 - 55.98359211996979 - 16.733861053914595
194 - 55.98359211996979 - 18.18462444350296
195 - 55.98359211996979 - 18.88573172775697
196 - 55.98359211996979 - 16.81199823414531
197 - 55.98359211996979 - 16.08995754761719
198 - 55.98359211996979 - 16.232110325062244
199 - 55.98359211996979 - 16.297245821867328
200 - 56.3391420453473 - 16.96634238929467
201 - 56.3391420453473 - 18.279387436602253
202 - 56.3391420453473 - 19.082343448643574
203 - 56.3391420453473 - 16.486521195420924
204 - 56.3391420453473 - 14.33964851439446
205 - 60.85705252509368 - 15.02922485476615
206 - 60.85705252509368 - 15.42910001258062
207 - 60.85705252509368 - 16.328921434698685
208 - 63.100887724098406 - 18.908783395479723
209 - 63.100887724098406 - 19.64954689880479
210 - 63.100887724098406 - 18.07766318147867
211 - 63.100887724098406 - 17.073450592580844
212 - 63.100887724098406 - 17.286260652714905
213 - 63.100887724098406 - 17.48185757173572
214 - 63.100887724098406 - 17.878634819193586
215 - 63.100887724098406 - 19.22801964423638
216 - 63.100887724098406 - 20.349591148140597
217 - 63.100887724098406 - 19.56008450661879
218 - 63.100887724098406 - 17.96285244660131
219 - 63.100887724098406 - 18.05181025638711
220 - 63.100887724098406 - 18.544325221772922
221 - 63.100887724098406 - 18.917037455455638
222 - 63.100887724098406 - 20.225285380932558
223 - 63.100887724098406 - 20.790538589833055
224 - 63.100887724098406 - 19.60197399591683
225 - 63.100887724098406 - 17.982000034660018
226 - 63.100887724098406 - 18.00276765402709
227 - 63.100887724098406 - 18.072545288874476
228 - 63.100887724098406 - 18.389067475716395
229 - 63.100887724098406 - 19.80308284111364
230 - 63.100887724098406 - 21.069917796451342
231 - 63.100887724098406 - 19.727593314412506
232 - 63.100887724098406 - 18.70121618025628
233 - 63.100887724098406 - 18.938325827912387
234 - 63.100887724098406 - 19.147451177151535
235 - 63.100887724098406 - 19.859010274970565
236 - 63.100887724098406 - 21.07837290894078
237 - 63.100887724098406 - 21.636060245424066
238 - 63.100887724098406 - 20.16057618405433
239 - 63.100887724098406 - 17.79189018808091
240 - 63.100887724098406 - 17.995184186407673
241 - 63.100887724098406 - 18.461795571775973
242 - 63.100887724098406 - 18.65590215209044
243 - 63.100887724098406 - 20.75708986804448
244 - 63.100887724098406 - 21.329271465976344
245 - 63.100887724098406 - 19.83697764379435
246 - 63.100887724098406 - 18.478900031972348
247 - 63.100887724098406 - 18.561903989624096
248 - 63.100887724098406 - 18.616691028931974
249 - 63.100887724098406 - 18.814688503855983
250 - 63.100887724098406 - 20.33825728621519
251 - 63.100887724098406 - 20.838809277704314
252 - 63.100887724098406 - 19.283900862312333
253 - 63.100887724098406 - 18.212631459723603
254 - 63.100887724098406 - 18.803565924548828
255 - 63.100887724098406 - 18.847492346897766
256 - 63.100887724098406 - 19.858223780012477
257 - 63.100887724098406 - 21.20444775387144
258 - 63.100887724098406 - 21.747718418671752
259 - 63.100887724098406 - 20.428894712185144
260 - 63.100887724098406 - 19.057866546741536
261 - 63.100887724098406 - 19.11257478993603
262 - 63.100887724098406 - 19.14096209495624
263 - 63.100887724098406 - 19.71324869395037
264 - 63.100887724098406 - 21.0127507534067
265 - 63.100887724098406 - 21.460046121268004
266 - 63.100887724098406 - 20.231699399849703
267 - 63.100887724098406 - 18.366997724138947
268 - 63.100887724098406 - 18.478093032391552
269 - 63.100887724098406 - 18.623249765950867
270 - 63.100887724098406 - 19.195590147449412
271 - 63.100887724098406 - 21.204695297324754
272 - 63.100887724098406 - 21.626419374085213
273 - 63.100887724098406 - 20.804146352067285
274 - 63.100887724098406 - 19.49770728054
275 - 63.100887724098406 - 19.607226394563074
276 - 63.100887724098406 - 19.808802242411943
277 - 63.100887724098406 - 20.510721527221687
278 - 63.100887724098406 - 21.548046727098885
279 - 63.100887724098406 - 22.15028399460547
280 - 63.100887724098406 - 21.13827703014371
281 - 63.100887724098406 - 19.55396941182557
282 - 63.100887724098406 - 19.934817132117807
283 - 63.100887724098406 - 19.945359001234657
284 - 63.100887724098406 - 20.14397461397445
285 - 63.100887724098406 - 21.93922313615863
286 - 63.100887724098406 - 22.386109205030145
287 - 63.100887724098406 - 20.803707330211353
288 - 63.100887724098406 - 19.252523986243
289 - 63.100887724098406 - 19.717493388347613
290 - 63.100887724098406 - 19.851121896468392
291 - 63.100887724098406 - 20.335208130226018
292 - 63.100887724098406 - 22.093638184492956
293 - 63.100887724098406 - 23.67265961949884
294 - 63.100887724098406 - 22.326403238034406
295 - 63.100887724098406 - 20.7549507161191
296 - 63.100887724098406 - 20.826207585078187
297 - 63.100887724098406 - 21.005233208390898
298 - 63.100887724098406 - 21.542896010481673
299 - 63.100887724098406 - 23.237956344356583
300 - 63.100887724098406 - 23.9268714751322
301 - 63.100887724098406 - 22.57477783632613
302 - 63.100887724098406 - 21.332713293253807
303 - 63.100887724098406 - 21.79274235070577
304 - 63.100887724098406 - 22.12504035759955
305 - 63.100887724098406 - 22.37200000787323
306 - 63.100887724098406 - 24.23605010760921
307 - 63.100887724098406 - 25.051076312756187
308 - 63.100887724098406 - 23.66028121122726
309 - 63.100887724098406 - 22.564091868291158
310 - 63.100887724098406 - 22.674673169923057
311 - 63.100887724098406 - 22.84902109462977
312 - 63.100887724098406 - 23.118148748407
