0 - 3.025 - 1.5245901088489322
1 - 3.775 - 1.7100804074662688
2 - 3.775 - 1.7100804074662688
3 - 3.775 - 1.7100804074662688
4 - 3.775 - 1.7100804074662688
5 - 3.75 - 1.699264546796643
6 - 3.725 - 1.7886796806583338
7 - 4.5 - 2.0
8 - 5.275 - 2.2692234354509915
9 - 5.275 - 2.2692234354509915
10 - 5.275 - 2.2692234354509915
11 - 5.275 - 2.2692234354509915
12 - 5.25 - 2.2666053913286275
13 - 4.875 - 2.368411915187052
14 - 5.625 - 2.6333201476463133
15 - 6.375 - 2.93843070362396
16 - 6.375 - 2.93843070362396
17 - 6.375 - 2.93843070362396
18 - 6.375 - 2.93843070362396
19 - 6.05 - 2.6641133609514442
20 - 5.8 - 2.7313000567495322
21 - 6.6 - 2.939387691339814
22 - 7.425 - 3.2006835207499034
23 - 7.425 - 3.2006835207499034
24 - 7.425 - 3.2006835207499034
25 - 7.425 - 3.2006835207499034
26 - 6.875 - 3.0098795656969397
27 - 6.575 - 3.2702255273910388
28 - 7.4 - 3.5057096285916214
29 - 8.175 - 3.780790261307813
30 - 8.175 - 3.780790261307813
31 - 8.175 - 3.780790261307813
32 - 8.175 - 3.780790261307813
33 - 7.85 - 3.525265947414464
34 - 7.5 - 3.721558813185679
35 - 8.3 - 3.9446165846632044
36 - 9.1 - 4.211887937730538
37 - 9.1 - 4.211887937730538
38 - 9.1 - 4.211887937730538
39 - 9.1 - 4.211887937730538
40 - 8.65 - 4.089926649709015
41 - 8.45 - 4.183001314845598
42 - 9.225 - 4.48044361642907
43 - 9.925 - 4.713743204715335
44 - 9.925 - 4.713743204715335
45 - 9.925 - 4.713743204715335
46 - 9.925 - 4.713743204715335
47 - 8.85 - 4.2340878592679205
48 - 8.55 - 4.2127781807258735
49 - 9.375 - 4.4254237085278065
50 - 10.125 - 4.707374533643993
51 - 10.125 - 4.707374533643993
52 - 10.125 - 4.707374533643993
53 - 10.125 - 4.707374533643993
54 - 9.65 - 4.519679192155125
55 - 9.525 - 4.35308798440831
56 - 10.275 - 4.49993055501971
57 - 11.0 - 4.652956049652737
58 - 11.0 - 4.652956049652737
59 - 11.0 - 4.652956049652737
60 - 11.0 - 4.652956049652737
61 - 10.3 - 4.3999999999999995
62 - 9.8 - 4.702127178203499
63 - 10.55 - 4.7799058568135
64 - 11.2 - 4.859012245302536
65 - 11.2 - 4.859012245302536
66 - 11.2 - 4.859012245302536
67 - 11.2 - 4.859012245302536
68 - 10.475 - 4.566111584269486
69 - 9.975 - 4.50825631480731
70 - 10.675 - 4.485462629428541
71 - 11.35 - 4.480792340646907
72 - 11.35 - 4.480792340646907
73 - 11.35 - 4.480792340646907
74 - 11.35 - 4.480792340646907
75 - 10.525 - 4.260208328239359
76 - 10.125 - 4.4112781594454
77 - 10.8 - 4.534313619501854
78 - 11.4 - 4.6946778377222
79 - 11.4 - 4.6946778377222
80 - 11.4 - 4.6946778377222
81 - 11.4 - 4.6946778377222
82 - 10.6 - 4.437341546466759
83 - 10.1 - 4.651881339845202
84 - 10.8 - 4.796873982084583
85 - 11.375 - 4.851224072334734
86 - 11.375 - 4.851224072334734
87 - 11.375 - 4.851224072334734
88 - 11.375 - 4.851224072334734
89 - 10.925 - 4.755983073981656
90 - 10.825 - 4.7110906380582405
91 - 11.5 - 4.727578661429125
92 - 12.025 - 4.650201608532687
93 - 12.025 - 4.650201608532687
94 - 12.025 - 4.650201608532687
95 - 12.025 - 4.650201608532687
96 - 11.0 - 4.341658669218482
97 - 10.475 - 4.652888887562221
98 - 11.125 - 4.6914150317361605
99 - 11.65 - 4.650537603331468
100 - 11.65 - 4.650537603331468
101 - 11.65 - 4.650537603331468
102 - 11.65 - 4.650537603331468
103 - 11.0 - 4.421538193886829
104 - 10.85 - 4.547251917367235
105 - 11.5 - 4.54972526643093
106 - 12.05 - 4.582302914474337
107 - 12.05 - 4.582302914474337
108 - 12.05 - 4.582302914474337
109 - 12.05 - 4.582302914474337
110 - 11.0 - 4.410215414239989
111 - 10.85 - 4.379212257929501
112 - 11.5 - 4.301162633521313
113 - 12.1 - 4.223742416388575
114 - 12.1 - 4.223742416388575
115 - 12.1 - 4.223742416388575
116 - 12.1 - 4.223742416388575
117 - 11.275 - 4.086486877502483
118 - 11.0 - 4.09878030638384
119 - 11.675 - 3.9710672369024427
120 - 12.3 - 3.841874542459709
121 - 12.3 - 3.841874542459709
122 - 12.3 - 3.841874542459709
123 - 12.3 - 3.841874542459709
124 - 11.575 - 3.7939919609825226
125 - 11.175 - 4.018006346436004
126 - 11.9 - 3.884584919911006
127 - 12.5 - 3.7416573867739413
128 - 12.5 - 3.7416573867739413
129 - 12.5 - 3.7416573867739413
130 - 12.5 - 3.7416573867739413
131 - 11.825 - 3.833324275351617
132 - 11.1 - 4.4877611344633745
133 - 11.775 - 4.215966674441344
134 - 12.4 - 3.9293765408777004
135 - 12.4 - 3.9293765408777004
136 - 12.4 - 3.9293765408777004
137 - 12.4 - 3.9293765408777004
138 - 11.7 - 3.976179070414209
139 - 11.1 - 4.241462012089698
140 - 11.775 - 3.9337482125830068
141 - 12.4 - 3.7403208418530087
142 - 12.4 - 3.7403208418530087
143 - 12.4 - 3.7403208418530087
144 - 12.4 - 3.7403208418530087
145 - 11.325 - 3.635845843816814
146 - 11.1 - 3.766961640367472
147 - 11.8 - 3.4655446902326914
148 - 12.45 - 3.3162478797580857
149 - 12.45 - 3.3162478797580857
150 - 12.45 - 3.3162478797580857
151 - 12.45 - 3.3162478797580857
152 - 11.4 - 3.3823069050575523
153 - 10.3 - 4.1844951905815355
154 - 11.05 - 3.9871669139879256
155 - 11.75 - 3.8584323241440948
156 - 11.75 - 3.8584323241440948
157 - 11.75 - 3.8584323241440948
158 - 11.75 - 3.8584323241440948
159 - 10.85 - 3.844151401805085
160 - 10.3 - 4.063249930782009
161 - 11.025 - 3.9146359984039383
162 - 11.65 - 3.8636122993903004
163 - 11.65 - 3.8636122993903004
164 - 11.65 - 3.8636122993903004
165 - 11.65 - 3.8636122993903004
166 - 10.8 - 3.887158345115363
167 - 10.875 - 3.599913193397863
168 - 11.6 - 3.3823069050575527
169 - 12.25 - 3.112474899497183
170 - 12.25 - 3.112474899497183
171 - 12.25 - 3.112474899497183
172 - 12.25 - 3.112474899497183
173 - 11.275 - 3.308983983037694
174 - 10.025 - 4.14419775107318
175 - 10.775 - 3.9337482125830068
176 - 11.5 - 3.7282703764614498
177 - 11.5 - 3.7282703764614498
178 - 11.5 - 3.7282703764614498
179 - 11.5 - 3.7282703764614498
180 - 10.725 - 3.701266675072197
181 - 10.575 - 3.5276585719142384
182 - 11.3 - 3.303028912982749
183 - 11.975 - 3.0535839598740364
184 - 11.975 - 3.0535839598740364
185 - 11.975 - 3.0535839598740364
186 - 11.975 - 3.0535839598740364
187 - 11.2 - 3.132091952673165
188 - 10.375 - 3.941367148591971
189 - 11.1 - 3.8000000000000003
190 - 11.775 - 3.643401569961785
191 - 11.775 - 3.643401569961785
192 - 11.775 - 3.643401569961785
193 - 11.775 - 3.643401569961785
194 - 10.9 - 3.6041642581880198
195 - 10.075 - 3.9710672369024427
196 - 10.85 - 3.791767397929361
197 - 11.6 - 3.6180105030251086
198 - 11.6 - 3.6180105030251086
199 - 11.6 - 3.6180105030251086
200 - 11.6 - 3.6180105030251086
201 - 10.75 - 3.6107478449761623
202 - 9.875 - 4.2378502805077956
203 - 10.675 - 4.0950427348197485
204 - 11.35 - 4.089926649709014
205 - 11.35 - 4.089926649709014
206 - 11.35 - 4.089926649709014
207 - 11.35 - 4.089926649709014
208 - 10.45 - 4.061711461933258
209 - 9.85 - 4.239988207530771
210 - 10.65 - 4.138538389335055
211 - 11.35 - 4.034538387473839
212 - 11.35 - 4.034538387473839
213 - 11.35 - 4.034538387473839
214 - 11.35 - 4.034538387473839
215 - 10.175 - 4.182627762543542
216 - 9.675 - 4.343889386252831
217 - 10.45 - 4.128861828639946
218 - 11.2 - 4.001249804748512
219 - 11.2 - 4.001249804748512
220 - 11.2 - 4.001249804748512
221 - 11.2 - 4.001249804748512
222 - 10.35 - 4.046912403302053
223 - 10.225 - 4.058863757260152
224 - 10.95 - 3.846751876583672
225 - 11.625 - 3.6103150832025728
226 - 11.625 - 3.6103150832025728
227 - 11.625 - 3.6103150832025728
228 - 11.625 - 3.6103150832025728
229 - 10.825 - 3.639282209447352
230 - 9.475 - 4.2189305516919795
231 - 10.3 - 4.06324993078201
232 - 11.05 - 3.833731863341514
233 - 11.05 - 3.833731863341514
234 - 11.05 - 3.833731863341514
235 - 11.05 - 3.833731863341514
236 - 10.0 - 3.570714214271425
237 - 9.575 - 3.8005756142984444
238 - 10.425 - 3.6734690688775373
239 - 11.175 - 3.4270067114028233
240 - 11.175 - 3.4270067114028233
241 - 11.175 - 3.4270067114028233
242 - 11.175 - 3.4270067114028233
243 - 10.325 - 3.4524447859451715
244 - 9.65 - 3.870077518603472
245 - 10.475 - 3.827450195626326
246 - 11.175 - 3.727515928872739
247 - 11.175 - 3.727515928872739
248 - 11.175 - 3.727515928872739
249 - 11.175 - 3.727515928872739
250 - 10.2 - 3.7429934544425802
251 - 9.6 - 4.029888335921977
252 - 10.45 - 3.846751876583672
253 - 11.175 - 3.604771143914687
254 - 11.175 - 3.604771143914687
255 - 11.175 - 3.604771143914687
256 - 11.175 - 3.604771143914687
257 - 10.2 - 3.579106033634656
258 - 9.5 - 3.9370039370059056
259 - 10.35 - 3.7453304260105007
260 - 11.125 - 3.5650210378060883
261 - 11.125 - 3.5650210378060883
262 - 11.125 - 3.5650210378060883
263 - 11.125 - 3.5650210378060883
264 - 10.15 - 3.5464771252610667
265 - 9.475 - 3.9050448140834435
266 - 10.275 - 3.814364298280908
267 - 11.025 - 3.7847556063767187
268 - 11.025 - 3.7847556063767187
269 - 11.025 - 3.7847556063767187
270 - 11.025 - 3.7847556063767187
271 - 10.15 - 3.7050641020095725
272 - 9.525 - 3.7682058064813813
273 - 10.375 - 3.5685256059050494
274 - 11.2 - 3.3555923471125038
275 - 11.2 - 3.3555923471125038
276 - 11.2 - 3.3555923471125038
277 - 11.2 - 3.3555923471125038
278 - 10.025 - 3.2976317259512173
279 - 9.325 - 3.73086786150354
280 - 10.175 - 3.520564585403881
281 - 11.025 - 3.3353223232545313
282 - 11.025 - 3.3353223232545313
283 - 11.025 - 3.3353223232545313
284 - 11.025 - 3.3353223232545313
285 - 10.075 - 3.4812892726689633
286 - 9.375 - 3.6721077053920954
287 - 10.175 - 3.470500684339365
288 - 10.95 - 3.3686050525402944
289 - 10.95 - 3.3686050525402944
290 - 10.95 - 3.3686050525402944
291 - 10.95 - 3.3686050525402944
292 - 9.925 - 3.3792565750472394
293 - 9.15 - 3.7319565913874184
294 - 10.0 - 3.5142566781611158
295 - 10.825 - 3.277861345450719
296 - 10.825 - 3.277861345450719
297 - 10.825 - 3.277861345450719
298 - 10.825 - 3.277861345450719
299 - 9.85 - 3.3878459232969846
300 - 9.05 - 3.8206674809514634
301 - 9.875 - 3.6550478793033614
